! Filename:  P:\Prog\Test\Noise\ATS_data\Testdata_Net\Split files Spar\BFU760F_2W_C1_1V_5mA_60mA_Bias2_D.s2p
! Date/Time: Mon 06/Feb/2012 15:06:00
! BFU760_2W_C1_1V_5mA_60mA_Bias2_R.s2p
! MDIF S-parameter v. bias file
! BFU760_2W_C1_1V_5mA_60mA
! Date/time Fri Mar 18 10:56:44 2011
! VAR V_out= 1.0001
! VAR I_out= 7.5200
! VAR V_in= 0.7694
! VAR I_in= 0.0217
! Device data file deembeded for feedlines and parallel
! Original file: \Split files Spar\BFU760_2W_C1_1V_5mA_60mA_Bias2_R.s2p
! Feed-files: PR003V01_101208_Feed1.s2p, PR003V01_101208_Feed2.s2p
! Parallel-file: PR003V01_101208_Par.s2p
# MHz S MA R 50
!  Freq-MHz   S11-mag  S11-arg   S21-mag  S21-arg   S12-mag  S12-arg   S22-mag  S22-arg
         40   0.92685    -6.96    23.922   175.83 0.0050922    86.25   0.99534    -4.58
         50   0.92281    -9.28    23.918   174.18 0.0066595    81.51   0.99415    -5.81
         60   0.92226   -10.16    23.588   173.28 0.0075443    83.61   0.99369    -6.90
         70   0.92542   -12.04    23.644   172.52 0.0089447    83.77    0.9917    -8.09
         80   0.92376   -13.87    23.768   171.32  0.010234    82.76   0.98982    -9.23
         90   0.92224   -15.61    23.692   170.10  0.011487    81.79   0.98767   -10.39
        100   0.92198   -17.16    23.528   169.14  0.012768    80.79   0.98553   -11.55
        120   0.91947   -20.69    23.428   166.99  0.015211    79.07   0.97979   -13.90
        140   0.91702   -24.02     23.28   164.97  0.017689    77.46    0.9735   -16.16
        160   0.91304   -27.31    22.949   162.78  0.020087    75.51   0.96607   -18.42
        180   0.91116   -30.66    22.843   160.91   0.02244    73.87   0.95712   -20.60
        200   0.90721   -33.94    22.584   158.91  0.024743    72.08   0.94895   -22.80
        220   0.90406   -37.21    22.436   156.95  0.026893    70.50   0.93831   -24.96
        240   0.89858   -40.46    22.253   154.98  0.029048    68.81   0.92905   -27.04
        260   0.89577   -43.38     21.85   153.21  0.031099    67.16   0.91831   -29.11
        280   0.89205   -46.55    21.635   151.41  0.033122    65.66   0.90779   -31.09
        300   0.88781   -49.45    21.255   149.62  0.035094    64.01   0.89771   -33.17
        320    0.8836   -52.43    21.029   148.01  0.036879    62.47   0.88361   -35.17
        340    0.8783   -55.31    20.734   146.21  0.038617    61.02   0.87083   -37.07
        360   0.87593   -58.16    20.465   144.73  0.040302    59.59   0.85729   -38.88
        380    0.8713   -61.16    20.268   143.09  0.041892    58.25   0.84461   -40.66
        400   0.86556   -63.93    20.029   141.44  0.043498    57.02   0.83222   -42.29
        420   0.86026   -66.63    19.726   139.85  0.045018    55.66   0.82129   -44.02
        440     0.858   -69.03    19.355   138.51  0.046462    54.34   0.80925   -45.72
        460   0.85336   -71.76    19.137   137.01  0.047802    53.14   0.79694   -47.35
        480   0.84921   -73.99    18.725   135.65  0.049135    51.85     0.786   -49.07
        500     0.844   -76.54    18.489   134.22  0.050254    50.74   0.77128   -50.64
        550    0.8348   -82.34    17.815   130.94  0.052896    48.08   0.73816   -54.28
        600   0.82431   -87.79    17.103   127.87   0.05542    45.55   0.71116   -57.79
        650   0.81568   -92.66    16.378   125.07  0.057593    43.26   0.68391   -61.09
        700    0.8082   -97.36     15.72   122.48  0.059519    41.20   0.65757   -64.13
        750   0.80156  -101.90    15.134   119.96  0.061224    39.33   0.63283   -67.04
        800   0.79493  -106.02    14.533   117.64   0.06283    37.55    0.6107   -69.72
        850   0.78834  -109.76     13.93   115.48  0.064152    35.86   0.58923   -72.39
        900    0.7826  -113.46    13.425   113.40  0.065312    34.52   0.56791   -74.73
        950   0.77854  -116.87     12.94   111.48  0.066407    33.18    0.5491   -77.08
       1000   0.77333  -119.95     12.45   109.68  0.067366    31.85   0.53173   -79.47
       1050   0.76848  -123.03    12.009   107.93  0.068112    30.67   0.51408   -81.66
       1100    0.7652  -125.82    11.599   106.28  0.068971    29.63   0.49902   -83.64
       1150   0.76176  -128.54     11.21   104.68  0.069703    28.64   0.48453   -85.61
       1200   0.75837  -131.07    10.836   103.23  0.070369    27.68   0.47123   -87.57
       1250   0.75536  -133.51    10.472   101.77   0.07094    26.78   0.45828   -89.43
       1300   0.75327  -135.76    10.148   100.38  0.071464    25.98   0.44589   -91.15
       1350   0.75106  -137.90    9.8408    99.05  0.071987    25.23   0.43501   -92.92
       1400    0.7489  -140.04    9.5385    97.76  0.072371    24.46   0.42418   -94.71
       1450   0.74716  -142.02    9.2581    96.55  0.072757    23.80   0.41396   -96.33
       1500   0.74484  -143.82    8.9943    95.38  0.073139    23.20   0.40492   -97.87
       1550     0.743  -145.59    8.7388    94.21  0.073557    22.62   0.39607   -99.33
       1600   0.74177  -147.31    8.4985    93.12  0.073893    22.06   0.38804  -100.88
       1650   0.74022  -149.05    8.2656    92.01  0.074225    21.52      0.38  -102.37
       1700   0.73849  -150.59    8.0548    90.92  0.074525    21.02   0.37286  -103.72
       1750   0.73683  -152.13    7.8481    89.90  0.074824    20.56   0.36618  -105.19
       1800   0.73645  -153.66    7.6447    88.89  0.075058    20.08   0.35925  -106.56
       1850   0.73527  -155.11    7.4541    87.90  0.075218    19.66   0.35286  -107.95
       1900   0.73406  -156.44    7.2781    86.94  0.075454    19.29   0.34706  -109.27
       1950    0.7321  -157.76    7.1022    86.01  0.075678    18.91   0.34183  -110.47
       2000   0.73174  -159.03    6.9319    85.12  0.075835    18.56   0.33634  -111.87
       2050   0.73157  -160.25    6.7733    84.28   0.07601    18.28   0.33067  -113.12
       2100   0.73065  -161.50    6.6224    83.35  0.076295    17.95   0.32652  -114.23
       2150   0.72995  -162.62    6.4783    82.52  0.076424    17.64   0.32214  -115.48
       2200    0.7297  -163.73    6.3404    81.70  0.076659    17.42   0.31769  -116.53
       2250   0.72853  -164.92     6.203    80.87  0.076915    17.12    0.3142  -117.74
       2300   0.72808  -165.97    6.0729    80.09  0.077059    16.78   0.31028  -118.91
       2350   0.72792  -166.96    5.9489    79.32   0.07714    16.53   0.30731  -120.05
       2400   0.72835  -167.90    5.8318    78.59  0.077266    16.40   0.30354  -121.22
       2450     0.728  -168.94    5.7177    77.86  0.077438    16.22   0.30042  -122.31
       2500   0.72776  -170.08    5.6085    77.07  0.077601    16.01   0.29737  -123.50
       2600   0.72736  -171.87    5.4085    75.64  0.078018    15.62   0.29125  -125.40
       2700   0.72729  -173.80    5.2145    74.16  0.078353    15.25   0.28509  -127.42
       2800   0.72632  -175.50    5.0361    72.72   0.07869    14.87   0.28064  -129.31
       2900   0.72636  -177.17    4.8659    71.39  0.078902    14.62   0.27618  -131.15
       3000   0.72589  -178.73    4.7132    70.06  0.079281    14.37   0.27361  -132.99
       3100   0.72707   179.65     4.569    68.66  0.079523    14.10   0.27027  -134.66
       3200   0.72643   178.09    4.4308    67.31  0.079828    13.83   0.26694  -136.56
       3300   0.72796   176.61    4.3041    66.08  0.080053    13.50   0.26604  -138.30
       3400   0.72702   175.09    4.1805    64.74  0.080429    13.30   0.26412  -140.06
       3500   0.72726   173.68    4.0658    63.42  0.080642    13.10   0.26216  -141.77
       3600   0.72794   172.18    3.9521    62.18  0.080896    13.00   0.25944  -143.52
       3700   0.72702   171.01    3.8482    60.96  0.081178    12.88   0.25739  -145.01
       3800    0.7279   169.47    3.7504    59.65  0.081461    12.77   0.25606  -147.03
       3900   0.72744   168.31    3.6567    58.48   0.08195    12.72   0.25467  -148.52
       4000   0.72845   166.84    3.5633    57.23  0.082149    12.54    0.2541  -150.14
       4100   0.72854   165.81    3.4801    56.11  0.082443    12.58    0.2528  -151.63
       4200   0.72933   164.41    3.3978    54.83    0.0829    12.45   0.25186  -153.23
       4300   0.72962   163.29    3.3216    53.67  0.083361    12.37   0.25195  -154.69
       4400   0.73011   161.93     3.245    52.49  0.083747    12.27   0.25139  -156.28
       4500   0.72996   160.86    3.1758    51.33  0.084172    12.25   0.25095  -157.64
       4600   0.73128   159.66    3.1066    50.18  0.084566    12.15   0.25058  -159.14
       4700   0.73166   158.52    3.0425    49.00  0.084949    12.07   0.25113  -160.69
       4800   0.73221   157.30    2.9766    47.91  0.085375    11.99   0.25163  -162.04
       4900   0.73246   156.17    2.9168    46.72  0.085793    11.93   0.25121  -163.45
       5000    0.7331   155.05    2.8594    45.62  0.086346    11.87   0.25057  -164.89
       5200   0.73394   152.93    2.7459    43.44   0.08729    11.84   0.25264  -167.49
       5400   0.73536   150.74    2.6486    41.23  0.088275    11.64   0.25239  -170.15
       5600   0.73636   148.72    2.5501    39.04  0.089297    11.52   0.25521  -172.60
       5800   0.73737   146.65    2.4633    36.92  0.090317    11.45   0.25568  -175.16
       6000   0.73856   144.68    2.3803    34.75  0.091395    11.32   0.25865  -177.65
       6200   0.73972   142.74    2.3036    32.69  0.092594    11.29   0.26034  -179.97
       6400   0.74116   140.81    2.2303    30.60  0.093705    11.17   0.26319   177.57
       6600   0.74427   138.84    2.1635    28.50  0.095261    11.10    0.2664   175.35
       6800   0.74552   136.93    2.1017    26.45  0.096646    10.84   0.26949   172.88
       7000   0.74787   135.15    2.0391    24.39  0.098061    10.68    0.2734   170.46
       7200   0.74914   133.40    1.9869    22.41  0.099705    10.63   0.27532   168.29
       7400   0.75063   131.49    1.9317    20.30   0.10138    10.38   0.28053   166.18
       7600   0.75219   129.72    1.8807    18.23    0.1032     9.90   0.28322   163.80
       7800   0.75267   127.75    1.8281    16.29   0.10435     9.68   0.28846   161.38
       8000   0.75627   126.14     1.787    14.33   0.10672     9.55   0.29204   159.41
       8200   0.75908   124.16    1.7407    12.31   0.10844     8.98   0.29732   156.97
       8400   0.76283   122.65     1.705    10.44   0.11058     8.91   0.30016   155.24
       8600   0.76438   120.76    1.6603     8.39   0.11228     8.09   0.30794   152.66
       8800   0.76717   119.02    1.6233     6.31   0.11435     7.65   0.31164   150.33
       9000    0.7703   117.41    1.5889     4.42   0.11675     7.27   0.31625   148.69
       9200   0.77001   115.50    1.5511     2.45   0.11886     6.51   0.32258   146.65
       9400   0.77381   113.96    1.5174     0.51   0.12087     5.88   0.32739   144.78
       9600   0.77586   112.13     1.481    -1.47   0.12242     5.25   0.33329   142.12
       9800   0.77868   110.35    1.4485    -3.29   0.12437     4.67   0.33894   140.51
      10000   0.77924   108.92    1.4214    -5.01   0.12671     4.29   0.34293   138.37
      10200   0.78338   107.18    1.3904    -7.03   0.12885     3.42   0.35121   136.34
      10400   0.78461   105.60    1.3628    -8.93   0.13123     2.64   0.35524   134.74
      10600    0.7836   103.98    1.3328   -10.73   0.13307     1.85   0.36374   132.31
      10800   0.78488   102.55    1.3077   -12.43   0.13551     1.14   0.36728   130.98
      11000   0.78869   101.12    1.2889   -14.11   0.13808     0.60   0.37451   128.71
      11200   0.79632    99.33     1.264   -16.10   0.14032    -0.44   0.38205   127.35
      11400    0.7987    97.71     1.241   -17.85   0.14291    -1.24   0.38691   125.12
      11600   0.80367    96.10    1.2183   -19.65   0.14484    -2.10   0.39584   123.55
      11800   0.80698    94.78    1.1962   -21.37   0.14728    -2.98   0.40091   121.43
      12000    0.8118    92.89    1.1816   -23.32   0.14989    -4.00   0.40941   119.51
      12200   0.81451    91.02    1.1587   -25.24   0.15184    -4.91    0.4144   117.69
      12400   0.81366    89.19      1.14   -26.99    0.1549    -5.71   0.42093   115.55
      12600   0.81677    87.51    1.1155   -28.80   0.15711    -6.82   0.42741   114.03
      12800   0.82207    86.30    1.1002   -30.45   0.15998    -7.84     0.434   111.99
      13000   0.82076    84.33    1.0787   -32.34   0.16205    -9.13   0.44281   110.35
      13200   0.82481    83.45    1.0626   -33.93   0.16479   -10.16   0.44894   108.40
      13400   0.82243    81.63    1.0458   -35.78   0.16677   -11.73    0.4582   106.69
      13600   0.82765    79.90    1.0286   -37.69   0.16826   -12.91    0.4674   104.86
      13800   0.82824    78.30    1.0179   -39.42   0.17114   -14.13   0.47604   103.11
      14000   0.83449    76.52   0.99871   -41.23   0.17197   -15.60   0.48682   101.15
      14200   0.83623    75.15   0.98356   -43.13   0.17369   -16.46   0.49249    98.98
      14400   0.83869    73.04   0.96248   -44.97   0.17434   -17.61   0.50275    97.50
      14600   0.83983    71.75   0.94803   -46.38     0.177   -18.10    0.5073    95.45
      14800   0.84147    69.86   0.93124   -48.19   0.17927   -19.25   0.51754    94.10
      15000   0.84674    68.83    0.9172   -49.57   0.18245   -20.21   0.52364    92.07
      15200    0.8494    67.11   0.90854   -51.52   0.18576   -21.90   0.53329    90.87
      15400   0.85739    65.73   0.89184   -53.15   0.18661   -23.14   0.54087    88.93
      15600   0.85707    64.57   0.88254   -54.74   0.19029   -24.35   0.55062    87.28
      15800   0.86416    62.49   0.87017   -56.87   0.19094   -26.38   0.55992    85.63
      16000   0.86794    61.30   0.85578   -58.67   0.19168   -27.34   0.56748    83.47
      16200   0.87143    59.57    0.8425   -60.57   0.19329   -28.72   0.57374    81.72
      16400   0.87834    58.24   0.82693   -62.17   0.19378   -29.42   0.57493    79.65
      16600   0.87241    56.39   0.80819   -63.91   0.19678   -30.61   0.57984    78.70
      16800    0.8725    54.99   0.79455   -65.19   0.19781   -31.63   0.58728    76.93
      17000   0.87099    53.42   0.78597   -66.80   0.20033   -33.31   0.59938    75.92
      17200   0.87148    51.75   0.77523   -68.41   0.20122   -34.47   0.60953    73.66
      17400     0.877    49.87    0.7637   -70.20   0.20163   -35.79   0.61682    72.21
      17600   0.87785    48.15   0.75071   -71.72   0.20375   -36.12   0.62828    69.90
      17800   0.87631    46.34   0.73941   -73.34   0.20657   -37.79   0.63218    68.25
      18000    0.8836    45.55   0.72804   -74.90   0.20946   -38.73   0.63332    66.39
      18200    0.8878    43.40   0.71841   -76.78   0.21221   -40.75   0.63896    64.89
      18400   0.89178    42.45   0.69839   -78.51   0.20966   -41.56   0.63958    63.37
      18600    0.8811    40.78   0.68136   -79.54   0.21078   -42.10   0.64661    62.42
      18800   0.89062    39.16   0.67236   -80.83   0.21417   -43.20   0.65099    61.05
      19000   0.89177    37.52   0.66446   -82.00   0.21859   -44.15   0.65766    59.86
      19200   0.89554    35.24   0.65524   -83.72   0.22219   -45.75   0.66509    57.95
      19400   0.88843    34.09   0.63914   -84.54   0.22539   -46.56   0.66066    56.47
      19600   0.89114    32.80   0.63698   -85.61   0.23181   -49.12   0.66067    56.32
      19800   0.89729    32.33   0.63012   -87.19   0.23005   -51.07    0.6785    55.22
      20000    0.8982    30.15   0.62673   -89.04   0.23068   -53.03   0.68411    54.06

