! Filename:  P:\Prog\Test\Noise\ATS_data\Testdata_Net\BFU760\BFU760F_2W_C1_2V6mA_D.s2p
! Date/Time: Mon 06/Feb/2012 15:05:10
! BFU760_2W_C1_2V_6mA
! bias mode 1: Vout= 2.0003 V, Iout= 5.9600 mA, Vin= 0.7614 V, Iin= 0.0169 mA
! Date/time Fri Mar 18 12:28:23 2011
! Device data file deembeded for feedlines and parallel
! Original file: \BFU760\BFU760_2W_C1_2V6mA_R.s2p
! Feed-files: PR003V01_101208_Feed1.s2p, PR003V01_101208_Feed2.s2p
! Parallel-file: PR003V01_101208_Par.s2p
# MHz S MA R 50
!  Freq-MHz   S11-mag  S11-arg   S21-mag  S21-arg   S12-mag  S12-arg   S22-mag  S22-arg
         40   0.94163    -5.65     19.33   176.55 0.0044528    85.52   0.99625    -3.35
         50   0.93754    -7.58    19.348   175.13 0.0054538    89.22    0.9947    -4.25
         60   0.93746    -8.13    19.085   174.42 0.0068133    86.06   0.99522    -4.98
         70    0.9409    -9.69    19.132   173.87 0.0077934    84.50   0.99412    -5.86
         80   0.93973   -11.19    19.255   172.88 0.0089227    83.83   0.99295    -6.69
         90   0.93869   -12.60    19.217   171.83  0.010045    83.19   0.99162    -7.54
        100   0.93899   -13.88    19.095   171.06  0.011086    82.41   0.99015    -8.38
        120   0.93704   -16.78    19.056   169.28  0.013317    81.00    0.9866   -10.10
        140   0.93549   -19.50    18.982   167.59  0.015493    79.61   0.98274   -11.78
        160   0.93283   -22.21    18.778   165.72  0.017659    77.97    0.9777   -13.45
        180   0.93165   -24.99    18.738   164.15  0.019789    76.59   0.97183   -15.07
        200   0.92862   -27.72     18.59   162.43  0.021878    75.21   0.96643   -16.70
        220   0.92654   -30.44    18.528   160.76  0.023874    73.79   0.95927   -18.33
        240   0.92245   -33.16    18.455   159.03  0.025896    72.41   0.95313   -19.90
        260    0.9204   -35.66    18.189   157.48  0.027862    71.03   0.94562   -21.47
        280   0.91694   -38.33    18.073   155.89  0.029769    69.70   0.93834   -22.99
        300   0.91436   -40.86    17.838   154.32  0.031686    68.27   0.93132   -24.58
        320   0.91105   -43.35    17.686   152.88  0.033446    66.85   0.92112   -26.13
        340    0.9067   -45.87    17.523   151.24  0.035149    65.59   0.91164   -27.60
        360   0.90493   -48.31    17.347   149.94  0.036868    64.28   0.90136   -29.03
        380   0.90109   -50.92    17.245   148.48  0.038503    63.07   0.89182   -30.41
        400   0.89626   -53.37    17.127   146.97  0.040145    61.86   0.88215   -31.70
        420   0.89174   -55.80    16.952   145.48   0.04173    60.63   0.87403   -33.05
        440   0.88965   -57.96    16.685   144.22   0.04325    59.42   0.86447   -34.39
        460   0.88576   -60.39    16.569   142.85  0.044685    58.26   0.85484   -35.69
        480   0.88178   -62.45    16.275   141.54  0.046137    57.01   0.84642   -37.08
        500   0.87747   -64.75    16.124   140.19  0.047363    55.90   0.83378   -38.37
        550   0.86906   -70.16    15.702   137.05  0.050355    53.24   0.80588   -41.31
        600   0.85911   -75.33    15.232   134.04  0.053323    50.75   0.78276   -44.14
        650   0.85034   -79.98    14.696   131.25  0.055872    48.37   0.75839   -46.85
        700   0.84238   -84.54    14.213   128.65  0.058167    46.18   0.73387   -49.36
        750   0.83544   -89.07    13.805   126.08  0.060244    44.18   0.71048   -51.74
        800   0.82786   -93.21    13.357   123.67  0.062246    42.20   0.68982   -53.93
        850   0.82053   -97.01     12.87   121.42  0.063967    40.33     0.669   -56.15
        900   0.81371  -100.79    12.481   119.23  0.065413    38.78   0.64701   -58.04
        950     0.809  -104.39    12.105   117.20  0.066825    37.25   0.62788   -59.94
       1000    0.8025  -107.62    11.703   115.26  0.068114    35.70   0.60974   -61.90
       1050   0.79641  -110.87    11.341   113.37   0.06916    34.31   0.59096   -63.67
       1100   0.79237  -113.88    11.002   111.60  0.070246    33.07   0.57486   -65.24
       1150   0.78753  -116.83    10.678   109.85  0.071195    31.87   0.55908   -66.81
       1200   0.78295  -119.56    10.356   108.25  0.072101    30.68   0.54442   -68.36
       1250   0.77898  -122.20    10.035   106.66  0.072851    29.57   0.52993   -69.86
       1300   0.77577  -124.67    9.7552   105.14  0.073552    28.55   0.51601   -71.20
       1350   0.77277  -127.04    9.4877   103.68  0.074208    27.61   0.50338   -72.59
       1400   0.76945  -129.42    9.2213   102.25  0.074751    26.63   0.49078   -73.99
       1450   0.76686  -131.63    8.9708   100.91  0.075233    25.77   0.47884   -75.24
       1500   0.76396  -133.63    8.7324    99.62  0.075762    24.97   0.46819   -76.42
       1550   0.76114  -135.61    8.5011    98.35  0.076255    24.19   0.45782   -77.55
       1600    0.7592  -137.51    8.2791    97.14  0.076675    23.43   0.44797   -78.75
       1650   0.75725  -139.45    8.0652    95.93  0.077041    22.69   0.43823   -79.88
       1700   0.75454  -141.21    7.8725    94.73  0.077413    22.04   0.42954   -80.91
       1750   0.75252  -142.90    7.6819    93.61  0.077725    21.39   0.42098   -82.05
       1800   0.75097  -144.63    7.4929    92.49  0.078021    20.74   0.41254   -83.06
       1850   0.74933  -146.29    7.3157    91.40  0.078204    20.14   0.40449   -84.12
       1900     0.748  -147.79    7.1509    90.35  0.078453    19.59   0.39709   -85.13
       1950   0.74558  -149.26    6.9845    89.34  0.078678    19.07   0.39036   -86.04
       2000   0.74447  -150.69    6.8223    88.36  0.078837    18.56   0.38307   -87.09
       2050    0.7437  -152.08    6.6712    87.44  0.078981    18.12   0.37592   -87.99
       2100   0.74262  -153.45    6.5289    86.44  0.079239    17.63   0.37046   -88.86
       2150   0.74125  -154.75    6.3922    85.53  0.079379    17.19   0.36457   -89.84
       2200   0.74049  -156.02    6.2607    84.64  0.079574    16.82   0.35894   -90.59
       2250   0.73879  -157.34    6.1301    83.72  0.079789    16.39   0.35388   -91.56
       2300   0.73807  -158.52    6.0039    82.86  0.079872    15.91   0.34859   -92.44
       2350   0.73797  -159.65     5.885    82.03  0.079944    15.50   0.34413   -93.33
       2400    0.7376  -160.74    5.7725    81.23  0.079988    15.23   0.33894   -94.22
       2450   0.73717  -161.90    5.6626    80.43   0.08011    14.94   0.33434   -95.07
       2500   0.73644  -163.12    5.5574    79.59  0.080224    14.61   0.32973   -95.96
       2600   0.73559  -165.15     5.363    78.04  0.080479    13.99   0.32178   -97.37
       2700   0.73473  -167.33    5.1749    76.45   0.08065    13.35   0.31346   -98.87
       2800   0.73343  -169.21    5.0027    74.89   0.08079    12.78   0.30706  -100.35
       2900    0.7331  -171.08    4.8361    73.46  0.080799    12.32   0.30067  -101.77
       3000   0.73214  -172.84    4.6867    72.04  0.080966    11.90   0.29597  -103.35
       3100   0.73299  -174.61    4.5458    70.55  0.081001    11.45   0.29127  -104.72
       3200   0.73218  -176.32      4.41    69.12  0.081104    11.04   0.28579  -106.24
       3300   0.73302  -177.97    4.2852    67.80  0.081106    10.54   0.28338  -107.85
       3400   0.73206  -179.59    4.1648    66.39   0.08121    10.21   0.27947  -109.38
       3500   0.73184   178.82    4.0519    64.99  0.081205     9.88   0.27592  -110.91
       3600   0.73248   177.19    3.9402    63.67  0.081236     9.65    0.2713  -112.32
       3700   0.73186   175.86    3.8379    62.37  0.081238     9.39   0.26836  -113.57
       3800   0.73217   174.22    3.7418    61.00   0.08122     9.20   0.26443  -115.40
       3900    0.7316   172.97    3.6493    59.76  0.081442     9.06   0.26168  -116.75
       4000   0.73221   171.39    3.5566    58.45  0.081352     8.78   0.25946  -118.30
       4100   0.73219   170.24    3.4737    57.27   0.08134     8.75   0.25703  -119.64
       4200   0.73307   168.74    3.3932    55.94   0.08153     8.54   0.25462  -121.10
       4300   0.73332   167.54    3.3179    54.71  0.081705     8.43   0.25347  -122.58
       4400   0.73324   166.09    3.2415    53.48  0.081752     8.29   0.25125  -124.11
       4500   0.73348   164.92    3.1727    52.26  0.081901     8.22   0.24973  -125.46
       4600   0.73439   163.64     3.104    51.07  0.081971     8.12   0.24809  -126.91
       4700   0.73466   162.44    3.0408    49.85  0.082071     8.05   0.24718  -128.52
       4800   0.73521   161.12    2.9751    48.70  0.082201     7.96   0.24654  -129.92
       4900   0.73552   159.92     2.916    47.46  0.082306     7.90   0.24503  -131.28
       5000   0.73585   158.73    2.8583    46.33  0.082518     7.85   0.24318  -132.70
       5200   0.73651   156.46    2.7453    44.02   0.08284     7.87   0.24326  -135.60
       5400   0.73778   154.15    2.6486    41.74   0.08318     7.80   0.24104  -138.28
       5600    0.7389   151.98    2.5505    39.45    0.0836     7.74   0.24215  -141.16
       5800   0.73971   149.81    2.4639    37.26  0.084004     7.87   0.24086  -143.81
       6000   0.74081   147.76    2.3811    35.01  0.084502     7.94   0.24201  -146.77
       6200   0.74267   145.74    2.3046    32.88  0.085104     8.14   0.24251  -149.35
       6400   0.74365   143.69    2.2315    30.72  0.085669     8.30   0.24369  -152.22
       6600   0.74694   141.63    2.1646    28.55  0.086656     8.52   0.24581  -154.92
       6800   0.74779   139.66    2.1025    26.44  0.087599     8.55   0.24751  -157.80
       7000   0.75049   137.78    2.0397    24.29  0.088504     8.70   0.24966  -160.81
       7200   0.75176   135.94    1.9872    22.28  0.089659     9.01   0.25101  -163.28
       7400   0.75343   133.98    1.9324    20.07  0.090932     9.11   0.25516  -166.08
       7600   0.75515   132.14    1.8813    17.97  0.092425     8.99   0.25685  -168.79
       7800   0.75556   130.09    1.8286    15.96  0.093204     9.09   0.26032  -171.91
       8000    0.7603   128.47    1.7872    13.96  0.095412     9.43   0.26376  -174.32
       8200   0.76258   126.44    1.7407    11.88    0.0969     9.14   0.26748  -177.39
       8400   0.76575   124.88    1.7044     9.96  0.098821     9.47    0.2704  -179.47
       8600   0.76775   122.93    1.6603     7.85    0.1004     8.88   0.27668   177.12
       8800   0.77059   121.11    1.6231     5.73   0.10238     8.77   0.27921   174.39
       9000   0.77407   119.49    1.5882     3.79   0.10473     8.69   0.28455   172.25
       9200   0.77366   117.51    1.5502     1.75   0.10673     8.16   0.29023   169.57
       9400   0.77743   115.92    1.5161    -0.24   0.10865     7.81   0.29526   167.24
       9600    0.7799   114.04    1.4799    -2.25    0.1103     7.45   0.29981   163.94
       9800   0.78249   112.23    1.4471    -4.19   0.11227     7.08   0.30568   161.80
      10000   0.78343   110.79    1.4189    -5.91   0.11461     7.05   0.30926   159.27
      10200   0.78738   108.97    1.3894    -7.99   0.11691     6.32   0.31712   156.57
      10400   0.78925   107.36    1.3595    -9.94   0.11932     5.71   0.32219   154.59
      10600   0.78823   105.68    1.3301   -11.78   0.12123     5.22   0.32923   151.52
      10800   0.78962   104.26    1.3037   -13.54   0.12377     4.68   0.33428   149.80
      11000   0.79351   102.78    1.2857   -15.21   0.12671     4.53   0.34024   147.16
      11200   0.80125   100.97      1.26   -17.35   0.12931     3.45   0.34977   145.25
      11400   0.80379    99.29    1.2362   -19.10   0.13206     2.79   0.35449   142.66
      11600   0.80878    97.64     1.213   -20.96   0.13436     2.07   0.36391   140.51
      11800   0.81222    96.25    1.1902   -22.70   0.13707     1.30   0.36907   138.04
      12000   0.81794    94.39    1.1765   -24.67   0.14012     0.41    0.3775   135.71
      12200   0.82041    92.47    1.1518   -26.64   0.14234    -0.52   0.38367   133.48
      12400   0.81931    90.66    1.1328   -28.44    0.1456    -1.25   0.38982   131.01
      12600   0.82269    88.94    1.1077   -30.31    0.1481    -2.32   0.39772   129.01
      12800   0.82802    87.67    1.0926   -32.00   0.15128    -3.27   0.40416   126.68
      13000   0.82706    85.71    1.0695   -33.91   0.15365    -4.52   0.41372   124.52
      13200   0.83102    84.74    1.0533   -35.55   0.15656    -5.50   0.42048   122.32
      13400    0.8296    82.93     1.036   -37.38     0.159    -6.97   0.42996   120.13
      13600   0.83467    81.14    1.0192   -39.37     0.161    -8.14    0.4399   117.94
      13800   0.83587    79.56    1.0071   -41.11   0.16428    -9.33   0.44898   115.84
      14000   0.84181    77.75   0.98844   -42.98   0.16571   -10.80   0.46018   113.44
      14200   0.84417    76.36   0.97246   -44.93   0.16774   -11.67   0.46635   111.06
      14400   0.84614    74.23   0.95137   -46.79   0.16897   -12.84   0.47803   109.07
      14600   0.84768    72.89   0.93562   -48.26   0.17193   -13.36   0.48249   106.86
      14800   0.84897    70.99   0.91846   -50.06   0.17458   -14.55    0.4943   105.09
      15000   0.85464    69.88   0.90348   -51.47   0.17802   -15.57   0.50033   102.87
      15200   0.85717    68.16   0.89418   -53.38   0.18167   -17.25    0.5118   101.37
      15400   0.86507    66.70   0.87751   -55.11   0.18305   -18.52   0.51974    99.17
      15600   0.86601    65.51   0.86733   -56.70   0.18693   -19.79   0.53091    97.25
      15800   0.87192    63.46   0.85491   -58.85   0.18809   -21.82   0.54102    95.35
      16000   0.87704    62.21   0.84056   -60.72   0.18923   -22.84   0.54965    92.97
      16200   0.87954    60.47   0.82622   -62.60   0.19139   -24.25   0.55681    90.96
      16400   0.88581    59.06   0.81012   -64.24   0.19213   -25.05   0.55912    88.78
      16600   0.88085    57.22   0.79137   -66.02   0.19527   -26.36   0.56626    87.49
      16800    0.8804    55.79   0.77667   -67.31    0.1966   -27.41   0.57361    85.52
      17000    0.8802    54.17    0.7673   -68.94   0.19944   -29.12   0.58741    84.20
      17200   0.88073    52.50   0.75633   -70.55   0.20066   -30.30   0.59715    81.78
      17400   0.88606    50.62     0.744   -72.36   0.20158   -31.68   0.60601    80.09
      17600   0.88673    48.89   0.73078   -73.87   0.20394   -32.12   0.61674    77.60
      17800   0.88524    47.07    0.7185   -75.49   0.20712   -33.84   0.62216    75.79
      18000   0.89291    46.25   0.70753   -77.02   0.21031   -34.87   0.62447    73.81
      18200   0.89633    44.10   0.69726   -78.91   0.21325   -36.97   0.63169    72.12
      18400   0.89985    43.02   0.67694   -80.65   0.21123   -37.86   0.63347    70.45
      18600   0.88957    41.33   0.65967   -81.70   0.21242   -38.56   0.64189    69.25
      18800   0.89856    39.71   0.65004   -82.97   0.21612   -39.74   0.64717    67.72
      19000    0.9002    38.08   0.64145   -84.14   0.22047   -40.79    0.6551    66.35
      19200   0.90371    35.76    0.6319   -85.86   0.22435   -42.51   0.66316    64.27
      19400    0.8968    34.57   0.61504   -86.65   0.22721   -43.42   0.65953    62.66
      19600    0.8994    33.25   0.61231   -87.60    0.2335   -45.94    0.6613    62.34
      19800   0.90555    32.67   0.60546   -89.13   0.23212   -47.88   0.67892    61.00
      20000   0.90716    30.46   0.60156   -91.01   0.23293   -49.92   0.68591    59.77

!  
! Device Noise Parameters
!  Freq-MHz   Fmin-dB  Gopt-mag  Gopt-arg   rn_normalized
	400	0.3821	0.37333	23.63	0.0806
	420	0.3827	0.37059	24.90	0.0806
	440	0.3833	0.36799	26.18	0.0806
	460	0.3840	0.36554	27.46	0.0805
	480	0.3846	0.36323	28.75	0.0805
	500	0.3853	0.36106	30.03	0.0804
	550	0.3870	0.35623	33.25	0.0802
	600	0.3888	0.35223	36.46	0.0801
	650	0.3907	0.34899	39.65	0.0798
	700	0.3926	0.34649	42.82	0.0796
	750	0.3946	0.34467	45.95	0.0793
	800	0.3967	0.34347	49.03	0.0790
	850	0.3988	0.34286	52.07	0.0787
	900	0.4010	0.34278	55.04	0.0784
	950	0.4033	0.34319	57.95	0.0780
	1000	0.4057	0.34402	60.80	0.0776
	1050	0.4081	0.34524	63.57	0.0772
	1100	0.4106	0.34680	66.28	0.0767
	1150	0.4132	0.34865	68.92	0.0763
	1200	0.4158	0.35077	71.48	0.0758
	1250	0.4185	0.35311	73.98	0.0753
	1300	0.4213	0.35564	76.41	0.0748
	1350	0.4242	0.35833	78.77	0.0742
	1400	0.4271	0.36115	81.08	0.0736
	1450	0.4301	0.36407	83.32	0.0731
	1500	0.4332	0.36709	85.51	0.0725
	1550	0.4363	0.37016	87.64	0.0719
	1600	0.4395	0.37329	89.72	0.0712
	1650	0.4428	0.37645	91.75	0.0706
	1700	0.4461	0.37963	93.74	0.0699
	1750	0.4495	0.38282	95.69	0.0693
	1800	0.4530	0.38601	97.60	0.0686
	1850	0.4566	0.38919	99.47	0.0679
	1900	0.4602	0.39236	101.30	0.0672
	1950	0.4639	0.39551	103.11	0.0665
	2000	0.4677	0.39864	104.88	0.0658
	2050	0.4715	0.40175	106.63	0.0650
	2100	0.4755	0.40483	108.35	0.0643
	2150	0.4794	0.40788	110.05	0.0635
	2200	0.4835	0.41091	111.73	0.0628
	2250	0.4876	0.41391	113.39	0.0620
	2300	0.4918	0.41689	115.02	0.0613
	2350	0.4961	0.41985	116.64	0.0605
	2400	0.5004	0.42278	118.25	0.0597
	2600	0.5185	0.43440	124.52	0.0566
	2700	0.5280	0.44017	127.58	0.0550
	2800	0.5377	0.44596	130.59	0.0535
	2900	0.5477	0.45179	133.56	0.0519
	3000	0.5580	0.45771	136.49	0.0504
	3100	0.5686	0.46372	139.38	0.0489
	3200	0.5795	0.46987	142.22	0.0474
	3300	0.5907	0.47615	145.03	0.0460
	3400	0.6021	0.48260	147.79	0.0446
	3500	0.6138	0.48922	150.51	0.0432
	3600	0.6258	0.49602	153.17	0.0419
	3700	0.6381	0.50299	155.79	0.0407
	3800	0.6507	0.51012	158.36	0.0395
	3900	0.6635	0.51741	160.87	0.0384
	4000	0.6767	0.52483	163.33	0.0374
	4100	0.6901	0.53236	165.73	0.0364
	4200	0.7038	0.53998	168.07	0.0355
	4300	0.7178	0.54764	170.35	0.0347
	4400	0.7321	0.55530	172.56	0.0341
	4500	0.7466	0.56293	174.72	0.0335
	4600	0.7615	0.57048	176.81	0.0330
	4700	0.7766	0.57789	178.85	0.0326
	4800	0.7920	0.58512	180.82	0.0324
	4900	0.8077	0.59211	182.73	0.0323
	5000	0.8236	0.59879	184.58	0.0323
	5400	0.8904	0.62131	191.43	0.0338
	5600	0.9254	0.62915	194.53	0.0355
	5800	0.9616	0.63400	197.45	0.0379
	6000	0.9989	0.63532	200.20	0.0411