! Filename:  P:\Prog\Test\Noise\ATS_data\Testdata_Net\Split files Spar\BFU760F_2W_C1_Bias4_1.5V_5mA_60mA_D.s2p
! Date/Time: Mon 06/Feb/2012 15:07:21
! BFU760_2W_C1_Bias4_1.5V_5mA_60mA_R.s2p
! MDIF S-parameter v. bias file
! BFU760_2W_C1_1.5V_5mA_60mA
! Date/time Fri Mar 18 11:09:37 2011
! VAR V_out= 1.5000
! VAR I_out= 15.0600
! VAR V_in= 0.7844
! VAR I_in= 0.0455
! Device data file deembeded for feedlines and parallel
! Original file: \Split files Spar\BFU760_2W_C1_Bias4_1.5V_5mA_60mA_R.s2p
! Feed-files: PR003V01_101208_Feed1.s2p, PR003V01_101208_Feed2.s2p
! Parallel-file: PR003V01_101208_Par.s2p
# MHz S MA R 50
!  Freq-MHz   S11-mag  S11-arg   S21-mag  S21-arg   S12-mag  S12-arg   S22-mag  S22-arg
         40   0.85632   -10.19     43.65   174.02 0.0044832    84.75   0.99102    -6.81
         50   0.84866   -12.95     43.55   171.96 0.0052153    81.55    0.9885    -8.76
         60   0.85343   -14.94    42.962   170.69 0.0065271    83.72   0.98733   -10.41
         70    0.8531   -17.63        43   169.48 0.0077574    81.38    0.9839   -12.21
         80   0.85086   -20.28    43.065   167.86 0.0088367    80.22   0.98001   -13.96
         90   0.84803   -22.80    42.804   166.27 0.0099187    78.85   0.97573   -15.71
        100   0.84731   -25.12    42.424   164.92  0.010932    77.52   0.97131   -17.44
        120   0.84355   -30.09    41.981   162.02  0.012985    75.27   0.95993   -20.94
        140   0.84001   -34.79    41.422   159.31  0.015004    73.06     0.948   -24.28
        160   0.83451   -39.38    40.538   156.54  0.016925    70.66   0.93368   -27.57
        180   0.83178   -44.00    40.016   154.05  0.018739    68.53   0.91784   -30.70
        200   0.82621   -48.44    39.226   151.51  0.020455    66.32   0.90285   -33.84
        220   0.82198   -52.82    38.593   149.04  0.022083    64.49   0.88525   -36.85
        240   0.81529   -57.11    37.875   146.62  0.023589    62.59   0.86922   -39.74
        260   0.81248   -60.91    36.913   144.46  0.025041    60.74    0.8515   -42.58
        280   0.80705   -64.99    36.202   142.28  0.026401    59.00    0.8346   -45.27
        300   0.80262   -68.58    35.236   140.21   0.02767    57.27   0.81795   -48.03
        320   0.79809   -72.42    34.617   138.25  0.028812    55.65   0.79817   -50.60
        340   0.79273   -75.86    33.766   136.28  0.029877    54.16   0.78026   -53.07
        360   0.78993   -79.30    33.045   134.51  0.030906    52.82   0.76214   -55.41
        380   0.78437   -82.86    32.364   132.63  0.031887    51.48   0.74528   -57.65
        400   0.77891   -85.93    31.606   130.90  0.032834    50.22     0.729   -59.78
        420   0.77417   -88.95    30.825   129.24  0.033657    48.99   0.71404   -61.92
        440   0.77237   -91.73    30.058   127.79   0.03447    47.82   0.69885   -64.04
        460   0.76773   -94.66    29.411   126.21  0.035188    46.75   0.68376   -66.05
        480   0.76426   -97.02    28.603   124.86  0.035858    45.68   0.66976   -68.08
        500   0.75984   -99.78    27.988   123.43  0.036488    44.76   0.65451   -69.94
        550   0.75218  -105.67    26.425   120.18  0.037781    42.68   0.61872   -74.36
        600   0.74423  -110.99    24.902   117.31  0.039074    40.78   0.59003   -78.43
        650   0.73852  -115.71    23.514   114.73  0.040147    39.17   0.56302   -82.26
        700   0.73368  -120.09     22.27   112.37  0.041085    37.84   0.53816   -85.78
        750   0.73005  -124.14    21.141   110.17  0.041942    36.63   0.51621   -89.14
        800   0.72668  -127.78    20.084   108.16  0.042707    35.50   0.49663   -92.29
        850    0.7227  -131.22      19.1   106.26  0.043309    34.60   0.47787   -95.38
        900   0.71902  -134.27    18.222   104.51  0.043927    33.91   0.46056   -98.08
        950   0.71716  -137.09    17.411   102.90   0.04455    33.29   0.44573  -100.75
       1000   0.71434  -139.71     16.65   101.40  0.045094    32.65   0.43271  -103.39
       1050   0.71189  -142.24    15.957    99.96  0.045545    32.12   0.42002  -105.91
       1100   0.71026  -144.51    15.322    98.60  0.046059    31.74   0.40888  -108.19
       1150   0.70877  -146.70    14.725    97.30  0.046555    31.35   0.39846  -110.41
       1200   0.70732  -148.73    14.173    96.10  0.046998    30.99   0.38919  -112.61
       1250    0.7062  -150.73    13.646    94.90  0.047398    30.71    0.3805  -114.78
       1300   0.70529  -152.48    13.171    93.76  0.047812    30.47   0.37205  -116.76
       1350   0.70437  -154.17    12.724    92.68  0.048216    30.27   0.36521  -118.71
       1400   0.70359  -155.89    12.294    91.62  0.048604    30.10   0.35832  -120.67
       1450   0.70321  -157.45    11.899    90.63  0.048973    29.94   0.35179  -122.49
       1500   0.70193  -158.87    11.529    89.67  0.049391    29.87    0.3462  -124.20
       1550   0.70088  -160.26    11.176    88.71  0.049807    29.76   0.34053  -125.83
       1600   0.70049  -161.63    10.847    87.80  0.050192    29.68   0.33591  -127.51
       1650   0.70026  -163.01    10.528    86.87  0.050575    29.64   0.33107  -129.16
       1700    0.6993  -164.22    10.237    85.97  0.050975    29.59   0.32678  -130.64
       1750   0.69828  -165.43    9.9579    85.12  0.051378    29.54   0.32343  -132.19
       1800   0.69817  -166.65    9.6836    84.28  0.051768    29.48   0.31948  -133.71
       1850     0.698  -167.78    9.4278    83.46  0.052065    29.48   0.31599  -135.19
       1900   0.69724  -168.83    9.1932    82.64  0.052485    29.51   0.31291  -136.56
       1950   0.69568  -169.88     8.959    81.86  0.052857    29.45   0.31013  -137.83
       2000   0.69572  -170.90    8.7337    81.11  0.053168    29.51   0.30761  -139.35
       2050   0.69616  -171.80    8.5253    80.40  0.053587    29.57   0.30426  -140.68
       2100     0.696  -172.83    8.3276    79.62  0.054031    29.56    0.3021  -141.82
       2150   0.69563  -173.72    8.1366    78.90   0.05441    29.62   0.29991  -143.08
       2200   0.69549  -174.60    7.9553    78.22  0.054863    29.70   0.29729  -144.19
       2250   0.69518  -175.60    7.7763    77.51  0.055319    29.66   0.29613  -145.36
       2300   0.69469  -176.42    7.6076    76.84  0.055682    29.59   0.29434  -146.57
       2350   0.69515  -177.16    7.4458    76.20  0.055978    29.65   0.29327  -147.72
       2400   0.69591  -177.92     7.293    75.60  0.056397    29.82   0.29141  -148.91
       2450   0.69592  -178.75    7.1446    74.97  0.056829    29.89   0.29026  -149.94
       2500   0.69636  -179.72    7.0035    74.32   0.05726    29.99    0.2893  -151.17
       2600   0.69614   178.81    6.7472    73.09  0.058231    30.07   0.28569  -153.16
       2700   0.69684   177.21    6.4984    71.81  0.059131    30.08   0.28268  -155.17
       2800    0.6963   175.83    6.2687    70.57  0.060006    30.12   0.28067  -157.05
       2900   0.69682   174.48    6.0523    69.43  0.060896    30.23   0.27854  -158.82
       3000   0.69697   173.14    5.8585    68.27  0.061887    30.27   0.27805  -160.46
       3100   0.69809   171.81    5.6746    67.04  0.062765    30.33   0.27647  -162.11
       3200   0.69788   170.46    5.4988    65.85  0.063711    30.30   0.27555  -163.87
       3300    0.6993   169.25    5.3381    64.75  0.064628    30.28   0.27568  -165.46
       3400   0.69898   167.95    5.1822    63.58  0.065561    30.25   0.27566  -167.04
       3500   0.69935   166.70    5.0363    62.40  0.066466    30.24   0.27521  -168.58
       3600    0.7003   165.42    4.8948    61.29  0.067428    30.26   0.27458  -170.20
       3700   0.69981   164.41    4.7634    60.19  0.068408    30.33   0.27357  -171.72
       3800   0.70106   163.05    4.6382    59.02  0.069398    30.27   0.27408  -173.36
       3900   0.70052   162.07    4.5207    57.97  0.070531    30.24     0.274  -174.73
       4000   0.70171   160.80    4.4038    56.85  0.071486    30.12   0.27449  -176.11
       4100   0.70158   159.89    4.2989    55.85  0.072514    30.20     0.274  -177.50
       4200    0.7031   158.63    4.1947    54.70  0.073637    30.05   0.27434  -178.92
       4300   0.70304   157.65    4.0994    53.65  0.074761    29.95   0.27514   179.82
       4400   0.70386   156.44    4.0037    52.58  0.075857    29.78   0.27554   178.51
       4500   0.70388   155.48     3.917    51.53  0.076966    29.68   0.27583   177.31
       4600   0.70521   154.41    3.8298    50.49   0.07803    29.52   0.27635   175.94
       4700   0.70578   153.40    3.7496    49.42  0.079126    29.35   0.27755   174.65
       4800   0.70644   152.31     3.668    48.42  0.080176    29.16   0.27862   173.59
       4900   0.70698   151.29    3.5931    47.35  0.081243    28.97   0.27902   172.28
       5000   0.70738   150.27    3.5208    46.34  0.082401    28.77   0.27933   170.97
       5200   0.70888   148.32    3.3796    44.36  0.084674    28.40   0.28178   168.83
       5400   0.71001   146.36    3.2578    42.32  0.086901    27.88   0.28264   166.43
       5600    0.7113   144.49    3.1354    40.35  0.089121    27.40   0.28577   164.39
       5800   0.71231   142.60     3.027    38.40  0.091377    26.90   0.28685   162.08
       6000   0.71316   140.79    2.9238    36.41  0.093608    26.34   0.29024   160.01
       6200     0.715   139.03    2.8295    34.50  0.095932    25.82   0.29189   157.95
       6400   0.71661   137.23     2.738    32.58  0.098135    25.23   0.29507   155.82
       6600   0.71917   135.39    2.6561    30.64   0.10071    24.61   0.29802   153.98
       6800   0.72057   133.65    2.5792    28.71   0.10305    23.80   0.30103   151.85
       7000   0.72331   131.94    2.5029    26.82   0.10536    23.11    0.3051   149.83
       7200   0.72425   130.30    2.4372    24.95   0.10793    22.49   0.30629   147.85
       7400   0.72574   128.52    2.3702    23.00   0.11046    21.66   0.31073   146.16
       7600    0.7275   126.86    2.3068    21.04   0.11295    20.65   0.31386   144.05
       7800   0.72814   124.94    2.2426    19.24   0.11488    19.94   0.31848   142.06
       8000   0.73177   123.51    2.1924    17.40   0.11794    19.16   0.32118   140.36
       8200   0.73465   121.63    2.1351    15.50   0.12019    18.10   0.32615   138.37
       8400   0.73782   120.21    2.0918    13.76   0.12284    17.46   0.32804   136.81
       8600    0.7399   118.39    2.0366    11.81   0.12495    16.23   0.33557   134.75
       8800   0.74271   116.74    1.9917     9.86   0.12744    15.31   0.33928   132.68
       9000   0.74615   115.27    1.9494     8.07   0.13021    14.45   0.34247   131.29
       9200   0.74577   113.37    1.9027     6.17   0.13268    13.28   0.34799   129.65
       9400   0.74888   111.89    1.8627     4.35   0.13505    12.24   0.35208   127.97
       9600   0.75238   110.16    1.8163     2.46   0.13684    11.19   0.35758   125.73
       9800   0.75472   108.44     1.778     0.78   0.13915    10.24   0.36227   124.34
      10000   0.75524   107.07    1.7454    -0.87   0.14178     9.41   0.36564   122.38
      10200   0.75955   105.41    1.7084    -2.77   0.14392     8.20   0.37302   120.76
      10400   0.76063   103.91    1.6748    -4.61   0.14655     7.07   0.37562   119.30
      10600   0.75925   102.34    1.6371    -6.33   0.14842     5.90   0.38401   117.30
      10800   0.76028   100.97    1.6084    -7.92     0.151     4.85   0.38567   116.08
      11000   0.76412    99.70    1.5844    -9.56   0.15331     3.89   0.39262   114.10
      11200   0.77223    97.91    1.5556   -11.44   0.15552     2.68     0.398   112.96
      11400   0.77483    96.36    1.5274   -13.13   0.15824     1.60   0.40204   110.95
      11600   0.77987    94.80    1.5008   -14.81    0.1601     0.47   0.40949   109.70
      11800   0.78341    93.51    1.4749   -16.47   0.16246    -0.68   0.41402   107.76
      12000   0.78854    91.76    1.4575   -18.36   0.16482    -1.88   0.42118   106.14
      12200   0.79198    89.85    1.4304   -20.24   0.16674    -2.98   0.42499   104.47
      12400   0.79092    88.07    1.4074   -21.94   0.16973    -4.03   0.43042   102.61
      12600    0.7937    86.45    1.3789   -23.69   0.17181    -5.34   0.43533   101.32
      12800   0.79884    85.26    1.3604   -25.32   0.17444    -6.54   0.44118    99.57
      13000   0.79806    83.36    1.3343   -27.15   0.17638    -8.01   0.44878    98.22
      13200   0.80097    82.52    1.3153   -28.74    0.1789    -9.23   0.45397    96.49
      13400    0.7993    80.78    1.2946   -30.50   0.18049   -10.95    0.4622    95.10
      13600   0.80462    79.11    1.2754   -32.33   0.18162   -12.24   0.47034    93.55
      13800   0.80555    77.58    1.2625   -34.06   0.18416   -13.59   0.47782    92.07
      14000   0.81246    75.87    1.2404   -35.80    0.1846   -15.10    0.4881    90.41
      14200    0.8145    74.52     1.223   -37.68   0.18611   -16.07   0.49302    88.36
      14400   0.81731    72.40    1.1976   -39.43   0.18656   -17.29   0.50182    87.25
      14600   0.81865    71.15    1.1815   -40.89   0.18899   -17.94   0.50599    85.29
      14800   0.82033    69.30    1.1622   -42.67   0.19098   -19.18   0.51449    84.22
      15000   0.82595    68.27    1.1463   -44.06   0.19385   -20.27   0.52008    82.35
      15200   0.82773    66.61    1.1363   -46.02   0.19684   -22.02   0.52744    81.40
      15400   0.83649    65.28    1.1163   -47.62   0.19732   -23.30   0.53446    79.68
      15600   0.83677    64.15    1.1058   -49.31   0.20072   -24.58   0.54246    78.23
      15800    0.8437    62.15    1.0908   -51.34   0.20091   -26.60   0.55077    76.84
      16000   0.84841    60.93    1.0747   -53.19   0.20138   -27.60   0.55782    74.86
      16200   0.85181    59.27    1.0587   -55.03   0.20267   -29.01   0.56264    73.27
      16400   0.85924    57.91    1.0416   -56.70     0.203   -29.73   0.56325    71.33
      16600   0.85388    56.03    1.0181   -58.50   0.20587   -30.97    0.5657    70.65
      16800   0.85424    54.67    1.0019   -59.79   0.20649   -32.07   0.57331    69.07
      17000   0.85291    53.13   0.99198   -61.38   0.20864   -33.74    0.5836    68.35
      17200   0.85329    51.49   0.97943   -63.01   0.20928   -34.93     0.594    66.29
      17400   0.85977    49.66    0.9669   -64.79   0.20938   -36.21   0.60032    65.03
      17600   0.86029    47.88   0.95298   -66.35   0.21146   -36.59   0.61189    62.88
      17800   0.85879    46.14   0.93994   -68.09    0.2139   -38.29   0.61438    61.39
      18000   0.86694    45.35   0.92571   -69.73   0.21654   -39.24   0.61428    59.66
      18200   0.87047    43.21   0.91482   -71.66   0.21898   -41.27   0.61889    58.41
      18400   0.87502    42.27   0.89112   -73.44   0.21613   -42.07    0.6189    57.01
      18600   0.86549    40.58   0.87073   -74.63   0.21714   -42.59   0.62506    56.30
      18800   0.87474    38.97   0.86079   -76.00   0.22027   -43.71   0.62846    55.07
      19000   0.87644    37.30   0.85107   -77.32   0.22456   -44.66   0.63366    54.08
      19200   0.88037    35.00    0.8405   -79.19   0.22812   -46.25   0.64043    52.38
      19400   0.87351    33.83   0.81996   -80.18   0.23119   -47.13   0.63534    51.03
      19600   0.87448    32.53   0.81535   -81.40   0.23723   -49.72   0.63355    51.15
      19800   0.88106    32.11   0.80622   -82.89   0.23502   -51.60   0.65134    50.34
      20000   0.88288    29.96   0.80224   -84.76   0.23537   -53.51   0.65623    49.34

