! Filename:  P:\Prog\Test\Noise\ATS_data\Testdata_Net\Split files Spar\BFU760F_2W_C1_Bias5_2.5V_5mA_30mA_D.s2p
! Date/Time: Mon 06/Feb/2012 15:08:18
! BFU760_2W_C1_Bias5_2.5V_5mA_30mA_R.s2p
! MDIF S-parameter v. bias file
! BFU760_2W_C1_2.5V_5mA_30mA
! Date/time Fri Mar 18 11:16:19 2011
! VAR V_out= 2.5000
! VAR I_out= 20.0150
! VAR V_in= 0.7835
! VAR I_in= 0.0612
! Device data file deembeded for feedlines and parallel
! Original file: \Split files Spar\BFU760_2W_C1_Bias5_2.5V_5mA_30mA_R.s2p
! Feed-files: PR003V01_101208_Feed1.s2p, PR003V01_101208_Feed2.s2p
! Parallel-file: PR003V01_101208_Par.s2p
# MHz S MA R 50
!  Freq-MHz   S11-mag  S11-arg   S21-mag  S21-arg   S12-mag  S12-arg   S22-mag  S22-arg
         40   0.79179   -11.64    54.415   173.16 0.0040001    73.62   0.96327    -7.36
         50   0.78772   -14.74    54.264   170.99 0.0054276    75.91   0.96012    -9.50
         60   0.78847   -17.28    53.745   169.60   0.00601    73.36   0.95963   -11.35
         70   0.78858   -20.21    53.657   168.22 0.0068393    74.41    0.9553   -13.38
         80   0.78682   -23.19     53.52   166.48 0.0077884    73.75   0.95093   -15.33
         90   0.78371   -26.05     53.13   164.75 0.0087301    73.21   0.94569   -17.27
        100    0.7829   -28.65    52.584   163.27 0.0096344    72.45   0.93995   -19.17
        120   0.78053   -34.29    51.847   160.12  0.011377    70.60   0.92712   -22.98
        140   0.77731   -39.57    50.951   157.16  0.013053    68.77   0.91274   -26.65
        160   0.77293   -44.72    49.725   154.22  0.014646    66.62   0.89625   -30.16
        180   0.77086   -49.78    48.798   151.53  0.016188    64.78   0.87847   -33.57
        200   0.76624   -54.65    47.669   148.82  0.017633    62.87   0.86109   -36.92
        220   0.76294   -59.42    46.679   146.21  0.018909    61.11   0.84172   -40.14
        240   0.75689   -64.05    45.609   143.67  0.020164    59.33   0.82321   -43.22
        260   0.75506   -68.16     44.32   141.38  0.021324    57.63   0.80387   -46.20
        280   0.75111   -72.49    43.273   139.11  0.022421    56.06   0.78527   -49.04
        300   0.74736   -76.33    42.009   136.98  0.023436    54.47   0.76667   -51.86
        320   0.74335   -80.37    41.089   134.92  0.024315    53.10   0.74658   -54.52
        340   0.74003   -83.87    39.903   132.98  0.025157    51.76   0.72793   -57.07
        360   0.73807   -87.42    38.902   131.16  0.025931    50.50   0.70936   -59.49
        380   0.73328   -91.03    37.922   129.27  0.026698    49.33   0.69214   -61.80
        400   0.72946   -94.07    36.871   127.59   0.02739    48.27   0.67514   -64.00
        420   0.72563   -97.08    35.852   125.97  0.028059    47.20   0.65971   -66.19
        440   0.72495   -99.87    34.879   124.51  0.028676    46.24   0.64431   -68.34
        460   0.72107  -102.75    34.003   122.97   0.02921    45.34   0.62916   -70.37
        480   0.71927  -105.14    33.008   121.65  0.029725    44.46   0.61495   -72.39
        500   0.71544  -107.75    32.191   120.27  0.030191    43.75   0.60056   -74.26
        550   0.71032  -113.46    30.204   117.14  0.031222    42.01   0.56592   -78.70
        600   0.70518  -118.52    28.321   114.41  0.032233    40.55   0.53802   -82.77
        650   0.70158  -122.99    26.642   111.97  0.033056    39.35    0.5124   -86.60
        700   0.69849  -127.11     25.14   109.73  0.033816    38.38   0.48934   -90.10
        750   0.69659  -130.85    23.783   107.67  0.034504    37.56   0.46907   -93.44
        800    0.6948  -134.27    22.545   105.78  0.035141    36.74   0.45097   -96.61
        850   0.69223  -137.52      21.4   103.96  0.035657    36.20   0.43363   -99.69
        900    0.6898  -140.30    20.365   102.34  0.036199    35.86   0.41805  -102.37
        950   0.68894  -142.85    19.424   100.84  0.036766    35.52   0.40486  -105.01
       1000   0.68715  -145.29    18.551    99.43  0.037255    35.17    0.3933  -107.61
       1050    0.6855  -147.61    17.754    98.09  0.037702    34.95   0.38211  -110.10
       1100   0.68481  -149.66    17.028    96.82  0.038213    34.77   0.37232  -112.37
       1150   0.68413  -151.66    16.346    95.60  0.038675    34.65   0.36305  -114.57
       1200   0.68309  -153.53    15.722    94.47  0.039154    34.53   0.35504  -116.75
       1250   0.68256  -155.37    15.124    93.35  0.039582    34.44   0.34752  -118.88
       1300   0.68238  -156.97    14.586    92.28  0.040034    34.45   0.34012  -120.85
       1350   0.68184  -158.52    14.082    91.26  0.040476    34.47   0.33429  -122.76
       1400   0.68157  -160.08    13.599    90.26  0.040913    34.45   0.32839  -124.68
       1450   0.68136  -161.51    13.154    89.34   0.04134    34.52   0.32275  -126.48
       1500   0.68046  -162.81    12.738    88.43  0.041797    34.59   0.31799  -128.16
       1550   0.68001  -164.09    12.344    87.52  0.042252    34.66   0.31309  -129.77
       1600   0.67964  -165.34    11.975    86.66  0.042728    34.72   0.30921  -131.40
       1650   0.67981  -166.60    11.618    85.79   0.04317    34.80   0.30514  -133.02
       1700   0.67907  -167.73    11.294    84.94  0.043652    34.89   0.30147  -134.47
       1750    0.6782  -168.83    10.981    84.13  0.044135    34.96   0.29881  -135.98
       1800   0.67854  -169.95    10.676    83.33  0.044545    35.02   0.29552  -137.47
       1850   0.67828  -170.98    10.392    82.56  0.044986    35.15   0.29265  -138.93
       1900    0.6778  -171.96    10.129    81.78  0.045466    35.24   0.29011  -140.25
       1950   0.67654  -172.94     9.869    81.03  0.045909    35.32   0.28785  -141.49
       2000   0.67643  -173.82    9.6183    80.33  0.046352    35.45    0.2859  -143.01
       2050   0.67714  -174.70    9.3867    79.65  0.046814    35.59   0.28303  -144.30
       2100    0.6772  -175.63    9.1667    78.91   0.04734    35.66   0.28124  -145.40
       2150    0.6771  -176.44    8.9546    78.23  0.047792    35.78   0.27943  -146.64
       2200   0.67743  -177.29    8.7548    77.57  0.048337    35.93   0.27719  -147.70
       2250   0.67683  -178.18    8.5561    76.90  0.048885    35.94   0.27648  -148.83
       2300    0.6766  -178.95    8.3685    76.25   0.04931    35.93   0.27515  -150.01
       2350   0.67713  -179.66    8.1886    75.65  0.049716    36.07   0.27446  -151.15
       2400   0.67788   179.67    8.0201    75.07  0.050215    36.27   0.27283  -152.32
       2450   0.67792   178.88    7.8568    74.47  0.050709    36.43   0.27201  -153.29
       2500   0.67914   177.95    7.7009    73.86  0.051262    36.54   0.27145  -154.53
       2600   0.67889   176.59     7.418    72.68  0.052396    36.69   0.26833  -156.48
       2700   0.67976   175.08    7.1426    71.45  0.053491    36.71   0.26577  -158.44
       2800   0.67906   173.77    6.8891    70.25  0.054549    36.75   0.26418  -160.27
       2900   0.67992   172.52    6.6504    69.16  0.055613    36.92   0.26244  -162.01
       3000   0.67992   171.24    6.4362    68.05  0.056766    36.94   0.26219  -163.55
       3100   0.68172   170.00    6.2342    66.86  0.057834    36.98   0.26092  -165.16
       3200   0.68139   168.72    6.0399    65.72  0.058944    36.96   0.26042  -166.88
       3300   0.68283   167.59    5.8631    64.66  0.060033    36.94   0.26067  -168.42
       3400   0.68273   166.31    5.6917    63.52  0.061168    36.89   0.26099  -169.94
       3500   0.68321   165.14     5.531    62.38  0.062266    36.86   0.26075  -171.45
       3600   0.68438   163.92    5.3754    61.30  0.063381    36.83    0.2605  -173.04
       3700   0.68359   162.98    5.2301    60.24  0.064533    36.86    0.2596  -174.55
       3800   0.68506   161.68    5.0926    59.10  0.065697    36.74   0.26028  -176.12
       3900   0.68453   160.72    4.9628    58.09  0.066969    36.68   0.26044  -177.46
       4000   0.68591   159.46    4.8339    56.99  0.068059    36.49   0.26105  -178.79
       4100   0.68594   158.65    4.7188    56.03    0.0693    36.51   0.26066   179.84
       4200   0.68742   157.42    4.6042    54.91  0.070546    36.29   0.26118   178.45
       4300   0.68753   156.48    4.4992    53.89   0.07185    36.12   0.26209   177.23
       4400   0.68837   155.29    4.3937    52.85  0.073059    35.86   0.26261   175.97
       4500   0.68857   154.37    4.2983    51.82   0.07433    35.68   0.26297   174.79
       4600   0.68988   153.34    4.2022    50.82  0.075526    35.44   0.26362   173.44
       4700   0.69053   152.40     4.114    49.78  0.076746    35.20   0.26492   172.19
       4800   0.69121   151.31    4.0244    48.81  0.077948    34.92     0.266   171.17
       4900   0.69187   150.32    3.9419    47.76  0.079146    34.67   0.26658   169.87
       5000   0.69206   149.34    3.8622    46.77  0.080437    34.38   0.26712   168.58
       5200   0.69362   147.45    3.7075    44.84  0.082955    33.87   0.26959   166.52
       5400   0.69504   145.53    3.5729    42.85  0.085414    33.19   0.27063   164.12
       5600   0.69637   143.71    3.4388    40.92   0.08785    32.55    0.2738   162.15
       5800   0.69763   141.87    3.3193    39.02  0.090359    31.91   0.27497   159.87
       6000   0.69862   140.11    3.2059    37.09  0.092783    31.19   0.27848   157.84
       6200   0.70019   138.41    3.1023    35.23  0.095312    30.53   0.28009   155.79
       6400   0.70223   136.65    3.0017    33.35  0.097737    29.79   0.28333   153.70
       6600    0.7049   134.84    2.9118    31.46   0.10048    29.04   0.28627   151.90
       6800   0.70635   133.15     2.827    29.56     0.103    28.08   0.28928   149.80
       7000   0.70886   131.48    2.7435    27.70   0.10546    27.27   0.29336   147.80
       7200   0.71002   129.89    2.6711    25.88   0.10821    26.50   0.29436   145.83
       7400    0.7116   128.12    2.5978    23.96   0.11088    25.54   0.29873   144.21
       7600   0.71335   126.51    2.5282    22.03   0.11344    24.42   0.30197   142.13
       7800   0.71403   124.62    2.4574    20.27   0.11555    23.59    0.3065   140.15
       8000   0.71801   123.22    2.4024    18.46    0.1187    22.66   0.30905   138.49
       8200   0.72129   121.35    2.3397    16.59   0.12105    21.50   0.31398   136.54
       8400   0.72411   120.02     2.293    14.90   0.12383    20.73   0.31561   135.01
       8600   0.72656   118.19    2.2324    12.97   0.12601    19.44   0.32318   132.99
       8800    0.7296   116.59    2.1828    11.05   0.12857    18.41    0.3269   130.94
       9000    0.7328   115.11    2.1363     9.27   0.13143    17.46    0.3299   129.59
       9200   0.73277   113.25    2.0847     7.41   0.13399    16.19   0.33539   128.02
       9400   0.73612   111.80    2.0415     5.61   0.13639    15.07   0.33947   126.35
       9600   0.73948   110.06    1.9899     3.74    0.1383    13.93   0.34505   124.12
       9800   0.74177   108.36    1.9488     2.10   0.14066    12.90   0.34968   122.77
      10000   0.74222   107.03     1.913     0.45    0.1434    11.99   0.35292   120.79
      10200   0.74671   105.39    1.8726    -1.41   0.14559    10.69   0.36026   119.23
      10400   0.74794   103.85     1.836    -3.25   0.14825     9.49   0.36269   117.78
      10600   0.74666   102.37    1.7948    -4.93   0.15013     8.26   0.37113   115.82
      10800   0.74797   101.02    1.7627    -6.50   0.15272     7.13   0.37248   114.59
      11000   0.75154    99.82     1.737    -8.10   0.15502     6.13   0.37935   112.62
      11200   0.76065    98.02    1.7055    -9.97   0.15732     4.88    0.3846   111.52
      11400   0.76296    96.46    1.6746   -11.65   0.16007     3.73   0.38851   109.52
      11600   0.76818    94.93    1.6452   -13.31   0.16194     2.53   0.39575   108.31
      11800   0.77173    93.67    1.6171   -14.97   0.16434     1.33   0.40025   106.38
      12000     0.777    91.91    1.5988   -16.83    0.1667     0.08   0.40707   104.81
      12200    0.7807    90.02    1.5692   -18.72   0.16867    -1.07   0.41081   103.14
      12400   0.77981    88.25    1.5441   -20.38   0.17178    -2.17   0.41596   101.31
      12600   0.78288    86.58    1.5128   -22.17   0.17378    -3.54   0.42084   100.06
      12800   0.78793    85.43    1.4927   -23.75   0.17641    -4.78   0.42646    98.33
      13000   0.78707    83.55    1.4642   -25.58   0.17832    -6.30   0.43402    97.02
      13200    0.7903    82.72    1.4433   -27.15   0.18077    -7.55    0.4391    95.31
      13400   0.78828    81.02    1.4203   -28.89   0.18237    -9.30   0.44727    93.98
      13600   0.79449    79.36       1.4   -30.71   0.18349   -10.61   0.45542    92.47
      13800   0.79537    77.87    1.3858   -32.43   0.18601   -11.99   0.46263    91.03
      14000   0.80234    76.12    1.3623   -34.13   0.18652   -13.50   0.47314    89.40
      14200   0.80496    74.80    1.3433   -36.04   0.18807   -14.52   0.47784    87.36
      14400   0.80756    72.68    1.3157   -37.80   0.18855   -15.76   0.48664    86.30
      14600   0.80953    71.44    1.2981   -39.24   0.19102   -16.44   0.49072    84.32
      14800   0.81145    69.57    1.2774   -41.03   0.19299   -17.73   0.49912    83.28
      15000   0.81651    68.57      1.26   -42.41   0.19582   -18.85    0.5045    81.40
      15200   0.81877    66.91    1.2486   -44.37   0.19877   -20.62   0.51145    80.52
      15400   0.82729    65.62    1.2271   -45.97   0.19923   -21.92   0.51857    78.82
      15600   0.82786    64.48    1.2161   -47.69    0.2026   -23.24    0.5262    77.39
      15800   0.83531    62.49    1.2003   -49.69   0.20276   -25.26    0.5345    76.07
      16000    0.8401    61.29    1.1831   -51.55   0.20338   -26.28   0.54154    74.09
      16200   0.84425    59.62    1.1654   -53.39   0.20463   -27.70   0.54623    72.52
      16400   0.85179    58.24    1.1474   -55.09   0.20506   -28.44   0.54678    70.58
      16600   0.84679    56.38    1.1213   -56.93   0.20795   -29.74   0.54918    69.96
      16800   0.84652    55.03    1.1034   -58.22   0.20851   -30.84   0.55683    68.39
      17000   0.84584    53.46    1.0924   -59.78   0.21065   -32.53   0.56695    67.74
      17200    0.8463    51.87    1.0793   -61.39   0.21126   -33.72   0.57743    65.68
      17400   0.85269    50.00     1.066   -63.20   0.21141   -35.01   0.58385    64.44
      17600   0.85411    48.22    1.0514   -64.81   0.21358   -35.43   0.59531    62.28
      17800   0.85242    46.48    1.0362   -66.56   0.21599   -37.17   0.59763    60.83
      18000   0.86043    45.68    1.0212   -68.21   0.21862   -38.13   0.59749    59.12
      18200   0.86394    43.56    1.0095   -70.19   0.22108   -40.18   0.60197    57.92
      18400   0.86937    42.64   0.98432   -71.98   0.21824   -40.99   0.60233    56.51
      18600   0.85996    40.92   0.96237   -73.21    0.2193   -41.56    0.6085    55.83
      18800   0.86945    39.33   0.95116   -74.64   0.22241   -42.70   0.61189    54.61
      19000   0.87099    37.63    0.9405   -76.01   0.22675   -43.68   0.61679    53.65
      19200   0.87498    35.29   0.92863   -77.91   0.23035   -45.32   0.62348    51.97
      19400   0.86833    34.08   0.90637   -78.99   0.23333   -46.23    0.6185    50.63
      19600    0.8683    32.81   0.89956   -80.23   0.23913   -48.85   0.61641    50.82
      19800   0.87561    32.44   0.88908   -81.66   0.23678   -50.69   0.63426    50.06
      20000   0.87808    30.29   0.88548   -83.56   0.23721   -52.58   0.63904    49.11

