! Filename:  P:\Prog\Test\Noise\ATS_data\Testdata_Net\Split files Spar\BFU760F_2W_C1_1V_5mA_60mA_Bias4_D.s2p
! Date/Time: Mon 06/Feb/2012 15:06:07
! BFU760_2W_C1_1V_5mA_60mA_Bias4_R.s2p
! MDIF S-parameter v. bias file
! BFU760_2W_C1_1V_5mA_60mA
! Date/time Fri Mar 18 10:56:44 2011
! VAR V_out= 1.0001
! VAR I_out= 14.9950
! VAR V_in= 0.7871
! VAR I_in= 0.0452
! Device data file deembeded for feedlines and parallel
! Original file: \Split files Spar\BFU760_2W_C1_1V_5mA_60mA_Bias4_R.s2p
! Feed-files: PR003V01_101208_Feed1.s2p, PR003V01_101208_Feed2.s2p
! Parallel-file: PR003V01_101208_Par.s2p
# MHz S MA R 50
!  Freq-MHz   S11-mag  S11-arg   S21-mag  S21-arg   S12-mag  S12-arg   S22-mag  S22-arg
         40    0.8563   -10.99    43.693   173.67 0.0049232    84.32   0.98935    -7.58
         50   0.84704   -14.08    43.562   171.48 0.0059564    79.31   0.98684    -9.71
         60   0.85167   -16.11    42.921   170.07 0.0071677    82.50    0.9852   -11.57
         70    0.8526   -18.99     42.95   168.77 0.0085482    80.81   0.98111   -13.57
         80   0.85009   -21.81        43   167.06 0.0097275    79.32   0.97675   -15.49
         90   0.84711   -24.50    42.704   165.39   0.01091    77.95   0.97206   -17.42
        100    0.8463   -26.94     42.29   163.96  0.012053    76.54   0.96715   -19.34
        120   0.84214   -32.25    41.787   160.90  0.014267    74.17   0.95452   -23.20
        140   0.83808   -37.21    41.155   158.06  0.016458    71.85    0.9413   -26.87
        160   0.83222   -42.06    40.189   155.18  0.018501    69.28   0.92589   -30.48
        180   0.82953   -46.90    39.618   152.59  0.020486    67.06   0.90869   -33.91
        200   0.82355   -51.58    38.751   149.96  0.022293    64.78   0.89259   -37.33
        220   0.81944   -56.14    38.052   147.42  0.023983    62.86   0.87361   -40.60
        240   0.81239   -60.58    37.253   144.93   0.02559    60.81   0.85658   -43.74
        260    0.8093   -64.53     36.24   142.72  0.027084    58.93   0.83816   -46.82
        280   0.80427   -68.74    35.472   140.49  0.028496    57.15   0.82051   -49.72
        300   0.79992   -72.45    34.447   138.39  0.029796    55.35   0.80339   -52.69
        320   0.79528   -76.41    33.786   136.39   0.03101    53.73   0.78297   -55.48
        340   0.79016   -79.88    32.906   134.43  0.032087    52.20   0.76462   -58.13
        360   0.78765   -83.40    32.146   132.63  0.033117    50.83   0.74627   -60.64
        380   0.78253   -86.99    31.419   130.75  0.034079    49.51   0.72935   -63.05
        400   0.77707   -90.06    30.641   129.04  0.035037    48.30    0.7131   -65.32
        420   0.77235   -93.09    29.834   127.40  0.035871    47.08   0.69832   -67.61
        440   0.77079   -95.85    29.053   125.95  0.036674    45.92   0.68341   -69.88
        460   0.76633   -98.79    28.385   124.40  0.037394    44.84   0.66868   -72.02
        480   0.76357  -101.15    27.577   123.06  0.038053    43.75   0.65498   -74.17
        500   0.75905  -103.87    26.944   121.66  0.038643    42.86   0.64021   -76.17
        550   0.75212  -109.68    25.367   118.48  0.039925    40.84    0.6057   -80.84
        600   0.74501  -114.86    23.854   115.68  0.041167    39.02   0.57846   -85.19
        650   0.73997  -119.47    22.487   113.18  0.042219    37.47   0.55333   -89.29
        700   0.73574  -123.75    21.261   110.90  0.043126    36.15   0.53045   -93.01
        750   0.73246  -127.64    20.153   108.76  0.043931    35.02   0.51025   -96.56
        800   0.72963  -131.19    19.123   106.83  0.044684    33.96   0.49254   -99.89
        850   0.72625  -134.51    18.167   104.98  0.045254    33.08   0.47572  -103.14
        900   0.72305  -137.45    17.321   103.29  0.045901    32.46   0.46018  -106.00
        950   0.72157  -140.13    16.538   101.75  0.046482    31.86   0.44708  -108.80
       1000   0.71921  -142.64    15.805   100.30  0.046995    31.29   0.43573  -111.54
       1050   0.71705  -145.08     15.14    98.91  0.047433    30.83   0.42468  -114.17
       1100   0.71581  -147.25     14.53    97.60  0.047956    30.44   0.41505  -116.54
       1150    0.7147  -149.34    13.958    96.33   0.04843    30.10   0.40603  -118.83
       1200   0.71344  -151.29    13.432    95.18  0.048871    29.79   0.39823  -121.10
       1250   0.71248  -153.20    12.929    94.02  0.049259    29.52    0.3909  -123.30
       1300   0.71188  -154.87    12.476    92.92  0.049712    29.32    0.3837  -125.34
       1350   0.71105  -156.50    12.051    91.87  0.050095    29.17   0.37809  -127.30
       1400   0.71052  -158.13     11.64    90.84  0.050481    29.00   0.37238  -129.28
       1450   0.71022  -159.64    11.265    89.88  0.050837    28.87   0.36693  -131.13
       1500   0.70896  -160.98    10.914    88.94  0.051243    28.84   0.36235  -132.85
       1550   0.70847  -162.33    10.578    88.01  0.051678    28.76   0.35764  -134.49
       1600   0.70812  -163.64    10.267    87.12  0.052091    28.68    0.3539  -136.15
       1650   0.70804  -164.97    9.9642    86.22  0.052502    28.64   0.35003  -137.79
       1700   0.70699  -166.13    9.6889    85.34  0.052911    28.62   0.34646  -139.25
       1750   0.70616  -167.30    9.4243    84.51  0.053291    28.59   0.34394  -140.77
       1800   0.70621  -168.47    9.1642    83.68  0.053668    28.53   0.34073  -142.26
       1850   0.70587  -169.54    8.9213    82.89  0.054023    28.54   0.33799  -143.72
       1900   0.70552  -170.59    8.6991    82.09   0.05444    28.59   0.33554  -145.04
       1950   0.70441  -171.58    8.4781    81.32  0.054819    28.58    0.3333  -146.28
       2000   0.70399  -172.54    8.2655    80.59  0.055168    28.62   0.33155  -147.74
       2050   0.70463  -173.44    8.0682    79.89  0.055594    28.69   0.32886  -149.04
       2100   0.70421  -174.42    7.8805    79.12  0.056054    28.69   0.32707  -150.14
       2150   0.70421  -175.28    7.6997    78.42   0.05641    28.72   0.32546  -151.37
       2200   0.70411  -176.13    7.5282    77.74    0.0569    28.83   0.32327  -152.43
       2250   0.70374  -177.08    7.3582    77.06  0.057353    28.83   0.32255  -153.54
       2300   0.70324  -177.88     7.199    76.39  0.057753    28.74   0.32125  -154.70
       2350    0.7038  -178.62    7.0456    75.77  0.058036    28.80   0.32058  -155.77
       2400   0.70443  -179.32    6.9006    75.17  0.058452    28.97   0.31923  -156.92
       2450   0.70494   179.85     6.762    74.55  0.058952    29.05   0.31848  -157.88
       2500   0.70539   178.92    6.6286    73.91  0.059379    29.16   0.31803  -159.02
       2600    0.7054   177.48    6.3856    72.69  0.060363    29.22   0.31524  -160.95
       2700   0.70582   175.93    6.1501    71.43  0.061274    29.24   0.31287  -162.89
       2800   0.70529   174.58    5.9323    70.19  0.062234    29.28   0.31139  -164.66
       2900   0.70575   173.26    5.7284    69.06  0.063137    29.39   0.30985  -166.36
       3000   0.70597   171.95    5.5449    67.91  0.064152    29.39   0.30986  -167.91
       3100   0.70734   170.67    5.3709    66.69  0.065074    29.47   0.30864  -169.48
       3200   0.70697   169.34     5.205    65.51   0.06604    29.43   0.30815  -171.14
       3300    0.7085   168.16    5.0533    64.42   0.06695    29.38   0.30871  -172.63
       3400   0.70835   166.89    4.9061    63.25  0.067983    29.37   0.30909  -174.11
       3500   0.70859   165.66    4.7678    62.09  0.068918    29.35   0.30886  -175.55
       3600   0.70936   164.42    4.6339    60.98   0.06989    29.35   0.30861  -177.08
       3700   0.70875   163.39    4.5101    59.88  0.070919    29.40   0.30787  -178.52
       3800   0.71028   162.09    4.3916    58.72  0.071928    29.33   0.30873   179.95
       3900   0.70973   161.11    4.2804    57.68  0.073099    29.30   0.30886   178.67
       4000   0.71102   159.84    4.1702    56.56   0.07406    29.18   0.30954   177.38
       4100   0.71102   158.98    4.0713    55.57  0.075126    29.23   0.30923   176.06
       4200   0.71223   157.72    3.9725    54.41  0.076275    29.08   0.30982   174.71
       4300    0.7125   156.75    3.8822    53.37  0.077445    28.96   0.31077   173.53
       4400    0.7132   155.57    3.7918    52.31  0.078538    28.77   0.31132   172.30
       4500   0.71308   154.62    3.7099    51.25  0.079732    28.66   0.31173   171.16
       4600   0.71467   153.56    3.6275    50.22  0.080791    28.47    0.3124   169.87
       4700   0.71482   152.57    3.5515    49.15  0.081912    28.31   0.31376   168.67
       4800   0.71572   151.47    3.4745    48.16  0.083015    28.09   0.31497   167.64
       4900   0.71608   150.46    3.4035    47.08  0.084076    27.91   0.31555   166.41
       5000   0.71647   149.46    3.3357    46.07  0.085287    27.69   0.31596   165.19
       5200   0.71783   147.54    3.2021    44.11  0.087616    27.29   0.31863   163.16
       5400    0.7192   145.57    3.0871    42.06  0.089869    26.73   0.31965   160.88
       5600   0.72028   143.73    2.9711    40.09   0.09216    26.20   0.32286   158.95
       5800   0.72121   141.83    2.8692    38.14   0.09445    25.69   0.32405   156.77
       6000   0.72221   140.04    2.7716    36.16  0.096759    25.12   0.32751   154.82
       6200   0.72352   138.28    2.6826    34.25  0.099124    24.55   0.32922   152.84
       6400   0.72546   136.49    2.5956    32.34   0.10136    23.93   0.33246   150.83
       6600   0.72802   134.65    2.5184    30.40   0.10396    23.29   0.33547   149.04
       6800   0.72893   132.92    2.4453    28.47   0.10633    22.43   0.33847   147.01
       7000    0.7316   131.24    2.3728    26.58   0.10867    21.74   0.34263   145.10
       7200   0.73258   129.59    2.3111    24.72   0.11127    21.07    0.3438   143.19
       7400   0.73408   127.80    2.2472    22.77   0.11381    20.21   0.34818   141.57
       7600   0.73553   126.15    2.1876    20.80   0.11629    19.18   0.35122   139.56
       7800    0.7363   124.25    2.1274    19.02   0.11823    18.45   0.35578   137.70
       8000    0.7398   122.81    2.0792    17.17   0.12132    17.61   0.35839   136.02
       8200   0.74269   120.90    2.0253    15.28   0.12354    16.54   0.36326   134.14
       8400   0.74584   119.51    1.9846    13.53   0.12623    15.87   0.36511   132.59
       8600   0.74775   117.70     1.932    11.61   0.12829    14.65    0.3725   130.67
       8800   0.75029   116.04    1.8891     9.65   0.13075    13.68   0.37621   128.68
       9000   0.75334   114.56    1.8493     7.87   0.13348    12.82   0.37915   127.29
       9200   0.75307   112.68    1.8052     5.98   0.13599    11.63   0.38445   125.72
       9400   0.75622   111.20     1.767     4.17   0.13834    10.59   0.38831   124.09
       9600   0.75899   109.45    1.7236     2.29   0.14009     9.51   0.39358   121.98
       9800   0.76144   107.74     1.687     0.61   0.14237     8.55   0.39805   120.65
      10000   0.76205   106.36    1.6569    -1.05   0.14501     7.70   0.40132   118.76
      10200   0.76599   104.68    1.6213    -2.93   0.14712     6.48   0.40847   117.20
      10400   0.76709   103.22    1.5896    -4.77   0.14974     5.35   0.41073   115.76
      10600   0.76579   101.65    1.5538    -6.48   0.15159     4.16   0.41901   113.89
      10800   0.76643   100.28     1.527    -8.04   0.15416     3.08   0.42025   112.67
      11000   0.77004    98.97    1.5036    -9.71    0.1564     2.05   0.42736   110.79
      11200   0.77827    97.22    1.4766   -11.55   0.15848     0.88   0.43216   109.64
      11400   0.78025    95.63    1.4504   -13.23   0.16115    -0.21   0.43612   107.70
      11600    0.7856    94.09     1.425   -14.89   0.16291    -1.36   0.44307   106.49
      11800   0.78866    92.85    1.4003   -16.57   0.16531    -2.51   0.44755   104.62
      12000   0.79365    91.00    1.3838   -18.44   0.16748    -3.74   0.45452   103.05
      12200   0.79675    89.16    1.3579   -20.31   0.16934    -4.82   0.45791   101.39
      12400   0.79598    87.37    1.3369   -21.97   0.17233    -5.85   0.46316    99.61
      12600   0.79872    85.73      1.31   -23.73   0.17433    -7.16   0.46756    98.34
      12800   0.80342    84.59    1.2923   -25.32   0.17691    -8.37   0.47322    96.64
      13000   0.80243    82.66     1.268   -27.15   0.17881    -9.83   0.48029    95.32
      13200   0.80542    81.83    1.2504   -28.71   0.18132   -11.05    0.4852    93.63
      13400   0.80345    80.08     1.231   -30.50   0.18289   -12.81   0.49302    92.29
      13600   0.80917    78.39    1.2123   -32.31   0.18383   -14.10   0.50082    90.79
      13800   0.80978    76.85    1.2001   -34.04    0.1863   -15.48   0.50791    89.34
      14000   0.81598    75.14    1.1789   -35.74   0.18665   -16.98   0.51785    87.75
      14200   0.81792    73.81    1.1627   -37.60   0.18803   -17.97   0.52245    85.74
      14400   0.82029    71.72    1.1389   -39.38   0.18833   -19.16   0.53026    84.66
      14600    0.8218    70.46    1.1236   -40.78   0.19067   -19.79   0.53451    82.77
      14800   0.82341    68.59    1.1055   -42.55   0.19258   -21.02   0.54226    81.71
      15000   0.82855    67.60    1.0906   -43.90   0.19541   -22.09   0.54775    79.90
      15200   0.83061    65.94    1.0813   -45.86   0.19838   -23.85   0.55449    78.93
      15400    0.8388    64.62     1.062   -47.45   0.19875   -25.13   0.56115    77.25
      15600   0.83882    63.50    1.0527   -49.12   0.20207   -26.40   0.56868    75.80
      15800   0.84564    61.48    1.0383   -51.14   0.20214   -28.44   0.57646    74.43
      16000    0.8501    60.33    1.0229   -52.96   0.20251   -29.43   0.58305    72.49
      16200   0.85325    58.63    1.0079   -54.78   0.20365   -30.84    0.5874    70.93
      16400   0.86059    57.32   0.99208   -56.42   0.20384   -31.50   0.58753    68.99
      16600   0.85532    55.46   0.96985   -58.19   0.20669   -32.73   0.58885    68.31
      16800   0.85506    54.09   0.95491   -59.46   0.20727   -33.83   0.59632    66.79
      17000   0.85374    52.54   0.94581   -61.04   0.20938   -35.49   0.60578    66.07
      17200   0.85423    50.92   0.93379   -62.65   0.20992   -36.68   0.61614    64.06
      17400   0.86001    49.10   0.92186   -64.40   0.20985   -37.96   0.62172    62.80
      17600   0.86103    47.34   0.90891   -65.93   0.21178   -38.29   0.63339    60.70
      17800   0.85955    45.60   0.89641   -67.65   0.21413   -40.00   0.63525    59.21
      18000   0.86699    44.83   0.88323   -69.27   0.21668   -40.91   0.63459    57.47
      18200   0.87086    42.70   0.87329   -71.22   0.21911   -42.93   0.63839    56.21
      18400   0.87517    41.82    0.8506   -72.95   0.21604   -43.72   0.63753    54.81
      18600   0.86539    40.09   0.83189   -74.05   0.21695   -44.19   0.64287    54.14
      18800    0.8748    38.52   0.82201   -75.43   0.22009   -45.29   0.64579    52.91
      19000    0.8763    36.87   0.81369   -76.72   0.22444   -46.20   0.65043    51.95
      19200   0.87999    34.56   0.80418   -78.53   0.22786   -47.75   0.65677    50.24
      19400   0.87332    33.42   0.78569   -79.48    0.2311   -48.56   0.65097    48.91
      19600   0.87439    32.13   0.78185   -80.70   0.23739   -51.18   0.64855    48.99
      19800   0.88101    31.77   0.77293   -82.22     0.235   -53.08   0.66575    48.23
      20000   0.88242    29.63   0.76977   -84.11   0.23524   -54.98   0.67029    47.18

