! Filename:  P:\Prog\Test\Noise\ATS_data\Testdata_Net\BFU760\BFU760F_2W_C1_2V9mA_D.s2p
! Date/Time: Mon 06/Feb/2012 15:05:15
! BFU760_2W_C1_2V_9mA
! bias mode 1: Vout= 2.0002 V, Iout= 9.0250 mA, Vin= 0.7705 V, Iin= 0.0259 mA
! Date/time Fri Mar 18 11:26:21 2011
! Device data file deembeded for feedlines and parallel
! Original file: \BFU760\BFU760_2W_C1_2V9mA_R.s2p
! Feed-files: PR003V01_101208_Feed1.s2p, PR003V01_101208_Feed2.s2p
! Parallel-file: PR003V01_101208_Par.s2p
# MHz S MA R 50
!  Freq-MHz   S11-mag  S11-arg   S21-mag  S21-arg   S12-mag  S12-arg   S22-mag  S22-arg
         40   0.91261    -7.07    27.771   175.67 0.0043831    84.90   0.99401    -4.45
         50   0.91247    -9.33    27.761   174.04 0.0055513    79.47   0.99275    -5.68
         60   0.90794   -10.40    27.401   173.18 0.0063745    83.19   0.99235    -6.71
         70   0.91126   -12.19    27.456   172.41 0.0076346    83.19   0.99036    -7.88
         80   0.90978   -14.04    27.583   171.20  0.008724    82.15   0.98846    -9.00
         90   0.90812   -15.81    27.498   169.98 0.0098063    81.27   0.98628   -10.13
        100   0.90733   -17.40    27.308   169.01  0.010888    80.29    0.9841   -11.26
        120   0.90532   -20.98    27.188   166.85   0.01298    78.82   0.97832   -13.56
        140    0.9031   -24.37    27.011   164.80  0.015097    77.21   0.97198   -15.78
        160    0.8992   -27.71    26.631   162.61  0.017154    75.32   0.96424   -17.99
        180   0.89718   -31.12     26.49   160.71  0.019135    73.74   0.95515   -20.11
        200    0.8932   -34.43    26.187   158.69  0.021097    71.99   0.94681   -22.27
        220   0.88972   -37.75        26   156.72  0.022934    70.52   0.93601   -24.37
        240   0.88443   -41.06    25.782   154.72  0.024778    68.79   0.92651   -26.41
        260   0.88168   -44.03    25.317   152.92  0.026516    67.29   0.91546   -28.43
        280   0.87757   -47.23    25.063   151.10  0.028256    65.70   0.90469   -30.37
        300   0.87348   -50.18    24.619   149.31  0.029884    64.20   0.89415   -32.40
        320   0.86954   -53.19    24.357   147.66  0.031406    62.64   0.87987   -34.33
        340   0.86406   -56.13    23.996   145.85  0.032891    61.23   0.86687   -36.18
        360    0.8619   -59.00    23.679   144.36  0.034311    59.88   0.85313   -37.94
        380   0.85705   -62.04    23.438   142.69  0.035686    58.54   0.84026   -39.65
        400   0.85104   -64.84    23.136   141.03  0.037047    57.31   0.82751   -41.26
        420   0.84575   -67.58    22.777   139.42  0.038312    56.01   0.81613   -42.92
        440   0.84324   -70.01     22.35   138.07  0.039551    54.75   0.80372   -44.57
        460   0.83846   -72.76    22.084   136.55  0.040665    53.55   0.79117   -46.14
        480   0.83439   -74.98    21.603   135.19  0.041763    52.29   0.77967   -47.80
        500   0.82941   -77.55    21.321   133.76  0.042727    51.25   0.76483   -49.31
        550   0.81996   -83.41    20.517   130.46  0.044965    48.69   0.73158   -52.82
        600   0.80947   -88.86    19.668   127.38  0.047106    46.29    0.7039   -56.14
        650   0.80091   -93.75    18.817   124.58  0.048945    44.09   0.67593   -59.28
        700   0.79352   -98.46    18.046   121.99   0.05054    42.18   0.64889   -62.19
        750   0.78652  -102.99     17.35   119.48  0.051993    40.40   0.62396   -64.93
        800   0.78008  -107.10    16.648   117.17  0.053348    38.68   0.60139   -67.47
        850   0.77374  -110.88    15.952   115.01  0.054439    37.11   0.57922   -70.02
        900   0.76768  -114.53    15.356   112.94   0.05546    35.89   0.55756   -72.21
        950   0.76371  -117.91    14.788   111.04  0.056395    34.64   0.53845   -74.39
       1000   0.75846  -120.99    14.222   109.26  0.057225    33.44   0.52087   -76.62
       1050   0.75342  -124.04    13.709   107.52  0.057895    32.37   0.50307   -78.67
       1100   0.75036  -126.82    13.233   105.90  0.058607    31.43   0.48764   -80.52
       1150   0.74665  -129.54    12.779   104.32  0.059272    30.55   0.47283   -82.33
       1200   0.74348  -132.02    12.348   102.88  0.059863    29.68   0.45923   -84.15
       1250   0.74062  -134.46    11.929   101.44   0.06037    28.87   0.44602   -85.91
       1300   0.73822  -136.67    11.553   100.08  0.060869    28.19   0.43342   -87.50
       1350   0.73615  -138.79    11.197    98.78  0.061316    27.54   0.42235   -89.14
       1400   0.73374  -140.92     10.85    97.50  0.061718    26.87   0.41131   -90.78
       1450   0.73227  -142.88    10.528    96.30  0.062071    26.32   0.40089   -92.27
       1500   0.72997  -144.66    10.224    95.15   0.06242    25.82   0.39159   -93.70
       1550   0.72809  -146.42    9.9312    94.01  0.062837    25.30   0.38255   -95.05
       1600   0.72665  -148.10    9.6543    92.93  0.063162    24.83   0.37433   -96.48
       1650   0.72565  -149.82    9.3873    91.84  0.063463    24.43   0.36599   -97.87
       1700   0.72365  -151.38    9.1457    90.78  0.063772    24.02   0.35861   -99.12
       1750   0.72192  -152.87    8.9087    89.77  0.064082    23.64   0.35179  -100.50
       1800   0.72136  -154.39    8.6762    88.77  0.064337    23.25    0.3447  -101.77
       1850   0.72012  -155.81     8.458    87.81  0.064541    22.91   0.33813  -103.07
       1900   0.71929  -157.15    8.2569    86.85  0.064818    22.64    0.3322  -104.29
       1950   0.71718  -158.45    8.0555    85.94  0.065034    22.33   0.32681  -105.41
       2000   0.71639  -159.69    7.8602    85.07  0.065192    22.08   0.32104  -106.75
       2050   0.71643  -160.89     7.679    84.23  0.065423    21.86   0.31515  -107.88
       2100   0.71556  -162.12    7.5079    83.34  0.065743    21.61   0.31084  -108.93
       2150   0.71498  -163.22    7.3421    82.52  0.065906    21.40   0.30617  -110.11
       2200    0.7145  -164.35    7.1843    81.72  0.066194    21.24   0.30162  -111.08
       2250   0.71349  -165.53    7.0284    80.90  0.066463    21.04   0.29796  -112.23
       2300    0.7127  -166.55    6.8791    80.13  0.066651    20.75   0.29381  -113.35
       2350   0.71311  -167.52    6.7369    79.39  0.066753    20.57   0.29059  -114.47
       2400    0.7132  -168.46    6.6031    78.68   0.06696    20.51   0.28653  -115.57
       2450   0.71294  -169.48    6.4733    77.97  0.067207    20.44   0.28326  -116.60
       2500   0.71305  -170.60     6.349    77.21  0.067414    20.30   0.27982  -117.77
       2600   0.71218  -172.38    6.1205    75.80  0.067906    20.10   0.27325  -119.55
       2700   0.71228  -174.29    5.9006    74.35  0.068342    19.81   0.26677  -121.42
       2800   0.71142  -175.96    5.6976    72.95  0.068787    19.59   0.26193  -123.25
       2900   0.71127  -177.58    5.5038    71.66  0.069139    19.48   0.25707  -125.01
       3000   0.71084  -179.16    5.3305    70.36  0.069645    19.33    0.2541  -126.76
       3100   0.71208   179.25    5.1668    68.99  0.070004    19.19   0.25044  -128.39
       3200   0.71136   177.72     5.009    67.68  0.070483    19.04   0.24678  -130.24
       3300   0.71276   176.28    4.8653    66.46  0.070846    18.85   0.24531  -131.96
       3400   0.71205   174.77    4.7256    65.16  0.071323    18.76   0.24298  -133.70
       3500   0.71218   173.36     4.595    63.87  0.071708    18.66   0.24068  -135.40
       3600   0.71255   171.88    4.4669    62.64  0.072145    18.64   0.23772  -137.13
       3700   0.71213   170.68    4.3485    61.44  0.072576    18.62   0.23527  -138.63
       3800    0.7131   169.21    4.2374    60.17  0.073036    18.61   0.23348  -140.60
       3900   0.71241   168.04    4.1302    59.02  0.073653    18.62   0.23186  -142.11
       4000    0.7135   166.61    4.0251    57.80  0.074059    18.49   0.23093  -143.75
       4100   0.71362   165.58    3.9301    56.71  0.074555    18.61   0.22927  -145.24
       4200   0.71456   164.18    3.8367    55.46  0.075145    18.54     0.228  -146.86
       4300   0.71462   163.06    3.7505    54.32  0.075786    18.51   0.22774  -148.37
       4400   0.71517   161.74    3.6636    53.16  0.076338    18.45   0.22684  -149.95
       4500   0.71533   160.67    3.5852    52.02  0.076956    18.45   0.22619  -151.34
       4600   0.71632   159.50    3.5065    50.90  0.077513    18.42   0.22546  -152.90
       4700   0.71679   158.38    3.4338    49.76  0.078112    18.37   0.22564  -154.51
       4800   0.71761   157.17    3.3591    48.67  0.078682    18.30   0.22591  -155.86
       4900   0.71791   156.04    3.2919    47.52  0.079293    18.26   0.22518  -157.33
       5000   0.71821   154.94    3.2261    46.44   0.07997    18.23   0.22433  -158.83
       5200   0.71947   152.81    3.0973    44.30  0.081291    18.21   0.22585  -161.52
       5400   0.72073   150.66    2.9872    42.13  0.082622    18.05   0.22501  -164.28
       5600   0.72183   148.64    2.8758    39.99  0.083964    17.90   0.22744  -166.89
       5800   0.72276   146.59    2.7772    37.91   0.08532    17.82   0.22732  -169.53
       6000   0.72416   144.65    2.6834    35.79  0.086743    17.68   0.22986  -172.22
       6200   0.72562   142.76    2.5971    33.77   0.08826    17.58   0.23106  -174.62
       6400   0.72716   140.84     2.514    31.72  0.089726    17.45   0.23332  -177.23
       6600   0.72993   138.87    2.4389    29.65  0.091598    17.29   0.23618  -179.56
       6800   0.73093   137.02    2.3682    27.63  0.093291    16.93   0.23869   177.87
       7000    0.7338   135.22    2.2982    25.60  0.094965    16.70   0.24219   175.25
       7200   0.73493   133.50    2.2384    23.66  0.096911    16.55   0.24348   173.02
       7400   0.73673   131.62    2.1768    21.57  0.098877    16.18   0.24833   170.79
       7600   0.73834   129.85    2.1192    19.53   0.10091    15.61    0.2508   168.29
       7800   0.73876   127.86      2.06    17.62   0.10235    15.30   0.25543   165.69
       8000   0.74299   126.33    2.0138    15.69   0.10504    15.03   0.25867   163.69
       8200   0.74573   124.37    1.9611    13.69   0.10695    14.33   0.26355   161.10
       8400   0.74882   122.90    1.9214    11.85   0.10931    14.15   0.26604   159.35
       8600   0.75134   121.00    1.8712     9.82   0.11117    13.22   0.27346   156.54
       8800   0.75415   119.26    1.8295     7.77   0.11341    12.67    0.2768   154.11
       9000   0.75719   117.70    1.7904     5.89   0.11604    12.17   0.28134   152.44
       9200   0.75729   115.80    1.7478     3.92   0.11831    11.28   0.28757   150.29
       9400   0.76039   114.23    1.7103     2.01   0.12045    10.56   0.29227   148.34
       9600   0.76353   112.44    1.6688     0.04    0.1222     9.83   0.29785   145.50
       9800   0.76617   110.68    1.6327    -1.78   0.12436     9.13   0.30331   143.80
      10000   0.76687   109.28     1.602    -3.47   0.12685     8.67   0.30698   141.54
      10200   0.77112   107.52    1.5677    -5.46   0.12906     7.68     0.315   139.41
      10400   0.77203   105.97    1.5361    -7.38    0.1316     6.80   0.31904   137.78
      10600   0.77121   104.36    1.5027    -9.17   0.13345     5.94    0.3272   135.18
      10800   0.77287   102.96    1.4744   -10.86     0.136     5.12   0.33072   133.84
      11000   0.77648   101.59    1.4538   -12.53   0.13862     4.57   0.33725   131.47
      11200   0.78473    99.78    1.4256   -14.55   0.14105     3.41   0.34512   130.09
      11400   0.78695    98.16    1.3995   -16.29   0.14376     2.53   0.34968   127.78
      11600   0.79237    96.54    1.3742   -18.06   0.14582     1.60   0.35856   126.15
      11800   0.79577    95.23    1.3494   -19.79   0.14833     0.62   0.36348   123.95
      12000   0.80099    93.39    1.3335   -21.74   0.15108    -0.41    0.3716   122.00
      12200   0.80429    91.50    1.3075   -23.67   0.15311    -1.43   0.37683   120.12
      12400   0.80333    89.72    1.2862   -25.42   0.15628    -2.33   0.38291   117.94
      12600   0.80661    88.00    1.2592   -27.28   0.15848    -3.51    0.3898   116.39
      12800    0.8121    86.79    1.2418   -28.93   0.16142    -4.59   0.39615   114.31
      13000   0.81086    84.86    1.2171   -30.82    0.1635    -5.95   0.40522   112.61
      13200   0.81448    83.94    1.1994   -32.46   0.16618    -7.04    0.4114   110.63
      13400   0.81294    82.19    1.1802   -34.25   0.16822    -8.62   0.42072   108.87
      13600   0.81877    80.45    1.1618   -36.19   0.16978    -9.85   0.43005   107.01
      13800   0.81922    78.91    1.1488   -37.92    0.1727   -11.09    0.4387   105.24
      14000   0.82603    77.12    1.1289   -39.77   0.17367   -12.57   0.44973   103.20
      14200   0.82842    75.75    1.1112   -41.71   0.17547   -13.48   0.45535   101.00
      14400   0.83065    73.62    1.0879   -43.54   0.17633   -14.67   0.46636    99.47
      14600   0.83242    72.32    1.0718   -45.03   0.17907   -15.26   0.47061    97.37
      14800   0.83398    70.47    1.0531   -46.84   0.18133   -16.46   0.48132    96.00
      15000   0.83933    69.38    1.0372   -48.26   0.18449   -17.51   0.48724    93.94
      15200    0.8416    67.69    1.0274   -50.20   0.18782   -19.19   0.49718    92.77
      15400   0.85058    66.32    1.0084   -51.88   0.18873   -20.47   0.50499    90.80
      15600   0.85055    65.13   0.99846   -53.56   0.19245   -21.72   0.51484    89.15
      15800   0.85767    63.10   0.98435   -55.66    0.1931   -23.73   0.52451    87.51
      16000   0.86205    61.86   0.96869   -57.56   0.19403   -24.76   0.53253    85.31
      16200   0.86527    60.17   0.95344   -59.44    0.1957   -26.14   0.53895    83.55
      16400   0.87235    58.77   0.93606   -61.13   0.19642   -26.91   0.54069    81.49
      16600   0.86713    56.90   0.91456   -62.95   0.19939   -28.19   0.54649    80.55
      16800   0.86749    55.52    0.8988   -64.27    0.2004   -29.25   0.55402    78.73
      17000   0.86659    53.95   0.88892   -65.87   0.20292   -30.93   0.56668    77.74
      17200   0.86689    52.31     0.877   -67.51   0.20392   -32.09   0.57684    75.45
      17400   0.87277    50.42   0.86417   -69.36   0.20447   -33.42   0.58487    73.99
      17600    0.8736    48.65   0.85021   -70.93   0.20675   -33.85   0.59611    71.62
      17800   0.87234    46.88   0.83697   -72.67   0.20956   -35.55   0.60046    70.00
      18000   0.87991    46.06   0.82385   -74.22   0.21249   -36.54   0.60212    68.16
      18200   0.88368    43.89   0.81325   -76.20   0.21522   -38.59   0.60855    66.70
      18400   0.88792    42.91   0.79101   -77.99   0.21288   -39.44   0.61013    65.17
      18600   0.87773    41.20    0.7716   -79.15   0.21402   -40.07    0.6179    64.20
      18800   0.88728    39.58   0.76138   -80.50   0.21747   -41.20   0.62271    62.83
      19000   0.88905    37.92   0.75189   -81.77   0.22185   -42.22    0.6298    61.64
      19200   0.89255    35.62   0.74133   -83.59   0.22557   -43.90   0.63755    59.74
      19400   0.88528    34.43   0.72191   -84.54   0.22855   -44.80   0.63386    58.26
      19600   0.88765    33.13    0.7178   -85.63   0.23455   -47.36   0.63456    58.16
      19800   0.89395    32.65    0.7097   -87.14    0.2328   -49.23    0.6528    57.05
      20000   0.89571    30.43   0.70549   -89.07    0.2335   -51.21   0.65888    55.94

!  
! Device Noise Parameters
!  Freq-MHz   Fmin-dB  Gopt-mag  Gopt-arg   rn_normalized
	400	0.4483	0.21165	17.97	0.0659
	420	0.4479	0.20994	19.85	0.0659
	440	0.4475	0.20842	21.74	0.0658
	460	0.4471	0.20708	23.63	0.0657
	480	0.4468	0.20592	25.51	0.0657
	500	0.4465	0.20494	27.40	0.0656
	550	0.4457	0.20323	32.09	0.0654
	650	0.4445	0.20276	41.23	0.0650
	700	0.4441	0.20382	45.61	0.0648
	750	0.4437	0.20562	49.84	0.0645
	800	0.4435	0.20807	53.89	0.0643
	850	0.4433	0.21108	57.76	0.0640
	900	0.4433	0.21456	61.45	0.0637
	950	0.4433	0.21843	64.96	0.0634
	1000	0.4434	0.22261	68.30	0.0631
	1050	0.4437	0.22705	71.46	0.0627
	1100	0.4440	0.23169	74.47	0.0624
	1150	0.4445	0.23646	77.33	0.0620
	1200	0.4450	0.24134	80.06	0.0617
	1250	0.4457	0.24629	82.66	0.0613
	1300	0.4464	0.25127	85.15	0.0609
	1350	0.4473	0.25625	87.53	0.0605
	1400	0.4482	0.26122	89.82	0.0601
	1450	0.4492	0.26616	92.02	0.0596
	1500	0.4504	0.27105	94.15	0.0592
	1550	0.4516	0.27588	96.20	0.0588
	1600	0.4530	0.28064	98.19	0.0583
	1650	0.4544	0.28533	100.12	0.0579
	1700	0.4560	0.28994	102.01	0.0574
	1750	0.4576	0.29447	103.84	0.0569
	1800	0.4593	0.29891	105.64	0.0565
	1850	0.4612	0.30327	107.39	0.0560
	1900	0.4631	0.30755	109.12	0.0555
	1950	0.4652	0.31175	110.81	0.0550
	2000	0.4673	0.31587	112.47	0.0545
	2050	0.4696	0.31991	114.11	0.0540
	2100	0.4719	0.32388	115.73	0.0535
	2150	0.4743	0.32779	117.32	0.0530
	2200	0.4769	0.33163	118.90	0.0525
	2250	0.4795	0.33542	120.46	0.0520
	2300	0.4822	0.33915	122.01	0.0514
	2350	0.4851	0.34284	123.54	0.0509
	2400	0.4880	0.34649	125.05	0.0504
	2450	0.4911	0.35010	126.56	0.0499
	2500	0.4942	0.35368	128.05	0.0494
	2600	0.5008	0.36078	131.01	0.0483
	2700	0.5077	0.36783	133.92	0.0473
	2800	0.5151	0.37486	136.79	0.0463
	2900	0.5229	0.38192	139.63	0.0453
	3000	0.5311	0.38904	142.42	0.0443
	3100	0.5396	0.39624	145.18	0.0434
	3200	0.5486	0.40355	147.89	0.0424
	3300	0.5580	0.41099	150.55	0.0415
	3400	0.5677	0.41856	153.17	0.0406
	3500	0.5779	0.42626	155.74	0.0398
	3600	0.5885	0.43409	158.25	0.0390
	3700	0.5994	0.44205	160.70	0.0382
	3800	0.6108	0.45011	163.10	0.0375
	3900	0.6225	0.45826	165.44	0.0369
	4000	0.6347	0.46646	167.71	0.0363
	4100	0.6472	0.47468	169.92	0.0357
	4200	0.6602	0.48289	172.07	0.0352
	4300	0.6736	0.49105	174.15	0.0348
	4400	0.6873	0.49910	176.16	0.0345
	4500	0.7015	0.50700	178.12	0.0342
	4600	0.7160	0.51470	180.01	0.0340
	4700	0.7310	0.52215	181.83	0.0339
	4800	0.7463	0.52929	183.60	0.0338
	4900	0.7620	0.53605	185.30	0.0339
	5000	0.7782	0.54239	186.95	0.0340
	5200	0.8117	0.55353	190.08	0.0346
	5400	0.8468	0.56221	193.01	0.0356
	5600	0.8834	0.56792	195.75	0.0370
	5800	0.9217	0.57015	198.32	0.0389
	6000	0.9616	0.56837	200.74	0.0413
