! Filename:  P:\Prog\Test\Noise\ATS_data\Testdata_Net\BFU760\BFU760F_2W_C1_2V10mA_D.s2p
! Date/Time: Mon 06/Feb/2012 15:05:22
! BFU760_2W_C1_2V10mA
! bias mode 1: Vout= 2.0001 V, Iout=10.0600 mA, Vin= 0.7726 V, Iin= 0.0293 mA
! Date/time Fri Mar 18 10:03:34 2011
! Device data file deembeded for feedlines and parallel
! Original file: \BFU760\BFU760_2W_C1_2V10mA_R.s2p
! Feed-files: PR003V01_101208_Feed1.s2p, PR003V01_101208_Feed2.s2p
! Parallel-file: PR003V01_101208_Par.s2p
# MHz S MA R 50
!  Freq-MHz   S11-mag  S11-arg   S21-mag  S21-arg   S12-mag  S12-arg   S22-mag  S22-arg
         40   0.90208    -7.53    30.604   175.39 0.0043733    84.61   0.99313    -4.81
         50   0.89466    -9.66    30.593   173.70 0.0056109    79.13    0.9917    -6.14
         60   0.90034   -10.99    30.188   172.75 0.0063349    82.62   0.99129    -7.28
         70    0.9006   -13.04    30.243   171.93 0.0075851    82.69   0.98903    -8.55
         80   0.89866   -15.00    30.371   170.65 0.0086744    81.70   0.98685    -9.77
         90   0.89676   -16.91    30.263   169.36 0.0097466    80.80   0.98442   -11.00
        100   0.89651   -18.66    30.044   168.34  0.010808    79.77   0.98186   -12.22
        120   0.89386   -22.44    29.889   166.05   0.01287    78.12   0.97528   -14.70
        140   0.89128   -26.03    29.663   163.89  0.014948    76.50   0.96806   -17.11
        160   0.88715   -29.59    29.214   161.59  0.016956    74.57   0.95921   -19.49
        180   0.88505   -33.21    29.026   159.59  0.018917    72.87    0.9491   -21.79
        200   0.88048   -36.71    28.656   157.47   0.02082    71.01   0.93968   -24.10
        220   0.87721   -40.22    28.408   155.41  0.022657    69.45   0.92777   -26.36
        240   0.87152   -43.69    28.124   153.33  0.024391    67.76   0.91715   -28.54
        260   0.86907   -46.83    27.588   151.47  0.026101    66.11    0.9048   -30.71
        280   0.86421   -50.19     27.27   149.57   0.02773    64.52   0.89295   -32.77
        300   0.85988   -53.27    26.745   147.71  0.029309    62.89   0.88117   -34.92
        320   0.85578   -56.43    26.435   146.01   0.03073    61.37   0.86578   -36.98
        340   0.85034   -59.48    25.999   144.16  0.032156    59.95   0.85175   -38.94
        360   0.84764   -62.48    25.622   142.60  0.033465    58.55   0.83694   -40.80
        380   0.84254   -65.64    25.319   140.87   0.03478    57.22   0.82328   -42.61
        400   0.83675   -68.48    24.944   139.19  0.036051    56.00   0.80959   -44.30
        420   0.83108   -71.32    24.514   137.56  0.037175    54.68   0.79735   -46.05
        440   0.82862   -73.84    24.027   136.18  0.038353    53.42   0.78415   -47.79
        460   0.82373   -76.64    23.701   134.64  0.039396    52.26   0.77083   -49.44
        480   0.81958   -78.92    23.158   133.27  0.040393    51.01   0.75863   -51.17
        500   0.81429   -81.57    22.821   131.82  0.041287    49.99   0.74342   -52.74
        550   0.80503   -87.47    21.875   128.50  0.043299    47.47   0.70897   -56.39
        600   0.79459   -92.97    20.899   125.43  0.045224    45.15    0.6803   -59.86
        650   0.78643   -97.88    19.944   122.66  0.046888    43.03   0.65185   -63.14
        700   0.77944  -102.56    19.078   120.09  0.048336    41.20   0.62462   -66.15
        750   0.77317  -107.05    18.294   117.62  0.049613    39.51   0.59971   -69.00
        800   0.76694  -111.10    17.515   115.37   0.05083    37.91   0.57716   -71.65
        850   0.76099  -114.86    16.756   113.25  0.051804    36.44   0.55511   -74.28
        900   0.75547  -118.42    16.098   111.23    0.0527    35.30   0.53391   -76.56
        950   0.75179  -121.71    15.473   109.39  0.053539    34.18    0.5152   -78.84
       1000   0.74717  -124.72    14.864   107.65  0.054272    33.09   0.49815   -81.14
       1050    0.7426  -127.69    14.308   105.97  0.054876    32.13   0.48107   -83.28
       1100   0.73978  -130.36    13.793   104.41  0.055524    31.28   0.46608   -85.21
       1150   0.73656  -132.98    13.306   102.87  0.056134    30.50   0.45197   -87.09
       1200   0.73363  -135.39    12.846   101.48   0.05668    29.74     0.439   -88.99
       1250   0.73109  -137.76    12.401   100.09  0.057131    29.03   0.42636   -90.83
       1300   0.72898  -139.88        12    98.77  0.057577    28.43    0.4144   -92.51
       1350   0.72728  -141.92    11.622    97.51   0.05801    27.88    0.4039   -94.22
       1400   0.72527  -143.97    11.253    96.29  0.058388    27.32   0.39353   -95.93
       1450   0.72381  -145.86    10.912    95.13  0.058706    26.83   0.38368   -97.51
       1500   0.72196  -147.58    10.591    94.02  0.059093    26.43   0.37495   -99.01
       1550   0.72015  -149.25    10.283    92.91  0.059457    26.01   0.36652  -100.42
       1600   0.71897  -150.87    9.9927    91.88  0.059809    25.62   0.35889  -101.93
       1650   0.71811  -152.54    9.7121    90.82  0.060118    25.27   0.35112  -103.38
       1700   0.71637  -153.98    9.4578    89.79  0.060435    24.97    0.3442  -104.70
       1750   0.71473  -155.44    9.2099    88.81  0.060763    24.66   0.33801  -106.14
       1800   0.71417  -156.90    8.9659    87.85  0.061006    24.32   0.33142  -107.49
       1850   0.71336  -158.26    8.7373    86.92  0.061228    24.08   0.32532  -108.85
       1900   0.71262  -159.54    8.5277    86.00  0.061524    23.85   0.31992  -110.11
       1950   0.71062  -160.78    8.3176    85.11  0.061769    23.61   0.31502  -111.31
       2000   0.70991  -161.98    8.1146    84.26  0.061965    23.44   0.30982  -112.72
       2050   0.70988  -163.13    7.9265    83.46  0.062205    23.30   0.30439  -113.92
       2100   0.70946  -164.31    7.7478    82.58  0.062534    23.11   0.30043  -115.02
       2150   0.70883  -165.37    7.5747    81.79  0.062746    22.95   0.29622  -116.25
       2200    0.7085  -166.43    7.4103    81.02  0.063053    22.86   0.29197  -117.27
       2250   0.70758  -167.56    7.2478    80.22  0.063352    22.68   0.28883  -118.45
       2300   0.70711  -168.58    7.0935    79.47  0.063569    22.46   0.28517  -119.62
       2350   0.70728  -169.47    6.9462    78.76   0.06373    22.34    0.2823  -120.80
       2400   0.70774  -170.36    6.8076    78.07  0.063944    22.36   0.27859  -121.94
       2450    0.7074  -171.36    6.6723    77.38  0.064251    22.31   0.27582  -123.01
       2500   0.70758  -172.47    6.5436    76.64  0.064476    22.25   0.27282  -124.26
       2600    0.7067  -174.14    6.3065    75.28  0.065057    22.10   0.26674  -126.12
       2700   0.70712  -176.01    6.0783    73.86  0.065592    21.89   0.26093  -128.09
       2800   0.70609  -177.61    5.8679    72.49  0.066115    21.76    0.2566  -129.99
       2900   0.70615  -179.18    5.6679    71.24  0.066578    21.73   0.25233  -131.81
       3000   0.70565   179.30    5.4892    69.96  0.067174    21.64   0.24985  -133.60
       3100   0.70706   177.78    5.3191    68.63  0.067661    21.57    0.2465  -135.28
       3200   0.70662   176.28    5.1563    67.35  0.068208    21.45   0.24345  -137.19
       3300   0.70766   174.87    5.0076    66.15  0.068689    21.35   0.24232  -138.94
       3400   0.70728   173.41    4.8639    64.88  0.069305    21.28   0.24057  -140.69
       3500   0.70732   172.04    4.7284    63.61  0.069797    21.23   0.23861  -142.41
       3600    0.7083   170.62    4.5959    62.42  0.070333    21.24   0.23614  -144.19
       3700   0.70785   169.50    4.4746    61.24  0.070891    21.29   0.23395  -145.75
       3800   0.70858   167.98    4.3597    59.98  0.071467    21.25    0.2328  -147.72
       3900   0.70791   166.90    4.2494    58.87  0.072202    21.27   0.23154  -149.22
       4000   0.70903   165.47    4.1404    57.67  0.072726    21.18   0.23094  -150.84
       4100   0.70927   164.50    4.0429    56.59  0.073348    21.32   0.22953  -152.35
       4200   0.71038   163.12    3.9465    55.36  0.074074    21.25   0.22863  -153.98
       4300   0.71033   162.06    3.8572    54.25  0.074801    21.21   0.22869  -155.48
       4400   0.71084   160.73    3.7677    53.10   0.07548    21.15   0.22823  -157.02
       4500   0.71092   159.70    3.6868    51.99  0.076235    21.16   0.22775  -158.38
       4600   0.71222   158.54    3.6058    50.89  0.076916    21.11   0.22724  -159.94
       4700   0.71254   157.47    3.5309    49.76    0.0776    21.06   0.22769  -161.55
       4800   0.71312   156.27    3.4542    48.69  0.078306    20.97   0.22832  -162.84
       4900   0.71343   155.16    3.3846    47.56  0.079033    20.92   0.22791  -164.29
       5000   0.71404   154.08     3.317    46.49  0.079804    20.85   0.22726  -165.78
       5200   0.71505   152.03    3.1849    44.39  0.081394    20.77   0.22914  -168.40
       5400   0.71661   149.88    3.0708    42.25  0.082913    20.56   0.22881  -171.11
       5600   0.71748   147.93     2.956    40.15  0.084463    20.35   0.23145  -173.61
       5800   0.71854   145.91    2.8547    38.10  0.086065    20.18   0.23173  -176.21
       6000   0.71961   144.01    2.7582    36.01  0.087705    19.96   0.23455  -178.74
       6200   0.72113   142.14    2.6697    34.01  0.089425    19.78   0.23592   178.90
       6400    0.7226   140.24    2.5837    31.99  0.091046    19.53   0.23853   176.39
       6600   0.72572   138.29    2.5071    29.95  0.093108    19.30   0.24141   174.19
       6800   0.72696   136.45    2.4343    27.95  0.094981    18.83   0.24418   171.68
       7000   0.72967   134.71    2.3624    25.95   0.09682    18.48   0.24797   169.24
       7200   0.73055   132.98    2.3012    24.03  0.098935    18.23   0.24918   167.03
       7400   0.73231   131.13    2.2376    21.96   0.10105    17.75    0.2543   164.99
       7600   0.73396   129.37    2.1786    19.93   0.10323    17.07   0.25673   162.55
       7800   0.73465   127.38    2.1177    18.05   0.10477    16.63   0.26179   160.10
       8000   0.73878   125.89    2.0706    16.13   0.10758    16.27   0.26473   158.20
       8200   0.74136   123.94    2.0162    14.14   0.10955    15.46   0.26994   155.73
       8400   0.74476   122.49    1.9752    12.34   0.11199    15.18   0.27231   154.08
       8600   0.74679   120.59    1.9239    10.32   0.11394    14.17   0.27983   151.44
       8800    0.7498   118.88    1.8812     8.29   0.11625    13.53   0.28348   149.09
       9000   0.75285   117.34    1.8412     6.43   0.11889    12.94   0.28764   147.53
       9200   0.75297   115.39     1.797     4.47   0.12121    11.96   0.29402   145.50
       9400    0.7562   113.91    1.7588     2.58   0.12345    11.17   0.29857   143.65
       9600   0.75916   112.07     1.715     0.61    0.1252    10.34   0.30439   140.93
       9800   0.76174   110.32    1.6786    -1.16   0.12735     9.59   0.30972   139.34
      10000   0.76258   108.89    1.6469    -2.86   0.12992     9.04   0.31329   137.18
      10200   0.76676   107.18    1.6124    -4.82    0.1321     7.99   0.32146   135.17
      10400   0.76861   105.66    1.5802    -6.72   0.13465     7.04   0.32498   133.64
      10600     0.767   104.05    1.5452    -8.50   0.13653     6.11    0.3335   131.15
      10800   0.76815   102.68    1.5167   -10.18   0.13909     5.25   0.33642   129.91
      11000   0.77188   101.30    1.4951   -11.83   0.14167     4.58   0.34327   127.60
      11200   0.78043    99.51    1.4668   -13.83   0.14406     3.42   0.35053   126.36
      11400   0.78309    97.89    1.4402   -15.56   0.14673     2.48   0.35499   124.09
      11600   0.78879    96.30    1.4139   -17.33   0.14875     1.50   0.36372   122.59
      11800    0.7915    95.01    1.3892   -19.03   0.15123     0.49   0.36832   120.47
      12000   0.79673    93.15     1.373   -20.97   0.15389    -0.60   0.37657   118.60
      12200   0.80006    91.26    1.3467   -22.90   0.15593    -1.64   0.38106   116.83
      12400   0.79901    89.43    1.3245   -24.65   0.15902    -2.59   0.38745   114.66
      12600   0.80274    87.74    1.2963   -26.49   0.16119    -3.79   0.39364   113.29
      12800   0.80826    86.54    1.2793   -28.11   0.16405    -4.90    0.4001   111.19
      13000   0.80722    84.61    1.2535   -30.02   0.16607    -6.30   0.40888   109.68
      13200   0.80991    83.78     1.235   -31.63   0.16876    -7.40   0.41468   107.68
      13400   0.80861    81.96    1.2152   -33.43   0.17062    -9.01   0.42406   106.09
      13600    0.8141    80.24    1.1965   -35.34   0.17213   -10.25     0.433   104.29
      13800   0.81476    78.66    1.1838   -37.09   0.17501   -11.55    0.4415   102.59
      14000   0.82183    76.89    1.1632   -38.92    0.1758   -13.03    0.4524   100.67
      14200   0.82365    75.55    1.1459   -40.83   0.17761   -13.94   0.45775    98.47
      14400   0.82618    73.43    1.1214   -42.69   0.17829   -15.14   0.46849    97.10
      14600   0.82816    72.14     1.105   -44.14   0.18099   -15.74   0.47257    94.98
      14800   0.82981    70.23    1.0862   -45.98   0.18319   -16.95   0.48286    93.73
      15000   0.83551    69.23    1.0701   -47.38   0.18627   -18.00   0.48865    91.68
      15200   0.83759    67.55    1.0603   -49.36   0.18959   -19.70   0.49775    90.60
      15400   0.84582    66.20    1.0409   -51.00   0.19036   -20.98   0.50574    88.67
      15600   0.84644    65.06    1.0306   -52.67   0.19403   -22.23   0.51475    87.08
      15800   0.85338    62.93    1.0164   -54.79   0.19456   -24.26    0.5245    85.51
      16000   0.85854    61.75    1.0003   -56.70   0.19545   -25.26   0.53196    83.34
      16200   0.86199    60.05   0.98452   -58.55   0.19702   -26.66   0.53827    81.65
      16400   0.86923    58.71   0.96741   -60.24   0.19765   -27.41   0.53953    79.56
      16600   0.86307    56.85   0.94484   -62.06   0.20065   -28.70   0.54492    78.76
      16800   0.86335    55.45   0.92926   -63.35   0.20152   -29.74   0.55221    76.92
      17000   0.86211    53.86   0.91942   -64.96   0.20397   -31.42   0.56449    76.05
      17200   0.86279    52.22   0.90712   -66.61   0.20488   -32.59   0.57457    73.74
      17400   0.86894    50.33   0.89436   -68.48   0.20538   -33.91   0.58234    72.36
      17600   0.86994    48.56    0.8798   -70.04   0.20758   -34.34    0.5936    70.00
      17800   0.86842    46.78    0.8663   -71.77   0.21034   -36.04   0.59743    68.42
      18000   0.87638    46.01   0.85285   -73.38   0.21314   -37.02   0.59898    66.61
      18200   0.88042    43.84   0.84215   -75.38   0.21585   -39.06   0.60465    65.16
      18400   0.88536    42.94   0.81898   -77.12   0.21337   -39.89   0.60644    63.67
      18600   0.87488    41.22   0.79953   -78.31   0.21458   -40.51   0.61346    62.74
      18800   0.88421    39.64   0.78897   -79.69   0.21783   -41.65   0.61817    61.43
      19000   0.88557    37.94    0.7798   -80.97   0.22241   -42.65   0.62482    60.25
      19200   0.88928    35.61   0.76877   -82.81   0.22598   -44.32   0.63223    58.39
      19400   0.88291    34.46   0.74946   -83.77     0.229   -45.20   0.62851    56.91
      19600   0.88484    33.18   0.74415   -84.91    0.2349   -47.77   0.62858    56.88
      19800   0.89159    32.79   0.73626   -86.40   0.23306   -49.61   0.64692    55.81
      20000   0.89262    30.61   0.73186   -88.33   0.23372   -51.59   0.65231    54.70

!  
! Device Noise Parameters
!  Freq-MHz   Fmin-dB  Gopt-mag  Gopt-arg   rn_normalized
	400	0.4577	0.16868	17.23	0.0628
	420	0.4574	0.16761	19.36	0.0628
	440	0.4572	0.16673	21.50	0.0627
	460	0.4569	0.16602	23.62	0.0627
	480	0.4567	0.16550	25.75	0.0627
	500	0.4565	0.16514	27.85	0.0627
	550	0.4561	0.16495	33.05	0.0626
	650	0.4554	0.16728	42.99	0.0623
	700	0.4552	0.16960	47.66	0.0621
	750	0.4551	0.17256	52.10	0.0619
	800	0.4550	0.17605	56.31	0.0617
	850	0.4551	0.17998	60.29	0.0615
	900	0.4553	0.18427	64.05	0.0613
	950	0.4555	0.18884	67.59	0.0610
	1000	0.4558	0.19364	70.94	0.0608
	1050	0.4562	0.19861	74.10	0.0605
	1100	0.4567	0.20369	77.09	0.0602
	1150	0.4573	0.20886	79.93	0.0598
	1200	0.4580	0.21407	82.63	0.0595
	1250	0.4587	0.21931	85.21	0.0591
	1300	0.4596	0.22454	87.68	0.0588
	1350	0.4605	0.22976	90.04	0.0584
	1400	0.4616	0.23494	92.31	0.0580
	1450	0.4627	0.24008	94.50	0.0576
	1500	0.4639	0.24516	96.61	0.0572
	1550	0.4651	0.25019	98.66	0.0568
	1600	0.4665	0.25515	100.66	0.0563
	1650	0.4680	0.26006	102.59	0.0559
	1700	0.4695	0.26489	104.48	0.0554
	1750	0.4712	0.26966	106.33	0.0550
	1800	0.4729	0.27437	108.14	0.0545
	1850	0.4747	0.27902	109.91	0.0540
	1900	0.4766	0.28361	111.65	0.0535
	1950	0.4786	0.28815	113.36	0.0530
	2000	0.4807	0.29263	115.04	0.0525
	2050	0.4828	0.29706	116.70	0.0520
	2100	0.4851	0.30146	118.34	0.0515
	2150	0.4874	0.30581	119.95	0.0510
	2200	0.4898	0.31013	121.54	0.0505
	2250	0.4923	0.31442	123.12	0.0500
	2300	0.4949	0.31869	124.68	0.0495
	2350	0.4976	0.32294	126.22	0.0489
	2400	0.5004	0.32717	127.74	0.0484
	2450	0.5032	0.33139	129.25	0.0479
	2500	0.5062	0.33560	130.75	0.0474
	2600	0.5123	0.34401	133.69	0.0463
	2700	0.5188	0.35243	136.58	0.0453
	2800	0.5257	0.36089	139.41	0.0442
	2900	0.5329	0.36940	142.18	0.0432
	3000	0.5405	0.37797	144.90	0.0422
	3100	0.5484	0.38660	147.55	0.0413
	3200	0.5566	0.39530	150.15	0.0403
	3300	0.5652	0.40405	152.69	0.0394
	3400	0.5742	0.41285	155.16	0.0386
	3500	0.5835	0.42168	157.57	0.0378
	3600	0.5931	0.43050	159.92	0.0370
	3700	0.6031	0.43930	162.20	0.0363
	3800	0.6135	0.44805	164.42	0.0356
	3900	0.6242	0.45669	166.58	0.0350
	4000	0.6352	0.46519	168.68	0.0345
	4100	0.6466	0.47351	170.72	0.0340
	4200	0.6584	0.48160	172.69	0.0336
	4300	0.6705	0.48941	174.61	0.0333
	4400	0.6829	0.49688	176.48	0.0331
	4500	0.6957	0.50397	178.29	0.0330
	4600	0.7089	0.51061	180.05	0.0329
	4700	0.7224	0.51674	181.76	0.0330
	4800	0.7362	0.52232	183.43	0.0332
	4900	0.7504	0.52727	185.05	0.0334
	5000	0.7650	0.53155	186.64	0.0338
	5200	0.7951	0.53781	189.70	0.0349
	5400	0.8267	0.54062	192.66	0.0366
	5600	0.8596	0.53949	195.53	0.0387
	5800	0.8940	0.53394	198.36	0.0415
	6000	0.9297	0.52350	201.20	0.0448