! Filename:  P:\Prog\Test\Noise\ATS_data\Testdata_Net\Split files Spar\BFU760F_2W_C1_Bias2_2.5V_5mA_30mA_D.s2p
! Date/Time: Mon 06/Feb/2012 15:08:00
! BFU760_2W_C1_Bias2_2.5V_5mA_30mA_R.s2p
! MDIF S-parameter v. bias file
! BFU760_2W_C1_2.5V_5mA_30mA
! Date/time Fri Mar 18 11:16:19 2011
! VAR V_out= 2.5000
! VAR I_out= 7.4950
! VAR V_in= 0.7650
! VAR I_in= 0.0201
! Device data file deembeded for feedlines and parallel
! Original file: \Split files Spar\BFU760_2W_C1_Bias2_2.5V_5mA_30mA_R.s2p
! Feed-files: PR003V01_101208_Feed1.s2p, PR003V01_101208_Feed2.s2p
! Parallel-file: PR003V01_101208_Par.s2p
# MHz S MA R 50
!  Freq-MHz   S11-mag  S11-arg   S21-mag  S21-arg   S12-mag  S12-arg   S22-mag  S22-arg
         40   0.92648    -6.20    23.375   176.12 0.0042861    79.84   0.98967    -3.76
         50   0.92673    -7.85    23.379   174.64 0.0049521    79.93   0.98833    -4.82
         60   0.92453    -9.19    23.073   173.89  0.006304    82.52   0.98837    -5.67
         70   0.92545   -10.71     23.13   173.23  0.007434    80.84   0.98692    -6.66
         80   0.92427   -12.33    23.258   172.16 0.0084834    80.54   0.98551    -7.60
         90    0.9225   -13.88    23.208   171.06 0.0095559    80.02   0.98397    -8.56
        100   0.92196   -15.34     23.06   170.19  0.010557    79.39   0.98228    -9.52
        120   0.92035   -18.46    22.978   168.27  0.012658    78.41   0.97779   -11.47
        140   0.91873   -21.48    22.883   166.42  0.014744    77.06    0.9729   -13.36
        160   0.91564   -24.44    22.596   164.43  0.016761    75.59   0.96673   -15.24
        180   0.91413   -27.49    22.532   162.71   0.01875    74.25   0.95954   -17.06
        200   0.91084   -30.42     22.32   160.88   0.02069    72.81   0.95301   -18.90
        220   0.90783   -33.43    22.212   159.07  0.022587    71.48   0.94431   -20.71
        240    0.9034   -36.40    22.095   157.23  0.024449    70.10   0.93706   -22.45
        260   0.90123   -39.09    21.733   155.57  0.026235    68.63   0.92796   -24.22
        280   0.89758   -42.00    21.574   153.88  0.028023    67.29   0.91923   -25.89
        300   0.89399   -44.66    21.242   152.23   0.02974    65.81   0.91094   -27.67
        320   0.89035   -47.42    21.058   150.69   0.03131    64.40   0.89871   -29.39
        340   0.88558   -50.11    20.813   148.97  0.032903    63.12    0.8878   -30.99
        360    0.8837   -52.75    20.584   147.59  0.034392    61.82   0.87579   -32.55
        380   0.87932   -55.55    20.435   146.03  0.035865    60.59   0.86478   -34.05
        400    0.8742   -58.19    20.252   144.42  0.037296    59.39   0.85364   -35.46
        420   0.86879   -60.75    19.999   142.89   0.03872    58.17   0.84444   -36.92
        440   0.86636   -63.03    19.652   141.60  0.040039    56.95   0.83351   -38.40
        460   0.86207   -65.63    19.488   140.13  0.041323    55.83   0.82261   -39.80
        480   0.85806   -67.75    19.099   138.81  0.042521    54.57   0.81296   -41.31
        500   0.85315   -70.18    18.898   137.41  0.043586    53.49   0.79892   -42.68
        550   0.84448   -75.84    18.315   134.18  0.046129    50.94   0.76838   -45.81
        600   0.83366   -81.16    17.675   131.11  0.048626    48.55   0.74344   -48.81
        650   0.82467   -85.97    16.992   128.30  0.050773    46.25   0.71712   -51.68
        700   0.81712   -90.61    16.375   125.70  0.052636    44.19   0.69096   -54.35
        750   0.80982   -95.22    15.839   123.12  0.054369    42.32   0.66672   -56.82
        800   0.80241   -99.37    15.266   120.75  0.055975    40.51   0.64511   -59.12
        850   0.79569  -103.15     14.67   118.54  0.057349    38.76   0.62349   -61.45
        900   0.78902  -106.93    14.181   116.38  0.058511    37.38   0.60117   -63.43
        950   0.78426  -110.46    13.709   114.40  0.059647    36.01   0.58179   -65.41
       1000   0.77839  -113.62     13.22   112.53  0.060679    34.63   0.56391   -67.42
       1050   0.77273  -116.82    12.779   110.69   0.06151    33.40    0.5454   -69.29
       1100   0.76902  -119.75    12.369   108.99  0.062352    32.31    0.5293   -70.95
       1150    0.7648  -122.59    11.976   107.31  0.063117    31.29   0.51383   -72.56
       1200   0.76066  -125.24    11.596   105.78  0.063859    30.26   0.49958   -74.18
       1250   0.75708  -127.80     11.22   104.25  0.064456    29.30   0.48553   -75.76
       1300   0.75437  -130.19    10.888   102.80  0.065014    28.46   0.47202   -77.15
       1350    0.7516  -132.42     10.57   101.42  0.065548    27.66   0.45988   -78.61
       1400   0.74868  -134.70    10.258   100.06   0.06602    26.86   0.44795   -80.06
       1450   0.74647  -136.81    9.9667    98.78   0.06642    26.15   0.43659   -81.36
       1500    0.7441  -138.74    9.6899    97.55  0.066818    25.50   0.42638   -82.62
       1550   0.74173  -140.60    9.4236    96.34  0.067242    24.87   0.41657   -83.79
       1600   0.73984  -142.41     9.169    95.20  0.067593    24.26   0.40744   -85.06
       1650   0.73812  -144.25    8.9221    94.05  0.067921    23.69   0.39816   -86.26
       1700     0.736  -145.91    8.7026    92.91  0.068246    23.18   0.38992   -87.35
       1750   0.73421  -147.52    8.4836    91.85  0.068582    22.67    0.3821   -88.55
       1800   0.73308  -149.16    8.2683    90.79  0.068821    22.15   0.37421   -89.64
       1850   0.73152  -150.70    8.0675    89.76  0.068989    21.70   0.36669   -90.77
       1900   0.73018  -152.15      7.88    88.74  0.069242    21.30   0.35985   -91.83
       1950   0.72796  -153.53    7.6926    87.78  0.069453    20.88    0.3537   -92.80
       2000   0.72708  -154.88    7.5097    86.85  0.069616    20.50   0.34697   -93.95
       2050   0.72656  -156.20    7.3393    85.97  0.069789    20.19   0.34035   -94.91
       2100    0.7259  -157.49    7.1793    85.03  0.070053    19.82    0.3353   -95.84
       2150   0.72478  -158.71    7.0247    84.16  0.070199    19.52   0.32985   -96.87
       2200   0.72404  -159.89    6.8768    83.32  0.070431    19.28   0.32467   -97.69
       2250   0.72281  -161.14      6.73    82.46  0.070674    18.96   0.32016   -98.71
       2300    0.7219  -162.27    6.5905    81.64  0.070795    18.59   0.31535   -99.67
       2350   0.72223  -163.32    6.4567    80.85  0.070872    18.32   0.31129  -100.67
       2400   0.72219  -164.35    6.3313    80.09  0.070981    18.20   0.30642  -101.62
       2450   0.72175  -165.43    6.2081    79.34  0.071172    18.01    0.3024  -102.52
       2500   0.72127  -166.63    6.0906    78.54  0.071343    17.79   0.29817  -103.52
       2600   0.72047  -168.54     5.875    77.06  0.071702    17.37   0.29072  -105.05
       2700    0.7202  -170.58    5.6666    75.54  0.071993    16.94   0.28319  -106.64
       2800   0.71902  -172.36    5.4739    74.07  0.072282    16.58   0.27723  -108.24
       2900    0.7188  -174.09    5.2889    72.71  0.072475    16.33    0.2714  -109.78
       3000   0.71794  -175.78    5.1242    71.34  0.072792    16.08   0.26735  -111.42
       3100   0.71906  -177.45    4.9684    69.92  0.072996    15.82   0.26303  -112.86
       3200   0.71852  -179.09    4.8189    68.56   0.07327    15.57   0.25823  -114.51
       3300   0.71954   179.38    4.6812    67.29   0.07348    15.25   0.25603  -116.15
       3400   0.71877   177.79    4.5483    65.93  0.073815    15.09   0.25279  -117.77
       3500   0.71854   176.30     4.424    64.59  0.073997    14.91   0.24959  -119.37
       3600   0.71933   174.74    4.3008    63.32   0.07421    14.81   0.24564  -120.91
       3700   0.71865   173.49    4.1879    62.08   0.07447    14.72   0.24273  -122.25
       3800   0.71942   171.91    4.0819    60.76  0.074685    14.63   0.23962  -124.15
       3900   0.71866   170.70    3.9795    59.57  0.075122    14.58   0.23731  -125.57
       4000   0.71972   169.19    3.8784    58.30  0.075317    14.45   0.23558  -127.17
       4100   0.71965   168.10    3.7873    57.17  0.075572    14.53   0.23334  -128.57
       4200   0.72034   166.64    3.6983    55.89  0.075951    14.43   0.23129  -130.11
       4300    0.7206   165.48    3.6156    54.71  0.076403    14.37    0.2304  -131.63
       4400   0.72094   164.11    3.5321    53.50  0.076724    14.29   0.22876  -133.20
       4500   0.72125   162.98    3.4569    52.34  0.077122    14.31   0.22755  -134.57
       4600   0.72213   161.75    3.3818    51.19   0.07746    14.27   0.22613  -136.09
       4700   0.72235   160.60     3.312    50.00   0.07784    14.27   0.22558  -137.74
       4800   0.72303   159.34    3.2404    48.88  0.078221    14.21   0.22534  -139.14
       4900   0.72343   158.17    3.1759    47.69  0.078604    14.19   0.22413  -140.58
       5000   0.72387   157.01    3.1126    46.59  0.079084    14.17   0.22252  -142.03
       5200   0.72484   154.82    2.9891    44.38  0.079962    14.22   0.22309  -144.91
       5400     0.726   152.58     2.883    42.16  0.080849    14.16   0.22133  -147.64
       5600   0.72698   150.53    2.7764    39.96  0.081794    14.13   0.22294  -150.49
       5800    0.7277   148.37    2.6812    37.82   0.08274    14.18   0.22196  -153.17
       6000    0.7289   146.39    2.5911    35.64  0.083799    14.17   0.22362  -156.09
       6200   0.73085   144.43     2.508    33.57  0.084941    14.26   0.22426  -158.63
       6400   0.73226   142.44     2.428    31.48  0.086014    14.29   0.22581  -161.42
       6600   0.73491   140.45    2.3554    29.35   0.08752    14.36   0.22816  -164.02
       6800   0.73645   138.52    2.2871    27.29  0.088928    14.18   0.23016  -166.84
       7000    0.7392   136.69    2.2197    25.21  0.090279    14.15   0.23276  -169.74
       7200   0.74008   134.91    2.1626    23.24  0.091929    14.25   0.23391  -172.11
       7400   0.74197   132.99    2.1029    21.09  0.093625    14.10   0.23847  -174.72
       7600   0.74365   131.18    2.0474    19.00  0.095457    13.74   0.24021  -177.39
       7800     0.744   129.18      1.99    17.07  0.096614    13.61    0.2443   179.65
       8000   0.74856   127.57    1.9454    15.09  0.099166    13.64   0.24744   177.42
       8200   0.75104   125.58    1.8944    13.06   0.10089    13.10   0.25171   174.48
       8400   0.75459   124.09    1.8558    11.19   0.10309    13.16   0.25438   172.56
       8600    0.7564   122.15    1.8075     9.10   0.10485    12.36   0.26109   169.31
       8800   0.75952   120.39    1.7672     7.04   0.10703    12.04   0.26392   166.66
       9000   0.76246   118.80    1.7295     5.10   0.10958    11.70   0.26883   164.75
       9200   0.76262   116.87    1.6883     3.12   0.11175    10.98   0.27492   162.25
       9400   0.76591   115.30    1.6517     1.16   0.11383    10.39   0.27975   160.06
       9600   0.76893   113.43    1.6118    -0.85   0.11556     9.83   0.28482   156.87
       9800   0.77161   111.67    1.5766    -2.71   0.11766     9.26   0.29043   154.92
      10000   0.77264   110.23    1.5463    -4.43   0.12012     8.98   0.29395   152.49
      10200   0.77662   108.47    1.5135    -6.44    0.1224     8.11   0.30195   149.98
      10400   0.77853   106.86    1.4829    -8.39   0.12492     7.35   0.30652   148.21
      10600   0.77724   105.25    1.4504   -10.21   0.12678     6.64   0.31399   145.23
      10800   0.77841   103.83    1.4222   -11.94   0.12936     5.96   0.31837   143.75
      11000   0.78268   102.42    1.4026   -13.61   0.13217     5.61   0.32445   141.15
      11200   0.79034   100.61    1.3756   -15.68   0.13475     4.46    0.3334   139.53
      11400   0.79338    98.96    1.3501   -17.44    0.1375     3.66   0.33794   137.00
      11600   0.79829    97.37    1.3252   -19.26   0.13969     2.82   0.34716   135.10
      11800   0.80166    95.98    1.3006   -21.01   0.14232     1.96   0.35212   132.73
      12000   0.80714    94.14    1.2859   -22.97   0.14526     0.97   0.36044   130.55
      12200   0.81019    92.22    1.2599   -24.96   0.14744    -0.04   0.36617   128.52
      12400   0.80923    90.41    1.2394   -26.72   0.15069    -0.87   0.37239   126.10
      12600   0.81254    88.68    1.2122   -28.60   0.15298    -2.01   0.37994   124.37
      12800   0.81819    87.45    1.1961   -30.27   0.15609    -3.04   0.38627   122.06
      13000   0.81717    85.51    1.1713   -32.18   0.15828    -4.35   0.39572   120.15
      13200   0.82145    84.61    1.1537   -33.83   0.16111    -5.40   0.40222   117.99
      13400   0.81907    82.80    1.1351   -35.64   0.16335    -6.92   0.41176   116.01
      13600   0.82477    81.04    1.1171   -37.60   0.16517    -8.12   0.42145   113.94
      13800   0.82538    79.46    1.1044   -39.35   0.16834    -9.35   0.43039   111.99
      14000   0.83233    77.65    1.0848   -41.23   0.16947   -10.82   0.44168   109.73
      14200   0.83459    76.31    1.0673   -43.17   0.17156   -11.71   0.44756   107.41
      14400   0.83673    74.14    1.0449   -45.05   0.17257   -12.91   0.45934   105.64
      14600   0.83835    72.82    1.0283   -46.53   0.17545   -13.48   0.46348   103.42
      14800   0.84005    70.95    1.0103   -48.38   0.17795   -14.69   0.47511   101.87
      15000   0.84602    69.87   0.99403   -49.80   0.18121   -15.72   0.48095    99.67
      15200   0.84828    68.17    0.9842   -51.76   0.18475   -17.42   0.49185    98.36
      15400   0.85641    66.74   0.96613   -53.44   0.18584   -18.67   0.49994    96.24
      15600   0.85698    65.57   0.95529   -55.11   0.18973   -19.95   0.51046    94.46
      15800   0.86403    63.50   0.94223   -57.23   0.19064   -21.97   0.52071    92.68
      16000    0.8686    62.26    0.9265   -59.13   0.19178   -23.01   0.52896    90.35
      16200   0.87177    60.54   0.91121   -61.05   0.19372   -24.42    0.5361    88.48
      16400   0.87843    59.15   0.89449   -62.71   0.19451   -25.23   0.53808    86.31
      16600   0.87301    57.28   0.87367   -64.55   0.19761   -26.54   0.54521    85.23
      16800    0.8732    55.89   0.85805   -65.82   0.19879   -27.57   0.55248    83.27
      17000   0.87235    54.29   0.84855   -67.47    0.2015   -29.29   0.56606    82.14
      17200   0.87262    52.60   0.83637   -69.11   0.20264   -30.47   0.57597    79.71
      17400   0.87858    50.74   0.82344   -70.97   0.20341   -31.83   0.58473    78.16
      17600   0.87978    48.98   0.80959   -72.54   0.20579   -32.29   0.59568    75.67
      17800   0.87818    47.17   0.79617   -74.24   0.20877   -33.99   0.60073    73.97
      18000   0.88572    46.33   0.78353   -75.81    0.2119   -35.03   0.60314    72.05
      18200   0.88939    44.18   0.77309   -77.75   0.21474   -37.09    0.6101    70.46
      18400   0.89382    43.17   0.75134   -79.51   0.21257   -37.98    0.6124    68.86
      18600   0.88361    41.47   0.73251   -80.69   0.21385   -38.67   0.62067    67.74
      18800   0.89277    39.85   0.72193   -81.99   0.21735   -39.85   0.62597    66.30
      19000   0.89404    38.19   0.71254   -83.27   0.22182   -40.92   0.63363    64.98
      19200   0.89781    35.86   0.70203   -85.04   0.22559   -42.62   0.64177    63.01
      19400    0.8909    34.69   0.68373   -85.96   0.22845   -43.55   0.63852    61.42
      19600   0.89337    33.38   0.67888   -86.98   0.23441   -46.07   0.63987    61.24
      19800    0.8999    32.86   0.67161   -88.52   0.23295   -47.97   0.65823    59.95
      20000   0.90118    30.70   0.66722   -90.42   0.23368   -49.98   0.66452    58.82

