(module SOT-343F (layer F.Cu) (tedit 5ACB7390)
  (fp_text reference REF** (at 0 1.7) (layer F.SilkS)
    (effects (font (size 1 1) (thickness 0.15)))
  )
  (fp_text value SOT-343F (at 0 -1.8) (layer F.Fab)
    (effects (font (size 1 1) (thickness 0.15)))
  )
  (fp_line (start 0.5 -1.1) (end -0.5 -1.1) (layer F.SilkS) (width 0.15))
  (fp_line (start -0.5 -1.1) (end -0.5 1.1) (layer F.SilkS) (width 0.15))
  (fp_line (start -0.5 1.1) (end 0.5 1.1) (layer F.SilkS) (width 0.15))
  (fp_line (start 0.5 1.1) (end 0.5 -1.1) (layer F.SilkS) (width 0.15))
  (pad 1 smd rect (at -0.75 0.5) (size 0.5 0.7) (layers F.Cu F.Paste F.Mask))
  (pad 2 smd rect (at -0.75 -0.65) (size 0.5 0.5) (layers F.Cu F.Paste F.Mask))
  (pad 3 smd rect (at 0.75 -0.65) (size 0.5 0.5) (layers F.Cu F.Paste F.Mask))
  (pad 4 smd rect (at 0.75 0.65) (size 0.5 0.5) (layers F.Cu F.Paste F.Mask))
)
