! Philips part #: BF1211
! Bias: VDS=5.000V; ID=15.13mA; VG1S-start=0V; VG2S=4V;
! Company: Philips Semiconductors NL
! User: Q&R DSC-N
! Measure time:  4 Nov 2002 / 13:58:54
#  MHz  S  MA  R 50
! Freq       S11             S21             S12             S22    :
   50  0.98722 -3.857  2.93326 175.78 4.80E-04 90.751  0.99336 -1.574
  100  0.98529 -7.713  2.92575 171.61 9.49E-04 86.322  0.99304 -3.141
  200  0.97934 -15.23  2.90227 163.24 0.001482 91.514  0.99295 -6.306
  300  0.96575 -22.81  2.85047 155.04 0.002789 77.253  0.98832 -9.405
  400  0.94951 -30.11  2.78898 146.72 0.003359 73.870  0.98497 -12.47
  500  0.92926 -37.19  2.70802 138.88 0.003729 71.419  0.98055 -15.54
  600  0.90463 -44.17  2.64364 130.97 0.003937 69.607  0.97598 -18.58
  700  0.87653 -51.10  2.56205 123.01 0.003908 69.124  0.97060 -21.63
  800  0.84662 -58.08  2.48980 115.16 0.003690 69.989  0.96533 -24.71
  900  0.81662 -65.07  2.40495 107.21 0.003121 74.753  0.95952 -27.78
 1000  0.79104 -72.12  2.31826 99.995 0.002757 87.522  0.95540 -30.93
# MHz dB Ratio deg ohm
! Freq. Fmin Gopt Gopt Rn
400 0.9 0.693 16.75 29.85
800 1.3 0.707 37.33 29.90