! Filename:       BFR106CC.S2P                              Version:   2.0
! Philips part #: BFR106                                     Date: Jul 1990
! Bias condition: Vce=5V, Ic=50mA
! COMMON BASE
#  MHz  S  MA  R  50
! Freq       S11            S21            S12            S22   
   40    .965  179.5   1.945   -1.6    .001   66.1   1.000   -1.9
  100    .964  178.2   1.944   -4.2    .003  106.5   1.002   -5.0
  200    .970  176.9   1.942   -8.3    .007  118.1   1.002   -9.9
  300    .976  175.4   1.941  -12.4    .014  131.5   1.014  -15.0
  400    .984  173.7   1.946  -16.6    .023  135.8   1.022  -20.1
  500    .997  172.0   1.947  -20.9    .035  138.7   1.037  -25.5
  600   1.011  170.2   1.956  -25.4    .049  138.9   1.051  -30.6
  700   1.029  168.2   1.946  -29.8    .067  139.0   1.067  -35.9
  800   1.054  166.3   1.945  -34.6    .086  138.9   1.085  -41.5
  900   1.077  164.1   1.937  -39.8    .110  136.5   1.108  -47.2
 1000   1.105  161.6   1.931  -45.1    .136  134.0   1.132  -52.9
 1200   1.163  156.2   1.915  -56.5    .198  128.5   1.177  -65.3
 1400   1.218  149.7   1.867  -69.5    .269  120.9   1.226  -78.4
 1600   1.267  142.4   1.789  -83.1    .350  113.1   1.250  -92.0
 1800   1.295  134.0   1.671  -98.3    .429  103.7   1.256 -106.6
 2000   1.309  126.5   1.512 -113.8    .499   94.5   1.225 -121.0
