! Filename:       BFR106E.S2P                                Version:   2.0
! Philips part #: BFR106                                     Date: Jun 1990
! Bias condition: Vce=10V, Ic=15mA
! 
#  MHz  S  MA  R  50
! Freq       S11            S21            S12            S22     !GUM [dB]
   40    .610  -55.4  29.728  147.5    .020   67.8    .838  -27.6 !    36.7
  100    .534 -108.4  19.206  119.9    .033   54.9    .557  -47.3 !    28.7
  200    .522 -143.2  11.005  103.1    .046   54.8    .345  -55.6 !    22.8
  300    .508 -156.7   7.618   94.5    .056   56.7    .267  -57.4 !    19.3
  400    .509 -164.6   5.828   89.5    .068   61.2    .231  -57.6 !    16.9
  500    .505 -170.5   4.713   84.1    .081   63.7    .211  -58.2 !    14.9
  600    .503 -174.3   3.996   80.5    .094   65.8    .205  -59.5 !    13.5
  700    .501 -178.9   3.435   77.3    .106   66.7    .203  -60.6 !    12.2
  800    .503  176.5   3.048   73.7    .120   67.1    .200  -61.6 !    11.1
  900    .502  173.6   2.737   70.6    .134   68.5    .202  -62.7 !    10.2
 1000    .518  172.1   2.472   67.6    .148   68.3    .201  -64.0 !     9.4
 1200    .518  165.6   2.111   62.2    .174   68.4    .199  -68.3 !     8.0
 1400    .526  161.7   1.840   57.3    .200   67.7    .203  -73.8 !     6.9
 1600    .534  158.3   1.665   51.9    .228   67.8    .208  -77.8 !     6.1
 1800    .527  152.9   1.513   48.9    .255   66.7    .212  -83.1 !     5.2
 2000    .555  146.0   1.381   44.4    .283   65.8    .209  -88.1 !     4.6
