! Filename:       BFS17B.S2P                                 Version:   2.0
! Philips part #: BFS17                                      Date: Jun 1990
! Bias condition: Vce=5V, Ic=5mA
! 
#  MHz  S  MA  R  50
! Freq       S11            S21            S12            S22     !GUM [dB]
   40    .798  -26.8  13.497  159.9    .014   73.5    .961   -7.9 !    38.2
  100    .695  -60.7  11.137  138.1    .031   61.7    .857  -15.4 !    29.6
  200    .565  -96.0   7.424  115.6    .044   53.8    .726  -18.8 !    22.3
  300    .487 -118.1   5.526  102.3    .054   52.6    .666  -19.4 !    18.6
  400    .462 -133.9   4.266   93.6    .061   55.1    .639  -19.6 !    15.9
  500    .439 -142.6   3.473   88.2    .069   56.5    .626  -20.7 !    13.9
  600    .455 -149.1   2.959   83.1    .078   57.6    .619  -21.5 !    12.5
  700    .445 -156.0   2.561   77.6    .085   58.2    .619  -23.1 !    11.2
  800    .450 -163.0   2.272   73.2    .093   61.2    .621  -24.4 !    10.2
  900    .446 -166.6   2.035   69.9    .099   61.8    .623  -25.8 !     9.3
 1000    .443 -172.1   1.828   65.1    .106   63.4    .624  -27.5 !     8.3
 1200    .473  179.4   1.557   58.7    .119   65.7    .629  -31.1 !     7.1
 1400    .475  173.5   1.353   53.0    .133   67.9    .631  -35.6 !     5.9
 1600    .484  167.8   1.207   47.7    .147   71.7    .643  -39.8 !     5.1
 1800    .507  159.0   1.069   43.0    .165   75.0    .645  -44.4 !     4.2
 2000    .509  150.0    .989   39.5    .188   76.9    .643  -49.0 !     3.5
