! Filename:       BFS17CBH.S2P                               Version:   2.0
! Philips part #: BFS17                                      Date: Jul 1990
! Bias condition: Vce=10V, Ic=10mA
! COMMON BASE
#  MHz  S  MA  R  50
! Freq       S11            S21            S12            S22   
   40    .855  178.6   1.831   -2.2    .001   81.0   1.002    -.9
  100    .852  177.0   1.832   -4.9    .003   87.6   1.005   -2.0
  200    .853  174.0   1.833   -9.8    .005  111.8   1.005   -4.3
  300    .851  171.1   1.837  -14.9    .010  121.6   1.010   -6.5
  400    .855  168.2   1.847  -20.2    .015  126.8   1.020   -8.9
  500    .857  165.3   1.864  -25.4    .021  131.0   1.032  -11.2
  600    .862  162.5   1.881  -31.0    .029  134.1   1.046  -13.6
  700    .869  159.7   1.894  -36.8    .038  135.4   1.062  -16.3
  800    .879  156.9   1.904  -43.0    .049  135.8   1.079  -19.2
  900    .891  154.0   1.917  -49.6    .061  135.7   1.099  -22.3
 1000    .903  151.0   1.931  -56.4    .074  135.4   1.121  -25.6
 1200    .931  144.9   1.924  -71.1    .106  133.2   1.157  -33.2
 1400    .953  137.7   1.905  -87.3    .145  129.0   1.184  -41.9
 1600    .971  129.9   1.809 -105.0    .190  124.4   1.184  -51.3
 1800    .975  121.8   1.692 -122.7    .237  118.0   1.150  -61.5
 2000    .967  114.0   1.548 -140.6    .284  111.3   1.091  -71.9
