! Filename:       BFS17CBA.S2P                               Version:   2.0
! Philips part #: BFS17                                      Date: Jul 1990
! Bias condition: Vce=5V, Ic=2mA
! COMMON BASE
#  MHz  S  MA  R  50
! Freq       S11            S21            S12            S22
   40    .559  178.7   1.538   -2.6    .002   89.8   1.002   -1.1
  100    .559  177.5   1.535   -6.0    .005   92.8   1.005   -2.4
  200    .561  174.9   1.530  -11.9    .010   96.8   1.005   -4.9
  300    .560  172.5   1.524  -18.0    .015  100.8   1.010   -7.6
  400    .565  170.1   1.517  -24.3    .021  105.5   1.018  -10.3
  500    .570  167.6   1.511  -30.4    .027  108.7   1.029  -13.1
  600    .575  165.2   1.504  -36.8    .034  111.8   1.040  -15.9
  700    .582  162.6   1.488  -43.4    .042  113.8   1.053  -19.0
  800    .592  159.8   1.467  -50.3    .052  116.0   1.065  -22.2
  900    .601  157.3   1.447  -57.5    .062  117.4   1.078  -25.7
 1000    .612  154.6   1.428  -64.7    .073  118.2   1.091  -29.3
 1200    .636  149.3   1.362  -79.8    .100  119.0   1.108  -37.2
 1400    .654  143.2   1.294  -95.9    .131  117.6   1.115  -45.7
 1600    .672  136.7   1.191 -113.2    .167  115.8   1.101  -54.5
 1800    .685  130.0   1.095 -130.2    .208  112.1   1.065  -63.8
 2000    .695  123.4   1.002 -147.9    .250  107.7   1.015  -73.5
