! Filename:       BFS17ACJ.S2P                              Version:   2.0
! Philips part #: BFS17A                                     Date: Jul 1990
! Bias condition: Vce=10V, Ic=20mA
! COMMON BASE
#  MHz  S  MA  R  50
! Freq       S11            S21            S12            S22   
   40    .908  178.8   1.890   -1.7    .001   72.5   1.004    -.8
  100    .909  177.2   1.889   -3.8    .002   98.2   1.007   -1.5
  200    .908  174.4   1.887   -7.7    .005  116.1   1.006   -3.5
  300    .912  171.7   1.887  -11.6    .008  125.1   1.007   -5.3
  400    .920  169.1   1.894  -15.5    .013  134.4   1.016   -7.0
  500    .928  166.4   1.904  -19.6    .018  137.0   1.026   -8.9
  600    .939  163.7   1.921  -23.6    .025  139.9   1.035  -10.8
  700    .952  160.9   1.932  -27.8    .034  141.2   1.048  -12.7
  800    .968  158.1   1.944  -32.3    .043  142.5   1.064  -14.8
  900    .987  155.3   1.956  -36.9    .054  142.8   1.081  -17.2
 1000   1.008  152.4   1.979  -41.7    .067  142.7   1.098  -19.6
 1200   1.057  146.3   2.011  -51.7    .098  141.0   1.140  -24.9
 1400   1.105  139.4   2.057  -62.9    .136  137.8   1.182  -31.1
 1600   1.160  131.5   2.063  -76.0    .184  133.6   1.218  -38.3
 1800   1.218  122.9   2.063  -89.5    .238  127.2   1.241  -46.7
 2000   1.264  114.1   2.032 -104.5    .297  120.0   1.241  -56.5
