! Filename:       BFS17F.S2P                                 Version:   2.0
! Philips part #: BFS17                                      Date: Jun 1990
! Bias condition: Vce=10V, Ic=2mA
! 
#  MHz  S  MA  R  50
! Freq       S11            S21            S12            S22     !GUM [dB]
   40    .925  -14.5   6.252  168.5    .015   79.0    .989   -4.1 !    41.0
  100    .871  -33.8   5.939  154.3    .033   71.7    .956   -9.1 !    32.3
  200    .778  -60.5   4.869  134.1    .057   59.6    .875  -15.2 !    24.1
  300    .665  -82.8   4.069  118.8    .072   53.4    .815  -18.3 !    19.5
  400    .590  -99.3   3.342  107.5    .081   49.4    .770  -20.2 !    16.2
  500    .535 -111.1   2.810  100.1    .087   48.4    .743  -21.8 !    13.9
  600    .528 -121.6   2.463   94.0    .094   48.1    .727  -23.1 !    12.5
  700    .494 -131.7   2.168   87.0    .099   48.1    .718  -24.6 !    11.1
  800    .482 -138.4   1.952   81.5    .103   49.3    .712  -25.6 !    10.0
  900    .464 -145.4   1.756   77.7    .107   50.5    .708  -27.0 !     9.0
 1000    .450 -151.6   1.594   72.0    .113   51.8    .704  -28.4 !     8.0
 1200    .463 -162.7   1.379   64.6    .120   54.6    .702  -31.7 !     6.8
 1400    .461 -171.5   1.217   58.7    .128   57.9    .700  -35.5 !     5.7
 1600    .455  179.7   1.076   52.4    .137   62.1    .705  -39.2 !     4.6
 1800    .476  171.3    .970   47.4    .148   66.7    .707  -43.2 !     3.9
 2000    .475  162.4    .918   42.6    .165   70.5    .702  -47.3 !     3.3
