! Filename:       BFS17G.S2P                                 Version:   2.0
! Philips part #: BFS17                                      Date: Jun 1990
! Bias condition: Vce=10V, Ic=5mA
! 
#  MHz  S  MA  R  50
! Freq       S11            S21            S12            S22     !GUM [dB]
   40    .830  -23.6  13.091  161.3    .013   74.3    .970   -7.1 !    39.8
  100    .723  -54.3  11.097  140.6    .028   64.3    .881  -13.9 !    30.6
  200    .589  -87.3   7.650  118.1    .043   55.6    .754  -17.7 !    23.2
  300    .491 -110.2   5.743  104.7    .053   54.7    .688  -18.4 !    19.2
  400    .446 -124.8   4.457   95.9    .061   56.2    .664  -18.8 !    16.5
  500    .423 -134.7   3.632   90.1    .069   58.0    .649  -19.8 !    14.4
  600    .435 -142.5   3.101   85.1    .077   57.9    .642  -20.5 !    13.0
  700    .434 -150.7   2.686   79.4    .083   58.6    .640  -21.8 !    11.8
  800    .428 -156.1   2.382   75.1    .090   60.2    .642  -22.9 !    10.7
  900    .422 -161.1   2.142   71.8    .095   61.4    .642  -24.2 !     9.8
 1000    .412 -167.0   1.926   67.2    .104   62.6    .644  -25.6 !     8.8
 1200    .446 -174.5   1.635   60.5    .115   65.4    .647  -29.0 !     7.6
 1400    .448  178.8   1.424   55.1    .127   67.7    .649  -32.8 !     6.4
 1600    .461  170.2   1.263   49.5    .140   70.7    .660  -36.7 !     5.5
 1800    .487  163.6   1.112   44.6    .155   74.1    .666  -40.9 !     4.6
 2000    .495  153.8   1.051   40.8    .175   76.5    .662  -44.9 !     4.2
