! Filename:       BFS17D.S2P                                 Version:   2.0
! Philips part #: BFS17                                      Date: Jun 1990
! Bias condition: Vce=5V, Ic=15mA
! 
#  MHz  S  MA  R  50
! Freq       S11            S21            S12            S22     !GUM [dB]
   40    .567  -50.5  24.342  147.0    .012   68.0    .892  -13.0 !    36.3
  100    .477  -98.6  16.021  121.0    .022   58.1    .721  -18.0 !    28.4
  200    .428 -130.1   9.088  102.1    .032   60.9    .614  -16.6 !    22.1
  300    .428 -146.7   6.333   92.1    .041   62.1    .582  -15.7 !    18.7
  400    .431 -155.9   4.775   85.3    .051   65.7    .575  -15.8 !    16.2
  500    .431 -161.2   3.817   80.8    .060   66.5    .572  -16.8 !    14.2
  600    .461 -164.6   3.209   76.8    .068   67.1    .576  -18.0 !    12.9
  700    .459 -169.2   2.752   72.0    .075   68.1    .581  -19.8 !    11.6
  800    .464 -173.8   2.432   68.0    .083   69.6    .586  -21.4 !    10.6
  900    .473 -178.2   2.170   65.3    .091   70.4    .592  -23.1 !     9.7
 1000    .484  178.3   1.931   61.2    .099   71.7    .598  -24.9 !     8.8
 1200    .510  171.3   1.634   55.3    .113   75.2    .606  -29.2 !     7.6
 1400    .523  165.9   1.398   50.1    .130   77.7    .611  -34.0 !     6.3
 1600    .521  157.7   1.238   45.8    .148   80.9    .622  -38.6 !     5.4
 1800    .549  151.5   1.100   41.7    .172   82.8    .628  -43.5 !     4.6
 2000    .554  144.7   1.013   37.3    .198   83.6    .623  -48.4 !     3.8
