! Filename:       BFS17ACE.S2P                              Version:   2.0
! Philips part #: BFS17A                                     Date: Jul 1990
! Bias condition: Vce=5V, Ic=20mA
! COMMON BASE
#  MHz  S  MA  R  50
! Freq       S11            S21            S12            S22   
   40    .916  178.8   1.892   -1.8    .001   92.9   1.004    -.9
  100    .917  177.2   1.890   -3.9    .002   98.3   1.006   -1.7
  200    .917  174.6   1.889   -8.0    .005  118.4   1.006   -3.9
  300    .921  171.9   1.889  -12.1    .008  127.3   1.007   -5.9
  400    .928  169.4   1.897  -16.2    .014  132.9   1.017   -7.9
  500    .938  166.6   1.906  -20.4    .020  135.7   1.027  -10.0
  600    .949  164.0   1.922  -24.7    .027  139.1   1.037  -12.1
  700    .965  161.2   1.932  -29.0    .036  140.6   1.050  -14.3
  800    .982  158.4   1.944  -33.9    .047  141.4   1.066  -16.7
  900   1.002  155.5   1.955  -38.7    .059  141.4   1.083  -19.3
 1000   1.025  152.6   1.975  -43.7    .073  141.5   1.100  -22.0
 1200   1.074  146.3   1.999  -54.3    .107  139.4   1.141  -28.0
 1400   1.126  139.1   2.035  -66.3    .148  135.3   1.180  -34.8
 1600   1.177  130.9   2.024  -80.2    .198  130.6   1.209  -42.8
 1800   1.229  122.0   2.003  -94.4    .255  123.7   1.221  -51.9
 2000   1.263  113.0   1.945 -110.0    .315  116.1   1.207  -62.3
