! Filename:       BFS17CBE.S2P                               Version:   2.0
! Philips part #: BFS17                                      Date: Jul 1990
! Bias condition: Vce=5V, Ic=20mA
! COMMON BASE
#  MHz  S  MA  R  50
! Freq       S11            S21            S12            S22   
   40    .907  178.6   1.878   -2.4    .001   81.1   1.001   -1.1
  100    .906  177.0   1.878   -5.3    .002   93.6   1.005   -2.3
  200    .906  174.2   1.882  -10.6    .005  115.4   1.006   -4.9
  300    .906  171.3   1.891  -16.2    .010  125.1   1.012   -7.4
  400    .909  168.6   1.906  -22.1    .015  130.3   1.023  -10.1
  500    .914  165.8   1.927  -28.0    .022  134.3   1.036  -12.8
  600    .922  163.1   1.947  -34.3    .031  136.6   1.052  -15.7
  700    .933  160.3   1.960  -40.9    .041  138.2   1.070  -18.8
  800    .948  157.4   1.966  -48.2    .053  138.3   1.088  -22.2
  900    .965  154.3   1.972  -55.7    .067  137.9   1.108  -25.9
 1000    .982  151.1   1.977  -63.6    .083  137.2   1.128  -29.9
 1200   1.015  144.2   1.933  -80.4    .121  133.7   1.155  -38.8
 1400   1.033  135.9   1.863  -98.6    .166  127.8   1.163  -48.7
 1600   1.038  127.3   1.711 -117.7    .214  121.6   1.136  -58.9
 1800   1.023  119.1   1.552 -136.2    .263  113.9   1.080  -69.3
 2000    .995  111.4   1.388 -154.5    .309  106.7   1.004  -79.6
