! Filename:       BFS17C.S2P                                 Version:   2.0
! Philips part #: BFS17                                      Date: Jun 1990
! Bias condition: Vce=5V, Ic=10mA
! 
#  MHz  S  MA  R  50
! Freq       S11            S21            S12            S22     !GUM [dB]
   40    .669  -39.9  20.383  152.1    .013   73.9    .925  -11.3 !    37.2
  100    .552  -83.0  14.632  126.8    .025   59.3    .769  -17.8 !    28.8
  200    .469 -118.2   8.710  106.1    .036   57.7    .645  -17.8 !    22.2
  300    .433 -137.6   6.166   95.2    .046   60.7    .605  -17.2 !    18.7
  400    .432 -147.6   4.684   87.8    .054   61.5    .591  -17.2 !    16.2
  500    .428 -154.9   3.765   83.0    .062   63.0    .585  -18.2 !    14.2
  600    .446 -160.1   3.167   78.7    .072   65.5    .586  -19.2 !    12.8
  700    .445 -165.6   2.729   73.7    .078   64.9    .589  -20.8 !    11.5
  800    .449 -170.8   2.416   69.7    .086   66.7    .594  -22.2 !    10.5
  900    .459 -175.2   2.144   66.6    .095   67.6    .599  -23.8 !     9.6
 1000    .462 -178.9   1.926   62.5    .102   68.9    .602  -25.6 !     8.7
 1200    .491  173.9   1.628   56.2    .115   71.7    .610  -29.6 !     7.4
 1400    .497  169.6   1.397   51.1    .131   74.6    .615  -34.3 !     6.2
 1600    .506  162.3   1.243   46.3    .147   77.3    .628  -38.7 !     5.4
 1800    .529  154.5   1.102   41.6    .169   80.2    .632  -43.5 !     4.5
 2000    .546  146.8   1.026   38.7    .195   81.1    .630  -48.2 !     4.0
