! Filename:       BFS17AD.S2P                                Version:   2.0
! Philips part #: BFS17A                                     Date: May 1990
! Bias condition: Vce=5V, Ic=15mA
!
#  MHz  S  MA  R  50
! Freq       S11            S21            S12            S22     !GUM [dB]
   40    .496  -37.6  26.019  153.3    .009   76.8    .929  -10.9 !    38.1
  100    .404  -78.8  18.591  128.4    .018   66.2    .777  -17.7 !    30.2
  200    .335 -116.9  11.439  109.2    .028   66.0    .651  -18.0 !    24.1
  300    .314 -136.4   8.062   99.5    .037   68.7    .605  -17.1 !    20.6
  400    .307 -148.4   6.191   93.2    .046   71.0    .585  -16.8 !    18.1
  500    .304 -156.1   5.023   88.4    .055   73.0    .576  -17.3 !    16.2
  600    .303 -162.1   4.232   84.5    .065   74.1    .573  -18.0 !    14.7
  700    .301 -167.2   3.657   81.0    .074   75.3    .572  -19.0 !    13.4
  800    .299 -171.9   3.228   77.7    .083   75.7    .573  -20.1 !    12.3
  900    .298 -176.8   2.889   74.6    .092   76.1    .573  -21.3 !    11.3
 1000    .300  179.4   2.614   71.8    .102   76.6    .573  -22.5 !    10.5
 1200    .312  172.0   2.218   66.6    .120   77.1    .573  -25.1 !     9.1
 1400    .326  166.8   1.948   61.9    .139   77.6    .573  -28.1 !     8.0
 1600    .326  161.6   1.739   57.4    .157   77.7    .576  -31.0 !     7.0
 1800    .328  155.4   1.568   53.5    .176   77.9    .575  -33.9 !     6.1
 2000    .344  147.8   1.440   49.5    .197   77.6    .568  -36.8 !     5.4
