! Filename:       BFS17CBJ.S2P                               Version:   2.0
! Philips part #: BFS17                                      Date: Jul 1990
! Bias condition: Vce=10V, Ic=20mA
! COMMON BASE
#  MHz  S  MA  R  50
! Freq       S11            S21            S12            S22
   40    .899  178.5   1.874   -2.2    .001   65.8   1.001    -.9
  100    .897  176.9   1.875   -4.9    .002   91.3   1.005   -2.1
  200    .895  173.9   1.877   -9.9    .005  112.6   1.005   -4.3
  300    .893  170.9   1.883  -15.1    .009  123.2   1.011   -6.6
  400    .895  168.3   1.896  -20.4    .015  129.6   1.021   -9.0
  500    .898  165.4   1.914  -25.8    .021  133.1   1.033  -11.4
  600    .903  162.7   1.932  -31.6    .029  135.7   1.048  -13.9
  700    .911  160.0   1.947  -37.5    .038  137.1   1.065  -16.6
  800    .924  157.3   1.957  -43.9    .049  137.6   1.082  -19.6
  900    .937  154.5   1.971  -50.7    .062  137.9   1.102  -22.8
 1000    .953  151.5   1.986  -57.6    .075  137.5   1.124  -26.3
 1200    .987  145.1   1.975  -72.7    .109  135.2   1.159  -34.1
 1400   1.016  137.5   1.951  -89.2    .151  130.3   1.183  -43.1
 1600   1.037  129.2   1.847 -107.3    .198  125.1   1.177  -52.8
 1800   1.039  120.6   1.724 -125.2    .248  117.8   1.138  -63.1
 2000   1.023  112.6   1.573 -143.4    .295  110.6   1.074  -73.6
