! Filename:       BFS17ACB.S2P                              Version:   2.0
! Philips part #: BFS17A                                     Date: Jul 1990
! Bias condition: Vce=5V, Ic=5mA
! COMMON BASE
#  MHz  S  MA  R  50
! Freq       S11            S21            S12            S22   
   40    .786  178.9   1.760   -1.8    .001   78.6   1.004    -.9
  100    .786  177.2   1.758   -4.0    .003   95.0   1.007   -1.7
  200    .787  174.6   1.756   -8.2    .006  110.0   1.005   -3.9
  300    .791  172.0   1.753  -12.3    .010  115.4   1.007   -5.9
  400    .798  169.4   1.755  -16.4    .015  121.3   1.016   -7.9
  500    .806  166.6   1.760  -20.7    .021  125.3   1.025  -10.0
  600    .817  163.9   1.768  -24.9    .028  128.7   1.034  -12.1
  700    .831  161.1   1.771  -29.3    .036  131.3   1.045  -14.3
  800    .845  158.2   1.774  -34.0    .046  132.9   1.060  -16.6
  900    .862  155.3   1.777  -38.8    .057  134.1   1.076  -19.2
 1000    .883  152.4   1.786  -43.7    .069  134.5   1.090  -21.8
 1200    .924  146.2   1.792  -53.9    .100  134.0   1.126  -27.6
 1400    .967  139.2   1.805  -65.3    .137  131.2   1.161  -34.1
 1600   1.008  131.4   1.780  -78.4    .182  127.6   1.187  -41.5
 1800   1.051  123.0   1.750  -91.7    .233  122.1   1.198  -49.9
 2000   1.086  114.6   1.695 -106.4    .287  115.7   1.189  -59.6
