! Filename:       BFS17A.S2P                                 Version:   2.0
! Philips part #: BFS17                                      Date: Jun 1990
! Bias condition: Vce=5V, Ic=2mA
! 
#  MHz  S  MA  R  50
! Freq       S11            S21            S12            S22     !GUM [dB]
   40    .914  -15.3   6.375  167.9    .016   78.2    .987   -4.4 !    39.8
  100    .861  -36.3   5.939  153.0    .036   70.7    .948  -10.3 !    31.3
  200    .756  -64.3   4.811  132.2    .061   57.6    .859  -16.5 !    23.1
  300    .652  -88.0   3.983  116.6    .075   51.1    .790  -20.0 !    18.7
  400    .585 -104.6   3.245  105.6    .087   48.4    .750  -21.4 !    15.6
  500    .541 -116.1   2.725   98.2    .092   47.0    .720  -23.4 !    13.4
  600    .528 -127.0   2.386   91.9    .099   46.8    .706  -24.5 !    12.0
  700    .491 -136.5   2.089   85.0    .103   46.6    .696  -26.1 !    10.5
  800    .485 -145.1   1.879   79.9    .106   48.6    .691  -27.4 !     9.5
  900    .480 -151.4   1.701   76.2    .112   49.5    .688  -28.9 !     8.5
 1000    .471 -157.6   1.546   70.4    .117   51.0    .683  -30.5 !     7.6
 1200    .479 -167.7   1.333   62.9    .124   54.2    .682  -34.2 !     6.3
 1400    .477 -175.5   1.170   56.8    .135   57.5    .677  -38.3 !     5.1
 1600    .475  176.6   1.051   50.6    .146   61.7    .684  -42.4 !     4.3
 1800    .488  168.9    .946   45.3    .158   66.4    .685  -46.7 !     3.4
 2000    .487  159.0    .868   41.7    .176   69.5    .679  -51.3 !     2.6
