! Filename:  P:\Prog\Test\Noise\ATS_data\Testdata_Net\Split files Spar\BFU725F_N1_A2_CS1566_wafer5_Bias4_2.5V_2mA_25mA_D.s2p
! Date/Time: Fri 17/Sep/2010 16:51:25
! BFU725F_N1_A2_CS1566_wafer5_Bias4_2.5V_2mA_25mA_R.s2p
! MDIF S-parameter v. bias file
! BFU725F_N1_A2_CS1566_wafer5_2.5V_2mA_25mA
! Date/time Thu Sep 16 14:24:47 2010
! VAR V_out= 2.5000
! VAR I_out= 9.9850
! VAR V_in= 0.8212
! VAR I_in= 0.0307
! Device data file deembeded for feedlines and parallel
! Original file: \Split files Spar\BFU725F_N1_A2_CS1566_wafer5_Bias4_2.5V_2mA_25mA_R.s2p
! Feed-files: PR003V01_101208_Feed1.s2p, PR003V01_101208_Feed2.s2p
! Parallel-file: PR003V01_101208_Par.s2p
# MHz S MA R 50
!  Freq-MHz   S11-mag  S11-arg   S21-mag  S21-arg   S12-mag  S12-arg   S22-mag  S22-arg
         40   0.91403    -2.54    23.683   176.79 0.0017071    80.55   0.99261    -1.39
         50   0.91182    -3.23    23.718   176.14  0.002244    81.14   0.99344    -1.93
         60   0.91395    -3.83    23.698   175.84 0.0025035    82.37   0.99403    -2.35
         70   0.91322    -4.50    23.655   175.49 0.0029128    83.25   0.99407    -2.82
         80   0.91281    -5.20     23.67   175.03 0.0033523    82.99   0.99379    -3.30
         90   0.91332    -5.90    23.683   174.57 0.0037539    83.49   0.99331    -3.76
        100   0.91138    -6.58    23.681   174.20 0.0042052    83.09   0.99297    -4.20
        120   0.91123    -7.91    23.611   173.24 0.0050441    82.94   0.99208    -5.10
        140   0.91099    -9.24    23.612   172.34 0.0059143    82.45   0.99101    -6.00
        160   0.90889   -10.53    23.546   171.39 0.0066973    81.93   0.98932    -6.87
        180   0.90835   -11.88    23.516   170.49 0.0075488    81.42    0.9879    -7.75
        200   0.90705   -13.19    23.476   169.46 0.0083712    80.79   0.98593    -8.61
        220    0.9057   -14.53    23.423   168.53 0.0092019    80.23   0.98379    -9.48
        240   0.90337   -15.87    23.396   167.57  0.010005    79.65   0.98162   -10.33
        260   0.90208   -17.13    23.322   166.65  0.010809    79.00   0.97921   -11.17
        280   0.90038   -18.47    23.305   165.70  0.011613    78.37   0.97693   -12.03
        300   0.89777   -19.79    23.235   164.64  0.012398    77.64   0.97428   -12.87
        320   0.89549   -21.04    23.118   163.72  0.013202    77.04   0.97162   -13.71
        340   0.89366   -22.35    23.057   162.81  0.013989    76.28   0.96878   -14.54
        360   0.89184   -23.60     22.96   161.90  0.014777    75.61   0.96604   -15.37
        380   0.88926   -24.88    22.876   160.93  0.015544    74.95   0.96263   -16.22
        400   0.88683   -26.21    22.842   160.00  0.016305    74.27   0.95885   -17.04
        420   0.88348   -27.47    22.767   158.94  0.017056    73.53   0.95555   -17.85
        440   0.88086   -28.73    22.664   158.03  0.017804    72.90   0.95166   -18.68
        460   0.87823   -30.02    22.602   157.12  0.018546    72.25   0.94792   -19.47
        480   0.87492   -31.28    22.502   156.14  0.019286    71.53   0.94381   -20.28
        500   0.87079   -32.54     22.42   155.17  0.019979    70.91   0.93977   -21.04
        550   0.86247   -35.51    22.067   152.80  0.021763    69.26   0.92973   -23.00
        600   0.85431   -38.53    21.784   150.62  0.023473    67.60   0.91796   -24.97
        650   0.84605   -41.48    21.482   148.47  0.025097    66.02   0.90554   -26.85
        700   0.83641   -44.51    21.237   146.34  0.026689    64.45   0.89293   -28.70
        750    0.8275   -47.37    20.906   144.32    0.0282    62.92   0.88017   -30.46
        800   0.81889   -50.01    20.507   142.40  0.029633    61.45   0.86671   -32.27
        850   0.81014   -52.76    20.199   140.49  0.031011    60.09   0.85233   -33.90
        900   0.80068   -55.62    19.966   138.54  0.032378    58.79   0.83988   -35.47
        950   0.79133   -58.32    19.672   136.63  0.033692    57.47   0.82773   -37.06
       1000   0.78221   -61.02    19.381   134.75  0.034951    56.15   0.81503   -38.66
       1050   0.77314   -63.59     19.06   132.93  0.036113    54.92   0.80093   -40.22
       1100   0.76403   -66.14    18.758   131.11   0.03722    53.75   0.78688   -41.66
       1150   0.75492   -68.72    18.465   129.35  0.038329    52.62   0.77402   -43.10
       1200   0.74657   -71.23     18.16   127.64  0.039405    51.44   0.76149   -44.54
       1250   0.73798   -73.64    17.846   125.96  0.040369    50.32   0.74804   -45.96
       1300   0.72877   -76.12    17.573   124.32  0.041275    49.28   0.73455   -47.28
       1350   0.71912   -78.54    17.284   122.67  0.042152    48.27   0.72195   -48.56
       1400   0.71005   -80.86    16.986   121.08  0.043025    47.28    0.7093   -49.82
       1450   0.70184   -83.07    16.696   119.57  0.043842    46.35    0.6967   -51.04
       1500   0.69401   -85.30     16.41   118.07  0.044597    45.41   0.68416   -52.27
       1550   0.68633   -87.52    16.131   116.63  0.045306    44.53   0.67118   -53.44
       1600   0.67818   -89.70    15.858   115.15  0.046038    43.68    0.6596   -54.57
       1650    0.6702   -91.85     15.59   113.73  0.046745    42.85   0.64818   -55.70
       1700   0.66304   -93.96    15.332   112.34   0.04739    42.02   0.63696   -56.79
       1750   0.65546   -96.02    15.074   110.98  0.048015    41.25   0.62592   -57.85
       1800   0.64856   -98.08     14.83   109.59  0.048605    40.50   0.61492   -58.91
       1850    0.6418  -100.10     14.58   108.26   0.04918    39.74   0.60384   -59.94
       1900   0.63506  -102.04    14.334   106.96  0.049693    39.03   0.59347   -60.94
       1950   0.62827  -103.97    14.095   105.68  0.050206    38.40   0.58296   -61.89
       2000    0.6219  -105.89    13.858   104.44  0.050709    37.73   0.57278   -62.84
       2050   0.61562  -107.61    13.614   103.24   0.05115    37.14   0.56224   -63.75
       2100   0.61002  -109.44    13.394   102.07  0.051613    36.54   0.55244   -64.65
       2150   0.60457  -111.26    13.183   100.91  0.052086    36.01    0.5432   -65.52
       2200     0.599  -113.02    12.969    99.77  0.052528    35.44   0.53407   -66.42
       2250   0.59369  -114.78    12.762    98.65  0.052939    34.88   0.52504   -67.27
       2300   0.58854  -116.50    12.553    97.57  0.053332    34.34   0.51627   -68.11
       2350   0.58366  -118.19    12.355    96.48   0.05369    33.86    0.5078   -68.93
       2400   0.57922  -119.83    12.161    95.43   0.05408    33.39   0.49959   -69.72
       2450   0.57477  -121.45     11.97    94.41  0.054486    32.87   0.49186   -70.53
       2500   0.57077  -123.07    11.784    93.40  0.054849    32.39   0.48382   -71.36
       2600   0.56304  -126.20    11.426    91.42  0.055516    31.49   0.46815   -72.93
       2700   0.55582  -129.21    11.087    89.53  0.056149    30.61   0.45333   -74.56
       2800   0.54849  -132.13    10.765    87.65  0.056665    29.78   0.43885   -76.07
       2900   0.54248  -134.92     10.46    85.90  0.057184    29.04   0.42516   -77.48
       3000   0.53762  -137.67    10.182    84.17  0.057637    28.36   0.41169   -78.85
       3100    0.5337  -140.46    9.9167    82.42  0.058061    27.85   0.39803   -80.18
       3200    0.5291  -143.18    9.6547    80.74  0.058572    27.31   0.38672   -81.50
       3300   0.52582  -145.77    9.4138    79.09  0.059128    26.82   0.37682   -82.82
       3400   0.52229  -148.35    9.1896    77.46  0.059618    26.28   0.36635   -84.20
       3500   0.51966  -150.88    8.9672    75.83  0.060177    25.80    0.3556   -85.55
       3600   0.51605  -153.39    8.7526    74.19  0.060613    25.26   0.34539   -87.09
       3700   0.51299  -155.71    8.5491    72.64  0.061101    24.90     0.336   -88.46
       3800   0.51065  -158.09    8.3557    71.07  0.061571    24.45   0.32674   -89.81
       3900   0.50861  -160.40    8.1592    69.53  0.062038    24.09   0.31799   -91.11
       4000   0.50657  -162.62    7.9775    68.08  0.062593    23.71   0.30913   -92.46
       4100   0.50602  -164.88    7.8104    66.57  0.063058    23.28    0.3006   -94.00
       4200    0.5042  -167.08    7.6408    65.08  0.063523    22.90    0.2928   -95.59
       4300   0.50326  -169.16    7.4833    63.67  0.063972    22.54   0.28565   -96.97
       4400   0.50207  -171.20    7.3308    62.21  0.064495    22.25   0.27825   -98.25
       4500   0.50159  -173.20    7.1831    60.79  0.064963    21.88   0.27034   -99.77
       4600   0.50108  -175.22    7.0378    59.35  0.065403    21.57   0.26335  -101.43
       4700   0.50071  -177.21    6.8981    57.96  0.065933    21.26   0.25733  -103.03
       4800   0.50032  -179.16    6.7656    56.56  0.066404    20.93    0.2516  -104.48
       4900   0.50004   178.95    6.6345    55.20  0.066903    20.67   0.24503  -105.92
       5000   0.50068   177.12    6.5119    53.82   0.06742    20.31   0.23827  -107.67
       5200   0.50191   173.44    6.2699    51.16  0.068495    19.77   0.22848  -111.24
       5400   0.50292   169.96    6.0538    48.50  0.069483    19.24    0.2174  -114.49
       5600   0.50468   166.55    5.8419    45.93  0.070524    18.72   0.20751  -118.55
       5800    0.5074   163.22    5.6538    43.29  0.071612    18.07   0.19928  -122.30
       6000   0.51042   159.93    5.4616    40.75  0.072697    17.48   0.18973  -126.67
       6200   0.51251   156.87    5.2859    38.31  0.073856    17.10   0.18352  -130.99
       6400   0.51658   153.92    5.1246    35.82  0.075063    16.56   0.17598  -135.47
       6600   0.51971   150.84    4.9693    33.30  0.076305    15.90   0.17096  -140.90
       6800   0.52316   148.15    4.8247    30.91  0.077602    15.40   0.16614  -145.24
       7000   0.52893   145.37    4.6819    28.45  0.078865    14.81   0.16216  -151.34
       7200   0.53253   142.66    4.5494    26.14    0.0802    14.25   0.15986  -156.24
       7400   0.53681   140.22    4.4273    23.86  0.081586    13.67   0.15621  -161.52
       7600   0.54318   137.63    4.3219    21.37  0.083054    13.03   0.15913  -167.31
       7800   0.54893   135.15    4.2008    19.00  0.084525    12.41   0.15717  -172.50
       8000   0.55505   132.70    4.1054    16.78  0.086058    11.72   0.15988  -177.71
       8200   0.56082   130.32    4.0037    14.15  0.087669    10.92   0.16404   176.91
       8400   0.56766   127.89    3.8915    11.84   0.08907    10.19   0.16415   170.80
       8600   0.57349   125.62    3.7993     9.41  0.090827     9.26   0.17304   166.29
       8800   0.57805   123.38    3.6926     7.27  0.092222     8.65   0.17436   162.23
       9000   0.58529   121.12     3.602     5.11  0.093852     7.84   0.18218   156.58
       9200   0.59193   119.13    3.5354     2.87  0.095705     6.97   0.18852   152.99
       9400   0.60006   116.98    3.4653     0.52  0.097599     5.97   0.19805   148.63
       9600   0.60697   114.79    3.3828    -1.91  0.098769     4.96   0.20674   144.42
       9800    0.6152   112.68    3.3191    -4.38   0.10042     4.16   0.21167   140.41
      10000   0.62008   110.30    3.2227    -6.48   0.10186     3.72   0.21855   138.31
      10200   0.62841   108.42    3.1629    -9.07    0.1048     2.33     0.236   134.49
      10400   0.63469   106.20    3.0827   -11.35   0.10635     1.07   0.24815   129.95
      10600   0.63898   104.25    3.0103   -13.53   0.10806    -0.08   0.25694   126.83
      10800   0.64593   102.31    2.9342   -15.68   0.10969    -1.15   0.26658   123.04
      11000   0.65188   100.40     2.878   -17.72     0.111    -2.53   0.27779   120.19
      11200   0.65575    98.70    2.8167   -19.66   0.11187    -3.64   0.28462   116.92
      11400   0.66635    97.79    2.8198   -21.65   0.11407    -3.63    0.2929   115.76
      11600   0.68302    95.27    2.7472   -25.19   0.11735    -5.42   0.31198   113.59
      11800   0.68983    93.14    2.6729   -27.33   0.11907    -7.04   0.32618   110.15
      12000   0.69566    91.07    2.6006   -29.88   0.12015    -8.64   0.34061   107.79
      12200   0.70008    89.10    2.5348   -31.81   0.12134    -9.88   0.35176   104.42
      12400   0.70292    87.97    2.4916   -33.66   0.12261   -10.92   0.36546   101.74
      12600    0.7175    86.47    2.4421   -36.08   0.12458   -12.01   0.37197    99.25
      12800   0.72777    84.17    2.3969   -38.65   0.12675   -13.36    0.3855    97.06
      13000   0.73171    82.32    2.3313   -40.87   0.12893   -14.85   0.39382    95.40
      13200   0.73872    80.76    2.2705   -42.93   0.13084   -16.66   0.40751    93.06
      13400   0.74625    79.13    2.2227   -44.74   0.13201   -18.36   0.42315    91.62
      13600   0.75532    77.27    2.1851   -46.93    0.1327   -20.09   0.43612    89.14
      13800   0.76278    75.59    2.1437   -49.00   0.13368   -21.62   0.45408    87.09
      14000   0.77311    73.97    2.1092   -51.25   0.13433   -23.32   0.46565    84.75
      14200   0.78208    72.04     2.064   -53.59   0.13406   -24.62   0.48146    82.16
      14400   0.78599    69.99    2.0191   -55.96   0.13465   -25.67   0.49235    80.42
      14600   0.78943    68.12    1.9644   -58.17     0.136   -26.64   0.50374    78.06
      14800   0.78994    66.59    1.9215   -60.06    0.1378   -27.75   0.51676    76.26
      15000   0.79372    65.21    1.8724   -62.22   0.14046   -29.49   0.52592    74.46
      15200   0.80255    63.77    1.8389   -63.93   0.14146   -31.47   0.54317    72.64
      15400   0.80989    62.19    1.8075   -66.15   0.14183   -33.32   0.55389    71.11
      15600   0.81357    60.96    1.7667   -67.99   0.14289   -34.86   0.56947    68.84
      15800   0.82344    59.42    1.7405   -70.12   0.14279   -37.06   0.58511    67.38
      16000   0.83068    57.68    1.7073   -72.51   0.14198   -38.61   0.59629    64.78
      16200   0.83925    56.29     1.677   -74.70   0.14127   -40.04   0.61137    62.57
      16400   0.84703    54.68    1.6383   -77.16   0.14083   -41.04   0.61187    60.39
      16600   0.85229    52.86    1.5999   -79.10   0.14157   -42.16    0.6218    58.70
      16800   0.86089    51.33    1.5701   -81.33   0.14083   -43.69   0.63166    57.11
      17000   0.86574    49.63    1.5296   -83.44   0.14029   -44.65   0.64058    55.24
      17200   0.86785    48.06    1.4941   -85.58   0.14088   -45.51   0.65647    53.62
      17400   0.87473    46.20    1.4603   -87.74   0.14153   -46.42   0.66033    51.36
      17600   0.87695    44.76    1.4265   -89.71   0.14225   -47.49   0.67571    49.66
      17800   0.87864    43.52    1.3909   -91.86   0.14418   -48.58   0.67681    47.58
      18000   0.88525    42.04    1.3531   -93.90   0.14563   -49.82   0.67772    45.38
      18200   0.88659    40.30    1.3156   -95.87   0.14721   -51.95   0.68043    44.79
      18400   0.88951    39.13    1.2774   -97.54   0.14641   -53.56   0.68389    43.31
      18600   0.89096    37.98    1.2531   -99.03   0.14491   -54.61   0.69946    42.38
      18800   0.89993    36.13    1.2258  -101.50   0.14527   -55.63   0.70198    40.47
      19000   0.90367    34.54    1.1936  -103.12   0.14583   -56.13   0.71033    39.01
      19200   0.90274    32.89    1.1551  -105.49   0.14783   -57.02   0.70904    37.82
      19400   0.89783    31.57    1.1124  -106.37   0.15215   -58.47   0.71086    36.57
      19600   0.89888    30.53    1.0976  -107.51   0.15259   -61.21    0.7249    36.54
      19800   0.91083    29.41    1.0825  -109.19   0.14999   -63.12   0.73306    34.77
      20000   0.91638    27.76     1.057  -110.94   0.14858   -63.51   0.74583    33.44
      20200   0.91903    26.10    1.0371  -112.53   0.14961   -64.28   0.74501    32.78
      20400   0.92082    24.28    1.0216  -114.01   0.15387   -65.12   0.76576    31.45
      20600   0.92243    22.40     1.007  -116.31   0.15586   -66.89   0.78274    29.82
      20800   0.91117    20.87   0.98194  -118.43   0.15938   -68.46      0.78    27.38
      21000    0.9036    19.84   0.95191  -119.84   0.16061   -70.83   0.79238    26.39
      21200   0.90405    18.25     0.929  -122.18   0.16165   -72.82     0.786    25.50
      21400   0.89188    17.21   0.90399  -122.55   0.16395   -75.08    0.8117    23.93
      21600   0.88686    16.86   0.89038  -124.99   0.16205   -77.27   0.81203    22.19
      21800   0.88514    16.08   0.87269  -125.66    0.1658   -78.31   0.80823    20.51
      22000   0.88946    15.24    0.8605  -127.69   0.16836   -83.05   0.82189    19.78
      22200   0.89648    14.25   0.84876  -129.89   0.16077   -85.50   0.80833    18.26
      22400   0.89509    13.19   0.82297  -130.82   0.16227   -85.99   0.82468    17.28
      22600    0.8986    12.18    0.8129  -133.58   0.15903   -89.68   0.81726    16.14
      22800   0.89801    11.31    0.7898  -135.01   0.15524   -91.18   0.81947    14.56
      23000   0.89886    10.45   0.77345  -136.12   0.15476   -92.56   0.82317    14.47
      23200   0.90464     9.51   0.75204  -138.55   0.15446   -94.94   0.81915    13.15
      23400   0.90748     8.36    0.7446  -139.98   0.14944   -97.13   0.84715    12.59
      23600   0.90995     8.40   0.71469  -142.00   0.14143   -96.83   0.83982    11.42
      23800   0.91254     6.38    0.6947  -142.21   0.14185   -96.48    0.8648     9.81
      24000   0.91117     4.40   0.69075  -145.84   0.14581   -99.82   0.87157     8.59
      24200    0.9206     3.75   0.67223  -147.04   0.13997  -102.74   0.86536     6.22
      24400   0.91502     4.10   0.63191  -148.68   0.13061  -103.28   0.88454     5.58
      24600   0.92087     1.54    0.6241  -150.63   0.13104  -101.97   0.86899     3.67
      24800   0.91064    -0.11   0.59534  -150.47   0.12871  -100.30   0.88143     2.11
      25000   0.90938    -0.88   0.58278  -152.15   0.13284  -100.55   0.86829     1.58
      25200   0.90774    -2.07    0.5719  -152.68   0.13475  -102.86   0.87608     0.10
      25400   0.89996    -2.52   0.54861  -152.84   0.13083  -104.35   0.88489    -0.37
      25600   0.89744    -3.53   0.52761  -154.92   0.12753  -104.61   0.87136    -1.95
      25800   0.91421    -3.79   0.53908  -153.88   0.13227  -105.91   0.89688    -2.81
      26000   0.91609    -5.25   0.50834  -156.69   0.12736  -106.00   0.86893    -3.84

