! Filename:  P:\Prog\Test\Noise\ATS_data\Testdata_Net\Split files Spar\BFU725F_N1_A2_CS1566_wafer5_1V_2mA_25mA_Bias3_D.s2p
! Date/Time: Fri 17/Sep/2010 16:47:26
! BFU725F_N1_A2_CS1566_wafer5_1V_2mA_25mA_Bias3_R.s2p
! MDIF S-parameter v. bias file
! BFU725F_N1_A2_CS1566_wafer5_1V_2mA_25mA
! Date/time Fri Sep 17 16:21:32 2010
! VAR V_out= 1.0000
! VAR I_out= 8.0550
! VAR V_in= 0.8228
! VAR I_in= 0.0241
! Device data file deembeded for feedlines and parallel
! Original file: \Split files Spar\BFU725F_N1_A2_CS1566_wafer5_1V_2mA_25mA_Bias3_R.s2p
! Feed-files: PR003V01_101208_Feed1.s2p, PR003V01_101208_Feed2.s2p
! Parallel-file: PR003V01_101208_Par.s2p
# MHz S MA R 50
!  Freq-MHz   S11-mag  S11-arg   S21-mag  S21-arg   S12-mag  S12-arg   S22-mag  S22-arg
         40   0.93082    -2.48     20.42   177.27  0.001933    87.34   0.99595    -1.45
         50   0.92929    -3.22    20.465   176.53 0.0025112    84.64   0.99565    -2.00
         60   0.93062    -3.73    20.458   176.21 0.0028225    88.32    0.9961    -2.40
         70   0.93025    -4.38    20.428   175.83 0.0033622    87.41   0.99622    -2.87
         80   0.92887    -5.04    20.454   175.36 0.0038417    86.71   0.99604    -3.35
         90   0.92935    -5.69    20.481   174.90 0.0043332    86.19   0.99546    -3.81
        100   0.92852    -6.36    20.479   174.53 0.0048039    86.36   0.99517    -4.25
        120   0.92806    -7.62    20.418   173.60 0.0057934    85.16   0.99459    -5.14
        140   0.92746    -8.91    20.426   172.72 0.0067346    84.66   0.99332    -6.04
        160   0.92667   -10.12    20.364   171.80 0.0076568    83.85   0.99185    -6.90
        180   0.92592   -11.40    20.354   170.94 0.0086089    83.19    0.9907    -7.78
        200   0.92411   -12.65    20.317   169.93 0.0095617    82.48   0.98895    -8.64
        220   0.92321   -13.91    20.285   169.05  0.010512    81.74   0.98712    -9.51
        240   0.92075   -15.19     20.27   168.13  0.011446    80.91   0.98498   -10.38
        260   0.91972   -16.43    20.217   167.22   0.01237    80.22   0.98308   -11.22
        280   0.91826   -17.71    20.217   166.31  0.013315    79.58   0.98095   -12.08
        300   0.91586   -18.97    20.153   165.28   0.01424    78.87   0.97839   -12.92
        320   0.91377   -20.18    20.059   164.40  0.015135    78.06   0.97607   -13.77
        340   0.91236   -21.43    20.011   163.52  0.016042    77.39   0.97346   -14.59
        360   0.91089   -22.62    19.928   162.65  0.016941    76.65   0.97108   -15.44
        380    0.9085   -23.83    19.859   161.70  0.017829    75.91   0.96769   -16.31
        400   0.90634   -25.12    19.847   160.80    0.0187    75.18   0.96417   -17.14
        420   0.90317   -26.34    19.791   159.77  0.019573    74.46   0.96122   -17.97
        440   0.90074   -27.51    19.699   158.90  0.020432    73.78   0.95771   -18.81
        460   0.89786   -28.76    19.656   158.03  0.021295    73.12   0.95434   -19.62
        480    0.8951   -29.99    19.587   157.09  0.022166    72.37   0.95071   -20.43
        500   0.89152   -31.22    19.523   156.13   0.02297    71.74   0.94732   -21.21
        550   0.88342   -34.06    19.219   153.84   0.02506    70.04   0.93843   -23.22
        600   0.87603   -36.93    18.977   151.74  0.027054    68.35   0.92753   -25.21
        650   0.86827   -39.78    18.734   149.65  0.028975    66.69   0.91552   -27.16
        700   0.85965   -42.70    18.563   147.63  0.030822    65.07   0.90369   -29.05
        750   0.85195   -45.42    18.308   145.69  0.032591    63.51   0.89206   -30.87
        800    0.8447   -47.98    17.971   143.85  0.034303    61.96   0.87958   -32.78
        850   0.83692   -50.65    17.721   142.01  0.035941    60.57   0.86565   -34.51
        900   0.82885   -53.46    17.572   140.10  0.037588    59.23   0.85418   -36.16
        950   0.82031   -56.12    17.338   138.22  0.039164    57.83   0.84297   -37.84
       1000    0.8118   -58.78     17.11   136.38  0.040696    56.45   0.83134   -39.52
       1050   0.80393   -61.29    16.863   134.59    0.0421    55.14   0.81784   -41.17
       1100   0.79554   -63.85    16.632   132.77  0.043419    53.91   0.80396   -42.72
       1150   0.78691   -66.42    16.404   131.02  0.044752    52.66   0.79164   -44.25
       1200   0.77886   -68.91    16.155   129.31  0.046073    51.41   0.77995   -45.82
       1250    0.7704   -71.29    15.882   127.62  0.047253    50.20   0.76681   -47.37
       1300   0.76186   -73.75    15.666   125.99  0.048352    49.08   0.75321   -48.81
       1350   0.75234   -76.18     15.44   124.32  0.049422    48.00    0.7407   -50.23
       1400   0.74357   -78.49    15.199   122.71  0.050481    46.91   0.72835   -51.64
       1450   0.73584   -80.69    14.961   121.19  0.051485    45.88    0.7164   -52.98
       1500   0.72824   -82.88    14.716   119.70  0.052394    44.83   0.70399   -54.34
       1550   0.72086   -85.12    14.485   118.26  0.053246    43.87   0.69075   -55.60
       1600   0.71294   -87.34    14.261   116.75  0.054163    42.93   0.67939   -56.86
       1650   0.70546   -89.50    14.041   115.30  0.055024    41.99    0.6677   -58.13
       1700    0.6983   -91.63     13.82   113.88  0.055803    41.06   0.65622   -59.37
       1750   0.69053   -93.70    13.601   112.49   0.05656    40.20   0.64503   -60.57
       1800   0.68312   -95.79    13.397   111.07  0.057271    39.34   0.63362   -61.79
       1850   0.67622   -97.83    13.181   109.72  0.057948    38.49   0.62263   -62.97
       1900   0.66966   -99.77    12.966   108.39  0.058593    37.70   0.61247   -64.12
       1950   0.66296  -101.70    12.765   107.10  0.059195    36.94   0.60186   -65.20
       2000   0.65621  -103.60    12.561   105.84  0.059809    36.20   0.59212   -66.24
       2050   0.65021  -105.37    12.355   104.62  0.060349    35.51   0.58138   -67.29
       2100   0.64456  -107.26    12.164   103.42   0.06093    34.79    0.5707   -68.33
       2150   0.63885  -109.12    11.986   102.21  0.061469    34.15   0.56083   -69.35
       2200   0.63311  -110.90    11.801   101.03  0.061978    33.49   0.55121   -70.45
       2250   0.62715  -112.70    11.621    99.87  0.062444    32.81   0.54166   -71.49
       2300    0.6216  -114.45    11.437    98.75  0.062894    32.18   0.53295   -72.48
       2350   0.61667  -116.16    11.264    97.64  0.063308    31.58   0.52426   -73.46
       2400   0.61228  -117.83    11.091    96.56  0.063744    31.03   0.51558   -74.36
       2450   0.60798  -119.44    10.924    95.52  0.064195    30.45   0.50775   -75.26
       2500     0.604  -121.04     10.76    94.50  0.064615    29.84    0.4994   -76.24
       2600   0.59608  -124.31    10.451    92.45    0.0654    28.77   0.48291   -78.09
       2700   0.58869  -127.37    10.154    90.47  0.066106    27.68   0.46697   -80.09
       2800   0.58034  -130.30    9.8622    88.54  0.066675    26.70   0.45204   -81.95
       2900   0.57383  -133.21    9.5929    86.69  0.067234    25.81   0.43828   -83.64
       3000   0.56952  -136.01    9.3439    84.92  0.067728    24.92   0.42418   -85.24
       3100   0.56463  -138.88    9.1069    83.08  0.068158    24.18   0.40925   -86.95
       3200   0.55997  -141.72    8.8688    81.33  0.068664    23.44   0.39695   -88.66
       3300   0.55584  -144.28    8.6496    79.63  0.069208    22.78   0.38665   -90.31
       3400   0.55191  -146.92    8.4452    77.96  0.069672    22.07   0.37583   -92.00
       3500   0.54981  -149.46    8.2482    76.27  0.070238    21.44   0.36504   -93.60
       3600   0.54527  -152.08    8.0513    74.56   0.07064    20.71   0.35357   -95.38
       3700    0.5416  -154.52    7.8665    72.93  0.071074    20.17   0.34316   -97.29
       3800   0.53902  -156.95    7.6882    71.31  0.071493    19.57   0.33412   -99.09
       3900    0.5368  -159.25    7.5111    69.75  0.071892    19.06   0.32546  -100.53
       4000    0.5348  -161.57    7.3439    68.25  0.072355    18.53   0.31497  -102.16
       4100   0.53378  -163.85    7.1893    66.67  0.072786    17.95   0.30636  -104.13
       4200   0.53106  -166.12    7.0325    65.13  0.073163    17.42   0.29835  -106.09
       4300   0.53012  -168.19    6.8889    63.68  0.073518    16.93   0.29108  -107.87
       4400   0.52811  -170.33    6.7514    62.17  0.073966    16.51   0.28424  -109.49
       4500   0.52786  -172.42    6.6143    60.71  0.074341    16.00   0.27561  -111.15
       4600   0.52684  -174.54    6.4795    59.22  0.074673    15.58   0.26742  -113.31
       4700   0.52651  -176.53    6.3506    57.80  0.075053    15.16   0.26219  -115.44
       4800   0.52539  -178.47    6.2272    56.37  0.075429    14.73   0.25698  -117.02
       4900   0.52544   179.60    6.1083    54.98  0.075824    14.39   0.25005  -118.83
       5000   0.52563   177.73    5.9964    53.54  0.076281    13.91   0.24368  -120.94
       5200   0.52602   173.94      5.77    50.82  0.077067    13.19   0.23342  -125.40
       5400   0.52727   170.29    5.5723    48.09  0.077829    12.48   0.22404  -128.98
       5600   0.52883   166.73    5.3759    45.45  0.078601    11.81   0.21414  -134.06
       5800   0.53052   163.44    5.2007    42.77  0.079448    11.05   0.20753  -138.30
       6000   0.53333   159.94    5.0224    40.13  0.080195    10.32   0.19891  -143.23
       6200   0.53531   156.79    4.8591    37.64  0.081074     9.83   0.19576  -148.47
       6400   0.53999   153.86    4.7108    35.08  0.082028     9.21   0.18793  -153.19
       6600   0.54169   150.52     4.565    32.49  0.082934     8.47   0.18648  -158.84
       6800   0.54551   147.76    4.4324    30.03  0.084003     7.88   0.18491  -163.64
       7000   0.55109   144.96    4.2966    27.55   0.08488     7.27   0.18044  -169.63
       7200   0.55357   142.21    4.1742    25.18  0.085907     6.66   0.18324  -174.12
       7400   0.55787   139.62    4.0602    22.82  0.087034     6.04   0.18168  -179.72
       7600   0.56354   136.96    3.9591    20.33  0.088148     5.41   0.18549   174.90
       7800     0.569   134.47    3.8469    17.91  0.089334     4.80   0.18641   171.11
       8000   0.57451   132.02    3.7562    15.64  0.090562     4.13     0.191   165.45
       8200   0.57942   129.57    3.6615    13.00  0.091881     3.35    0.1959   161.46
       8400   0.58655   127.11    3.5554    10.67  0.092871     2.67   0.19857   156.09
       8600   0.59246   124.85     3.469     8.22  0.094422     1.80   0.21022   151.97
       8800   0.59663   122.55    3.3717     6.03  0.095534     1.19   0.20979   148.60
       9000   0.60269   120.10    3.2851     3.83  0.096782     0.44   0.22156   144.07
       9200   0.61069   118.15    3.2209     1.58  0.098373    -0.36   0.22872   140.82
       9400   0.61801   116.00     3.156    -0.80  0.099981    -1.31   0.23628   136.98
       9600   0.62247   113.67    3.0797    -3.25   0.10087    -2.30   0.24901   134.07
       9800   0.63069   111.46    3.0147    -5.73   0.10211    -3.02   0.25375   129.82
      10000   0.63663   109.13    2.9275    -7.81   0.10317    -3.38   0.25968   127.95
      10200   0.64352   107.33    2.8726   -10.41   0.10597    -4.63   0.27753   125.50
      10400   0.64817   104.94    2.7944   -12.69    0.1071    -5.78   0.29025   120.90
      10600   0.65377   103.00    2.7307   -14.91   0.10868    -6.82    0.2984   118.67
      10800   0.66096   101.07    2.6599   -17.08   0.11006    -7.83   0.30866   115.38
      11000   0.66407    99.13    2.6046   -19.14   0.11112    -9.10   0.32181   112.62
      11200   0.66964    97.29    2.5492   -21.10   0.11181   -10.22   0.32577   109.78
      11400   0.67893    96.18    2.5437   -23.12   0.11354   -10.24   0.33691   108.48
      11600    0.6938    93.92    2.4777   -26.53   0.11647   -11.80   0.35246   106.48
      11800   0.69854    91.73    2.4108   -28.70   0.11796   -13.28   0.36581   103.39
      12000   0.70251    89.68    2.3428   -31.16   0.11886   -14.74   0.38039   101.42
      12200    0.7098    87.79    2.2834   -33.06   0.11969   -15.83   0.38989    98.12
      12400   0.71236    86.64    2.2424   -34.97   0.12102   -16.93   0.40387    95.89
      12600    0.7229    85.12    2.1955   -37.37   0.12248   -17.98   0.41132    93.62
      12800   0.73182    82.69    2.1524   -39.76   0.12435   -19.02   0.42268    91.20
      13000   0.73911    81.05    2.0948   -41.99   0.12646   -20.43   0.43014    89.94
      13200   0.74408    79.58      2.04   -44.09   0.12824   -22.24   0.44358    87.75
      13400   0.74735    77.81    1.9955   -45.78   0.12914   -23.79   0.46025    86.12
      13600   0.75685    75.95    1.9615   -47.97   0.12966   -25.38   0.46782    84.01
      13800    0.7669    74.28    1.9237   -50.07   0.13062   -26.93   0.48842    82.23
      14000   0.77416    72.92    1.8908   -52.30   0.13098   -28.61   0.49919    79.90
      14200   0.77958    70.82    1.8485   -54.52    0.1304   -29.68   0.51151    77.43
      14400   0.78603    68.63    1.8079   -56.90   0.13085   -30.70    0.5237    76.06
      14600   0.79077    67.12    1.7592   -59.04   0.13188   -31.51   0.53282    73.46
      14800   0.78781    65.76     1.721   -60.85   0.13362   -32.44   0.54471    71.98
      15000   0.79103    64.19    1.6773   -62.99   0.13642   -34.11   0.55367    70.29
      15200   0.80081    62.60    1.6504   -64.65   0.13758   -35.97    0.5691    68.40
      15400   0.80782    61.21    1.6195   -66.91   0.13774   -37.81   0.57893    67.18
      15600    0.8096    60.16    1.5827   -68.59   0.13853   -39.20   0.59463    64.78
      15800   0.81898    58.49    1.5651   -70.76   0.13873   -41.40   0.60901    63.28
      16000   0.82713    56.86    1.5305   -73.12   0.13751   -42.97   0.61846    61.00
      16200    0.8366    55.62    1.5021   -75.26   0.13662   -44.32    0.6345    58.72
      16400   0.84216    54.13    1.4674   -77.71   0.13591   -45.23   0.63331    56.72
      16600   0.84734    52.16    1.4326   -79.51   0.13654   -46.19   0.64143    55.02
      16800   0.85826    50.49    1.4047   -81.85   0.13561   -47.71   0.65181    53.53
      17000   0.86115    48.88     1.368   -83.83   0.13504   -48.55   0.65854    51.83
      17200   0.86168    47.44    1.3365   -85.82   0.13556   -49.17   0.67479    50.23
      17400   0.86912    45.37    1.3069   -88.05    0.1361   -50.08   0.67646    48.25
      17600   0.87096    43.98    1.2766   -89.87   0.13664   -50.96   0.69281    46.43
      17800   0.87216    42.93    1.2453   -91.98   0.13857   -51.93   0.69277    44.53
      18000   0.87882    41.43    1.2118   -93.98   0.13994   -53.04   0.69239    42.36
      18200   0.88026    39.64    1.1799   -95.91   0.14166   -55.14   0.69584    41.77
      18400   0.88228    38.61    1.1442   -97.52    0.1409   -56.65     0.695    40.45
      18600   0.88332    37.42    1.1236   -98.96   0.13948   -57.51   0.71276    39.56
      18800   0.89266    35.59     1.098  -101.37   0.13995   -58.53   0.71259    37.79
      19000   0.89491    33.98    1.0708  -102.93   0.14047   -58.87   0.72032    36.41
      19200   0.89576    32.43    1.0368  -105.19   0.14231   -59.52   0.72024    35.29
      19400   0.89077    31.16    1.0019  -106.04   0.14728   -61.06   0.71877    33.84
      19600   0.89175    30.04   0.98917  -107.20   0.14771   -63.72   0.73413    34.00
      19800    0.9036    28.91   0.97554  -108.88   0.14497   -65.73   0.74012    32.14
      20000   0.90926    27.30   0.95388  -110.44   0.14378   -65.94    0.7539    30.84
      20200   0.91188    25.64    0.9358  -112.18   0.14481   -66.80    0.7525    30.30
      20400   0.91469    23.84   0.92085  -113.54    0.1489   -67.43   0.77238    29.01
      20600   0.91679    21.93   0.90998  -115.87   0.15103   -69.16    0.7914    27.27
      20800   0.90538    20.46   0.88655  -117.95   0.15462   -70.69   0.78458    24.96
      21000   0.89855    19.30   0.86273  -119.22   0.15636   -72.96   0.79897    23.97
      21200   0.89874    17.72   0.84065  -121.69   0.15699   -74.99   0.78884    23.20
      21400   0.88512    16.78   0.82056  -121.88   0.15991   -77.15   0.81619    21.64
      21600   0.88236    16.35   0.80822  -124.39   0.15805   -79.38   0.81768    19.86
      21800   0.87963    15.66   0.79335  -125.09   0.16171   -80.43   0.81171    18.15
      22000   0.88201    14.67   0.78265  -127.06   0.16465   -85.09   0.82658    17.49
      22200   0.88848    13.91   0.77249  -129.37   0.15705   -87.74   0.80918    15.90
      22400   0.88777    12.83   0.74954  -130.10   0.15884   -88.17   0.82732    14.98
      22600   0.89172    11.63   0.73925  -132.96   0.15518   -91.83   0.81993    14.05
      22800   0.88925    10.85   0.71851  -134.37    0.1515   -93.28   0.81963    12.45
      23000   0.88999    10.14   0.70559  -135.47   0.15135   -94.67   0.82826    12.32
      23200   0.89572     9.14   0.68501  -137.98   0.15074   -97.02   0.81805    11.01
      23400   0.90006     7.93    0.6788  -139.26   0.14595   -99.31   0.84654    10.84
      23600   0.89986     8.39   0.64957  -141.34   0.13735   -98.94   0.84173     9.59
      23800   0.90565     6.19   0.63465  -141.40   0.13877   -98.39   0.86257     7.70
      24000   0.90202     4.09   0.63025  -145.05   0.14245  -101.72   0.87324     6.98
      24200   0.91513     3.57    0.6127  -146.28   0.13668  -104.82     0.865     4.32
      24400    0.9069     4.11   0.57427  -147.90   0.12733  -105.27   0.88386     3.70
      24600   0.91982     1.16   0.56969  -149.87   0.12785  -103.93   0.86678     2.08
      24800   0.90812    -0.82   0.54629  -149.40   0.12634  -102.24   0.88141     0.10
      25000   0.90411    -1.42   0.53331  -151.34   0.12992  -102.31   0.86527     0.02
      25200   0.90232    -2.60   0.52367  -151.87   0.13189  -104.69   0.87671    -1.60
      25400   0.89576    -2.91   0.50355  -151.89   0.12827  -106.30   0.88323    -2.29
      25600   0.89142    -3.70   0.48249  -154.09   0.12461  -106.28   0.87138    -3.56
      25800   0.90903    -4.47   0.49801  -153.12   0.13016  -107.80   0.89633    -4.74
      26000   0.91127    -5.77    0.4662  -155.90    0.1248  -107.63   0.86567    -5.42

