! Filename:  P:\Prog\Test\Noise\ATS_data\Testdata_Net\Split files Spar\BFU725F_CS1566_A2_2V_2mA_25mA_Bias1_D.s2p
! Date/Time: Mon 09/Aug/2010 10:50:25
! BFU725F_CS1566_A2_2V_2mA_25mA_Bias1_R.s2p
! MDIF S-parameter v. bias file
! BFU725F_CS1566_A2_2V_2mA_25mA
! Date/time Mon Jul 19 09:57:02 2010
! bias mode 1
! bias variable = I_out
! VAR bias_var= 1
! VAR V_out= 2.0000
! VAR I_out= 1.9900
! VAR V_in= 0.7771
! VAR I_in= 0.0053
! Device data file deembeded for feedlines and parallel
! Original file: \Split files Spar\BFU725F_CS1566_A2_2V_2mA_25mA_Bias1_R.s2p
! Feed-files: PR003V01_101208_Feed1.s2p, PR003V01_101208_Feed2.s2p
! Parallel-file: PR003V01_101208_Par.s2p
# MHz S MA R 50
!  Freq-MHz   S11-mag  S11-arg   S21-mag  S21-arg   S12-mag  S12-arg   S22-mag  S22-arg
         40   0.98132    -1.36    6.5498   178.66 0.0018017    88.69   0.99897    -0.85
         50    0.9882    -2.47    6.6226   177.05 0.0024065   109.42   0.99861    -0.99
         60     0.975    -2.10    6.4726   178.34  0.003051    91.48   0.99938    -1.25
         70   0.98094    -2.39    6.5365   177.98 0.0031408    89.03   0.99927    -1.47
         80   0.98126    -2.76    6.5434   177.68 0.0035804    88.45   0.99929    -1.68
         90   0.98163    -3.06    6.5543   177.38 0.0040722    88.42   0.99903    -1.90
        100   0.98105    -3.33    6.5448   177.34 0.0045023    88.44   0.99883    -2.11
        120   0.98013    -4.10    6.5386   176.68 0.0054318    87.40   0.99882    -2.54
        140   0.98068    -4.81    6.5412   176.17 0.0063024    86.72   0.99861    -2.97
        160   0.98008    -5.48    6.5346   175.65 0.0072335    85.77   0.99834    -3.40
        180   0.98046    -6.14    6.5275   175.10 0.0080545    85.73   0.99804    -3.83
        200   0.98018    -6.85    6.5297   174.49 0.0090056    85.46   0.99789    -4.25
        220   0.97947    -7.54    6.5439   173.84 0.0098857    84.57   0.99726    -4.67
        240   0.97906    -8.26    6.5414   173.24  0.010788    84.80   0.99696    -5.09
        260   0.97878    -8.91    6.5293   172.58  0.011659    84.27    0.9965    -5.51
        280   0.97727    -9.56    6.5403   172.06  0.012622    83.63    0.9961    -5.94
        300    0.9789   -10.30    6.5308   171.67  0.013474    83.56   0.99586    -6.35
        320   0.97747   -10.93    6.5269   171.12  0.014306    82.79   0.99514    -6.78
        340   0.97796   -11.60    6.5249   170.50   0.01518    82.22   0.99467    -7.20
        360   0.97682   -12.27    6.5193   169.96  0.016105    82.06   0.99415    -7.63
        380   0.97635   -12.98    6.5107   169.34  0.017009    81.52    0.9934    -8.05
        400   0.97619   -13.66    6.5323   169.03  0.017876    80.82   0.99263    -8.46
        420   0.97566   -14.39    6.5169   168.31  0.018783    80.65   0.99228    -8.88
        440   0.97537   -15.03    6.5121   167.86  0.019677    79.93   0.99155    -9.30
        460   0.97442   -15.73    6.5077   167.24  0.020513    79.54   0.99084    -9.72
        480   0.97313   -16.44    6.5059   166.62  0.021429    79.11   0.99023   -10.14
        500    0.9729   -17.07    6.4904   166.12  0.022296    78.74   0.98942   -10.57
        550   0.97162   -18.83    6.4803   164.76   0.02449    77.56   0.98725   -11.63
        600   0.96927   -20.50    6.4698   163.40  0.026637    76.26   0.98507   -12.66
        650     0.969   -22.17    6.4542   162.16  0.028749    75.20   0.98258   -13.71
        700   0.96556   -23.84    6.4296   160.80  0.030938    73.98   0.97979   -14.76
        750   0.96304   -25.56    6.4116   159.42  0.033058    72.84   0.97686   -15.76
        800   0.96127   -27.28    6.4037   158.09  0.035134    71.68    0.9743   -16.79
        850   0.95728   -28.87    6.3757   156.66  0.037229    70.68   0.97125   -17.82
        900    0.9564   -30.59    6.3605   155.33  0.039293    69.51   0.96807   -18.85
        950   0.95267   -32.29    6.3337   153.96  0.041314    68.37   0.96469   -19.88
       1000   0.95014   -33.95    6.3218   152.67  0.043328    67.21   0.96154   -20.89
       1050   0.94808   -35.52    6.3034   151.39  0.045307    66.20   0.95789   -21.91
       1100   0.94549   -37.18    6.2717   150.09  0.047252    65.06   0.95377   -22.90
       1150   0.94188   -38.86     6.251   148.75  0.049156    63.97      0.95   -23.86
       1200   0.93888   -40.42    6.2256   147.45  0.051091    62.87   0.94597   -24.88
       1250   0.93478   -42.14    6.2059   146.12   0.05304    61.81   0.94184   -25.89
       1300   0.93167   -43.77    6.1665   144.85  0.054816    60.68   0.93761   -26.88
       1350   0.92881   -45.44    6.1519   143.55  0.056549    59.60   0.93295   -27.88
       1400   0.92493   -47.02    6.1244   142.26  0.058432    58.60   0.92886   -28.85
       1450   0.92103   -48.73    6.1007   140.90  0.060254    57.48   0.92446   -29.84
       1500   0.91748   -50.31    6.0642   139.66  0.061923    56.44    0.9196   -30.77
       1550   0.91589   -51.94     6.041   138.47  0.063622    55.37   0.91527   -31.72
       1600   0.90967   -53.58    6.0105   137.09  0.065332    54.29    0.9104   -32.72
       1650   0.90555   -55.17    5.9764   135.88  0.066984    53.19   0.90499   -33.67
       1700   0.90172   -56.76    5.9493   134.55   0.06844    52.18   0.89968   -34.61
       1750   0.89809   -58.34    5.9145   133.27  0.070045    51.20   0.89471   -35.56
       1800   0.89501   -60.01    5.8887   132.05  0.071555    50.11   0.88978   -36.46
       1850   0.89027   -61.59    5.8519   130.80  0.073039    49.08   0.88431   -37.43
       1900   0.88643   -63.07    5.8237   129.63  0.074547    48.16   0.87944   -38.32
       1950   0.88338   -64.65    5.7928   128.45  0.075975    47.16   0.87449   -39.24
       2000   0.87638   -66.31    5.7506   127.11   0.07745    46.09    0.8693   -40.20
       2050   0.87471   -67.92    5.7243   125.91  0.078601    45.20   0.86416   -41.11
       2100   0.87032   -69.24    5.6879   124.82  0.080034    44.22   0.85857   -42.06
       2150    0.8652   -70.87    5.6515   123.56  0.081388    43.33   0.85247   -42.95
       2200   0.86067   -72.34    5.6217   122.42   0.08267    42.30    0.8469   -43.77
       2250   0.85545   -73.82    5.5799   121.22  0.083863    41.30   0.84139   -44.70
       2300   0.85086   -75.44    5.5467   120.02  0.085089    40.37   0.83571   -45.64
       2350   0.84619   -76.98     5.497   118.80  0.086296    39.43    0.8298   -46.61
       2400   0.84295   -78.48    5.4639   117.77  0.087386    38.62   0.82279   -47.49
       2450   0.83871   -80.04    5.4355   116.67  0.088782    37.58   0.81627   -48.30
       2500   0.83227   -81.42    5.4009   115.44  0.089848    36.55   0.81081   -49.11
       2600   0.82723   -84.36    5.3343   113.21  0.091759    34.66   0.79901   -50.75
       2700   0.81718   -87.39    5.2618   111.01  0.093699    32.84   0.78652   -52.37
       2800   0.80696   -90.31    5.1909   108.76  0.095498    31.03   0.77508   -53.98
       2900   0.79801   -92.98    5.1207   106.68  0.096916    29.18   0.76404   -55.55
       3000   0.79176   -95.72    5.0503   104.54  0.098316    27.56   0.75401   -57.17
       3100   0.78431   -98.63    4.9852   102.40   0.09956    25.91   0.74249   -58.77
       3200   0.77632  -101.38    4.9127   100.32   0.10095    24.29   0.73095   -60.32
       3300   0.76898  -104.30    4.8427    98.30   0.10212    22.69   0.71995   -61.95
       3400   0.76155  -106.91    4.7865    96.25   0.10318    21.12   0.70942   -63.53
       3500    0.7545  -109.61    4.7184    94.22    0.1042    19.60   0.69847   -65.04
       3600   0.74641  -112.18    4.6472    92.26   0.10499    18.12   0.68758   -66.47
       3700   0.74175  -114.89     4.593    90.25   0.10564    16.66   0.67701   -67.90
       3800   0.73314  -117.65    4.5284    88.24   0.10655    15.17    0.6659   -69.51
       3900   0.72844  -120.10    4.4689    86.37    0.1072    13.82   0.65697   -71.04
       4000   0.72046  -122.75    4.4027    84.35   0.10796    12.32   0.64643   -72.52
       4100   0.71726  -125.31    4.3456    82.45   0.10813    11.00   0.63577   -73.86
       4200   0.70899  -128.01    4.2861    80.57   0.10855     9.55   0.62466   -75.36
       4300   0.70384  -130.30     4.229    78.66   0.10891     8.31   0.61628   -76.91
       4400   0.69796  -132.85    4.1698    76.86   0.10925     6.90   0.60691   -78.33
       4500   0.69258  -135.16    4.1124    75.03   0.10929     5.75   0.59741   -79.59
       4600   0.68937  -137.76    4.0546    73.08   0.10943     4.39   0.58749   -81.04
       4700   0.68365  -140.09    4.0006    71.29   0.10918     3.26     0.579   -82.62
       4800   0.68011  -142.57    3.9423    69.52   0.10932     1.93   0.57068   -84.07
       4900   0.67583  -144.81     3.895    67.69   0.10909     0.81   0.56217   -85.36
       5000   0.67127  -147.22    3.8396    66.00    0.1092    -0.33   0.55331   -86.81
       5200   0.66358  -151.81    3.7299    62.48   0.10841    -2.43   0.53742   -89.79
       5400   0.65669  -156.28      3.64    59.04   0.10798    -4.66   0.52185   -92.60
       5600    0.6502  -160.74    3.5342    55.70   0.10687    -6.64   0.50649   -95.50
       5800    0.6467  -164.85    3.4485    52.31   0.10584    -8.51   0.49323   -98.45
       6000   0.64194  -169.14    3.3493    49.10    0.1045   -10.37   0.47963  -101.40
       6200   0.63771  -173.13    3.2654    45.93   0.10299   -12.06   0.46676  -104.52
       6400   0.63466  -177.30    3.1749    42.66   0.10156   -13.75   0.45461  -107.63
       6600   0.63353   178.81     3.092    39.58  0.099892   -15.15   0.44205  -110.78
       6800   0.63119   175.06    3.0229    36.53  0.098304   -16.61   0.43082  -114.05
       7000   0.63086   171.43    2.9406    33.61   0.09638   -17.69   0.42112  -117.24
       7200   0.63105   168.00    2.8801    30.48  0.094767   -18.54   0.41107  -120.89
       7400   0.63055   164.47    2.8065    27.58  0.092851   -19.50    0.4034  -123.83
       7600   0.63158   161.00    2.7475    24.32  0.091619   -20.15   0.39536  -127.96
       7800   0.63098   157.54    2.6734    21.38  0.089537   -21.03   0.38693  -131.31
       8000   0.63561   154.10    2.6255    18.38  0.088063   -21.22   0.38141  -135.29
       8200   0.63863   150.91    2.5591    15.45  0.086757   -21.67   0.37553  -139.21
       8400   0.64158   147.80    2.5002    12.58  0.085039   -21.67   0.37213  -142.75
       8600    0.6447   144.66    2.4459     9.41  0.084367   -21.97    0.3691  -147.38
       8800   0.64698   141.49     2.375     6.32  0.083348   -22.22   0.36604  -151.49
       9000   0.64939   138.96    2.3137     4.01   0.08143   -21.81   0.36128  -155.80
       9200   0.65394   136.27    2.2808     1.10  0.081304   -21.31   0.36254  -159.30
       9400   0.66063   133.36    2.2234    -1.76   0.08052   -21.21   0.36332  -163.83
       9600   0.66403   130.29    2.1809    -4.77  0.080251   -21.04    0.3648  -168.53
       9800   0.66677   127.59    2.1056    -7.36  0.078413   -20.47   0.36299  -172.44
      10000     0.672   125.00    2.0756   -10.27  0.080007   -19.12   0.37139  -177.23
      10200   0.67779   122.13    2.0124   -13.25  0.080322   -19.63    0.3742   177.80
      10400   0.68204   119.74    1.9665   -15.70  0.079948   -19.37   0.37433   172.97
      10600   0.68365   117.43    1.9127   -18.41  0.080185   -18.87   0.37983   168.73
      10800   0.68817   115.30    1.8759   -20.54  0.080501   -17.95   0.38157   164.58
      11000     0.692   112.96    1.8442   -23.37  0.081184   -17.21   0.39149   160.57
      11200   0.70616   111.00    1.8164   -25.97  0.083556   -15.08    0.4004   157.29
      11400   0.71554   108.01     1.766   -29.39  0.086119   -16.26   0.41566   152.28
      11600   0.72126   105.57    1.7112   -32.02  0.087181   -16.68   0.42231   147.92
      11800   0.72713   103.60    1.6675   -34.48  0.088136   -16.90    0.4318   143.63
      12000   0.73169   101.54     1.627   -37.02  0.089288   -16.65   0.44138   139.47
      12200   0.74061    99.24     1.597   -39.41  0.091096   -16.45   0.44926   135.81
      12400   0.74785    96.98    1.5572   -42.37  0.094345   -16.56   0.46431   131.96
      12600   0.75698    94.44      1.51   -44.98  0.096698   -17.51   0.47132   128.34
      12800   0.76513    92.57    1.4672   -47.22   0.09863   -18.09    0.4876   124.69
      13000   0.77112    90.47    1.4375   -49.76    0.1014   -19.11   0.49446   121.34
      13200    0.7785    88.86    1.4008   -51.92   0.10343   -20.05   0.51026   118.08
      13400   0.78003    86.70    1.3772   -54.59   0.10615   -21.37   0.52138   114.80
      13600   0.78581    84.23    1.3355   -57.10   0.10772   -22.79   0.53696   111.55
      13800   0.78796    82.15    1.3004   -59.62   0.10939   -23.54   0.54861   108.05
      14000   0.79838    80.03    1.2631   -62.02   0.11111   -25.16   0.56266   104.95
      14200   0.80638    78.14    1.2372   -64.34   0.11113   -26.00   0.57563   101.41
      14400   0.80858    75.86    1.1994   -67.10   0.11295   -26.78   0.58597    98.75
      14600   0.81247    74.15    1.1671   -68.98   0.11481   -27.60   0.60088    95.69
      14800   0.81484    72.12    1.1323   -71.27   0.11735   -28.38   0.61154    93.06
      15000   0.82425    70.63    1.0988   -73.22      0.12   -30.30   0.62786    90.24
      15200   0.82988    68.81    1.0762   -75.41   0.12177   -31.98   0.63792    87.82
      15400   0.83669    67.14    1.0493   -77.73   0.12219   -33.72   0.65526    85.02
      15600   0.83968    65.85    1.0256   -79.73   0.12426   -35.16   0.66531    82.55
      15800   0.84917    63.70   0.99898   -82.29    0.1243   -37.35    0.6807    79.71
      16000   0.85093    61.96   0.97056   -84.53   0.12455   -38.53   0.68936    77.13
      16200   0.85801    60.36   0.94571   -86.46   0.12481   -39.96   0.70121    74.29
      16400    0.8665    58.58   0.91681   -88.88   0.12508   -40.97   0.70685    71.75
      16600    0.8679    56.99   0.89358   -90.93   0.12559   -42.51   0.71301    69.67
      16800   0.87465    55.57   0.86448   -93.26   0.12453   -43.48   0.72107    67.20
      17000   0.87377    53.97   0.84026   -94.88   0.12548   -44.51   0.73252    65.63
      17200   0.87468    52.49   0.81356   -97.05   0.12686   -44.80   0.74074    62.97
      17400   0.87977    50.41   0.79727   -98.75   0.12808   -46.70   0.74967    61.15
      17600   0.88128    48.41   0.77124  -100.91    0.1276   -46.56   0.75921    58.62
      17800    0.8794    47.05   0.75035  -102.34   0.13266   -47.85   0.76355    56.26
      18000   0.89316    45.88   0.72255  -104.24   0.13334   -49.05   0.76107    54.16
      18200    0.8965    44.06   0.71503  -106.31   0.13518   -52.45   0.76874    52.28
      18400   0.90094    43.03   0.68041  -108.31   0.13213   -52.55   0.76749    50.60
      18600   0.89455    41.99    0.6647  -109.52   0.13563   -53.89   0.77473    49.18
      18800   0.90745    40.17   0.63932  -111.67   0.13455   -55.84   0.77712    47.16
      19000   0.91673    38.23   0.62081  -112.72   0.13391   -56.81   0.77686    46.37
      19200   0.92001    36.53   0.59626  -113.82   0.13491   -56.27   0.78915    44.58
      19400   0.91782    35.03   0.58685  -114.87    0.1417   -58.96    0.7883    43.45
      19600   0.93008    34.09   0.57663  -116.77   0.13854   -61.61   0.79983    41.82
      19800   0.93526    32.70   0.56087  -118.66   0.13505   -62.30   0.80418    40.39
      20000   0.92882    30.77   0.53641  -119.99   0.13689   -61.96   0.80594    38.68
      20200   0.92948    29.32   0.52716  -120.77   0.13875   -61.48   0.80587    37.77
      20400   0.93445    27.90   0.51632  -121.34    0.1484   -63.54   0.81472    36.91
      20600   0.93992    25.73   0.50743  -122.54   0.15151   -66.50   0.82122    36.13
      20800   0.92271    24.30   0.49601  -123.97   0.15613   -68.70   0.84136    34.60
      21000   0.92164    23.65   0.49217  -125.87   0.15479   -72.60   0.85098    32.62
      21200   0.92631    22.14   0.48023  -127.21   0.15682   -75.39   0.85627    31.34
      21400   0.91392    20.93   0.47206  -128.54   0.15732   -76.58   0.85726    29.37
      21600   0.90276    19.49   0.45861  -130.84   0.15523   -81.60    0.8578    27.83
      21800   0.89602    19.36   0.45043  -131.56   0.15297   -82.99   0.85397    27.08
      22000   0.90347    18.24   0.43609  -134.07   0.14916   -87.61   0.86137    25.80
      22200   0.90503    17.01   0.42519  -134.75   0.14395   -87.07   0.85939    25.02
      22400   0.90307    16.02   0.40685  -136.34   0.13917   -87.79    0.8639    24.25
      22600   0.90617    15.62   0.41133  -136.23   0.13869   -89.90   0.87872    23.92
      22800   0.91908    15.05   0.39674  -139.16   0.13755   -88.58   0.89199    22.03
      23000   0.92626    14.03   0.39558  -138.87   0.14253   -89.89    0.8985    21.09
      23200     0.936    12.47   0.38519  -143.40   0.14156   -92.59   0.90005    18.99
      23400   0.93561    10.89   0.37778  -143.31   0.13807   -95.11   0.90663    18.62
      23600    0.9358     9.96   0.36583  -146.06   0.13388   -96.08   0.91069    16.72
      23800   0.92978     8.48    0.3485  -145.65    0.1304   -95.82    0.9148    16.09
      24000   0.93439     6.93   0.34299  -148.92   0.13137   -97.56   0.92951    14.13
      24200   0.95469     6.13   0.33081  -149.35   0.13229   -98.75   0.92712    12.39
      24400    0.9364     5.99   0.32433  -152.03   0.12566  -103.41   0.92849    11.00
      24600   0.92648     4.36   0.30591  -151.71   0.12694  -101.57   0.93024     9.40
      24800   0.91556     3.31   0.30138  -153.63   0.11836  -101.33   0.92156     8.08
      25000   0.91986     2.02   0.28779  -152.14   0.12704  -100.86   0.92421     6.64
      25200   0.92888     1.19    0.2898  -153.82   0.12875  -105.43   0.91186     6.23
      25400   0.92506     0.91   0.27979  -154.98   0.11892  -110.36   0.92439     5.48
      25600   0.90659     0.20   0.26484  -157.32   0.11143  -108.11   0.92028     4.73
      25800   0.93395    -0.40   0.26271  -155.52   0.11226  -108.18    0.9405     3.44
      26000   0.93936    -2.13   0.25305  -157.91   0.10809  -105.58    0.9224     2.12
!  
! Device Noise Parameters
! Freq-MHz   Fmin-dB  Gopt-mag  Gopt-arg   Rn-Ohm_normalized
400	0.350	0.6784	3.83	0.2585
420	0.351	0.6785	4.37	0.2583
440	0.353	0.6786	4.89	0.2581
460	0.354	0.6787	5.42	0.2579
480	0.355	0.6788	5.94	0.2577
500	0.356	0.6789	6.45	0.2575
550	0.359	0.6791	7.73	0.2569
600	0.361	0.6792	8.98	0.2563
650	0.364	0.6793	10.21	0.2556
700	0.367	0.6794	11.42	0.2549
750	0.370	0.6794	12.61	0.2542
800	0.373	0.6792	13.78	0.2534
850	0.376	0.6791	14.94	0.2525
900	0.379	0.6788	16.08	0.2516
950	0.382	0.6784	17.20	0.2507
1000	0.385	0.6779	18.30	0.2497
1050	0.388	0.6773	19.40	0.2487
1100	0.391	0.6767	20.48	0.2476
1150	0.394	0.6759	21.55	0.2465
1200	0.398	0.6750	22.60	0.2454
1250	0.401	0.6740	23.65	0.2442
1300	0.404	0.6728	24.68	0.2430
1350	0.407	0.6716	25.71	0.2418
1400	0.411	0.6703	26.73	0.2405
1450	0.414	0.6688	27.74	0.2392
1500	0.418	0.6672	28.74	0.2378
1550	0.421	0.6656	29.74	0.2364
1600	0.425	0.6638	30.73	0.2350
1650	0.428	0.6619	31.71	0.2336
1700	0.432	0.6599	32.69	0.2321
1750	0.435	0.6578	33.67	0.2306
1800	0.439	0.6556	34.64	0.2290
1850	0.442	0.6533	35.62	0.2275
1900	0.446	0.6509	36.58	0.2259
1950	0.450	0.6484	37.55	0.2242
2000	0.454	0.6458	38.51	0.2226
2050	0.457	0.6431	39.48	0.2209
2100	0.461	0.6403	40.44	0.2192
2150	0.465	0.6375	41.41	0.2175
2200	0.469	0.6345	42.37	0.2157
2250	0.473	0.6315	43.34	0.2139
2300	0.477	0.6284	44.30	0.2121
2350	0.481	0.6253	45.27	0.2103
2400	0.485	0.6221	46.24	0.2085
2450	0.489	0.6188	47.22	0.2066
2500	0.493	0.6154	48.19	0.2047
2600	0.501	0.6086	50.16	0.2009
2700	0.510	0.6016	52.14	0.1970
2800	0.518	0.5944	54.14	0.1931
2900	0.527	0.5871	56.16	0.1891
3000	0.536	0.5797	58.21	0.1850
3100	0.545	0.5723	60.28	0.1809
3200	0.554	0.5648	62.38	0.1768
3300	0.563	0.5573	64.51	0.1726
3400	0.572	0.5499	66.68	0.1684
3500	0.582	0.5426	68.87	0.1642
3600	0.591	0.5353	71.10	0.1600
3700	0.601	0.5282	73.36	0.1557
3800	0.611	0.5213	75.65	0.1515
3900	0.621	0.5145	77.98	0.1473
4000	0.631	0.5079	80.34	0.1430
4100	0.641	0.5016	82.73	0.1388
4200	0.652	0.4956	85.16	0.1346
4300	0.662	0.4898	87.61	0.1304
4400	0.673	0.4843	90.09	0.1263
4500	0.684	0.4792	92.60	0.1222
4600	0.695	0.4743	95.13	0.1182
4700	0.706	0.4698	97.69	0.1142
4800	0.717	0.4657	100.26	0.1102
4900	0.729	0.4619	102.84	0.1063
5000	0.740	0.4584	105.44	0.1025
5200	0.764	0.4525	110.65	0.0952
5400	0.788	0.4480	115.87	0.0881
5600	0.812	0.4447	121.07	0.0815
5800	0.837	0.4426	126.22	0.0753
6000	0.863	0.4415	131.31	0.0696
6200	0.889	0.4414	136.33	0.0644
6400	0.916	0.4419	141.25	0.0598
7000	0.999	0.4467	155.47	0.0500
7200	1.028	0.4489	160.04	0.0483
7400	1.057	0.4512	164.54	0.0473
7600	1.087	0.4536	168.98	0.0473
7800	1.117	0.4561	173.36	0.0481
8000	1.148	0.4585	177.70	0.0500
8200	1.180	0.4611	-177.98	0.0528
8400	1.212	0.4636	-173.69	0.0567
8600	1.245	0.4664	-169.42	0.0618
8800	1.278	0.4692	-165.15	0.0679
9000	1.311	0.4724	-160.90	0.0753
9200	1.346	0.4759	-156.65	0.0840
9400	1.380	0.4799	-152.43	0.0939
9600	1.416	0.4843	-148.22	0.1052
9800	1.452	0.4894	-144.05	0.1179
10000	1.488	0.4951	-139.93	0.1321
10200	1.525	0.5015	-135.87	0.1477
10400	1.562	0.5086	-131.88	0.1649
10600	1.600	0.5164	-128.00	0.1837
10800	1.639	0.5248	-124.22	0.2041
11000	1.678	0.5338	-120.58	0.2262
11200	1.718	0.5432	-117.08	0.2500
11400	1.758	0.5529	-113.74	0.2756
11600	1.799	0.5627	-110.57	0.3031
11800	1.840	0.5725	-107.59	0.3324
12000	1.882	0.5819	-104.79	0.3636
12200	1.924	0.5908	-102.19	0.3969
12400	1.967	0.5989	-99.80	0.4321
12600	2.010	0.6059	-97.62	0.4694
12800	2.054	0.6115	-95.66	0.5088
13000	2.099	0.6154	-93.93	0.5504
13200	2.144	0.6173	-92.45	0.5942