! Filename:  P:\Prog\Test\Noise\ATS_data\Testdata_Net\Split files Spar\BFU725F_CS1566_A2_2V_2mA_25mA_Bias6_D.s2p
! Date/Time: Mon 09/Aug/2010 10:50:50
! BFU725F_CS1566_A2_2V_2mA_25mA_Bias6_R.s2p
! MDIF S-parameter v. bias file
! BFU725F_CS1566_A2_2V_2mA_25mA
! Date/time Mon Jul 19 09:57:02 2010
! VAR V_out= 2.0002
! VAR I_out= 14.9800
! VAR V_in= 0.8325
! VAR I_in= 0.0502
! Device data file deembeded for feedlines and parallel
! Original file: \Split files Spar\BFU725F_CS1566_A2_2V_2mA_25mA_Bias6_R.s2p
! Feed-files: PR003V01_101208_Feed1.s2p, PR003V01_101208_Feed2.s2p
! Parallel-file: PR003V01_101208_Par.s2p
# MHz S MA R 50
!  Freq-MHz   S11-mag  S11-arg   S21-mag  S21-arg   S12-mag  S12-arg   S22-mag  S22-arg
         40   0.88135    -3.18    30.996   177.18 0.0017643    86.27   0.99401    -1.53
         50   0.88583    -4.85    31.332   175.21 0.0021253    64.49   0.99631    -2.21
         60   0.87654    -4.88    30.597   176.32 0.0022241    87.75   0.99547    -2.76
         70    0.8814    -5.72    30.861   175.64 0.0029535    85.72   0.99552    -3.35
         80   0.88109    -6.57    30.861   175.02 0.0033527    86.23   0.99528    -3.94
         90    0.8814    -7.38    30.885   174.42 0.0038039    85.53   0.99459    -4.52
        100   0.88034    -8.05    30.825   174.07 0.0041654    84.56   0.99403    -5.08
        120   0.87876    -9.82    30.798   172.72 0.0050245    84.72   0.99255    -6.20
        140   0.87816   -11.44    30.746   171.54 0.0059556    83.37   0.99092    -7.32
        160    0.8759   -13.07    30.598   170.46 0.0067786    82.67   0.98843    -8.39
        180   0.87466   -14.62    30.492   169.28 0.0075608    81.65   0.98621    -9.46
        200    0.8734   -16.29    30.418   168.05 0.0083942    80.66   0.98365   -10.54
        220   0.87006   -17.88    30.426   166.73 0.0092851    80.24   0.98028   -11.59
        240   0.86792   -19.47    30.311   165.53  0.010009    78.97    0.9767   -12.63
        260   0.86508   -21.08    30.173   164.23  0.010824    78.88    0.9735   -13.67
        280   0.86235   -22.64    30.115   163.10  0.011569    77.47    0.9695   -14.70
        300   0.86154   -24.24    29.968   162.11  0.012454    76.86   0.96569   -15.71
        320   0.85702   -25.78    29.832   160.98   0.01318    76.13     0.961   -16.73
        340   0.85432   -27.36    29.692   159.79  0.013838    75.02    0.9568   -17.73
        360   0.85081   -28.82    29.543   158.68  0.014628    74.39   0.95205   -18.73
        380   0.84706   -30.43    29.367   157.50  0.015446    73.38   0.94713   -19.72
        400   0.84538   -32.00    29.342   156.58  0.016157    72.69     0.942   -20.69
        420   0.84126   -33.61    29.117   155.33  0.016831    71.94   0.93702   -21.64
        440   0.83722   -35.02    28.948   154.30  0.017581    71.26   0.93174   -22.60
        460   0.83212   -36.49    28.753   153.20  0.018234    70.49    0.9264   -23.55
        480    0.8272   -38.01    28.585   152.07  0.018975    69.67   0.92077   -24.51
        500   0.82437   -39.50    28.373   151.07   0.01966    68.89   0.91482   -25.43
        550   0.81343   -43.07    27.968   148.40  0.021278    66.92   0.89922   -27.75
        600   0.80123   -46.58    27.448   145.85  0.022809    65.22   0.88289   -29.88
        650   0.79372   -50.09    26.967   143.57  0.024297    63.51   0.86747   -32.01
        700   0.78183   -53.47     26.45   141.13    0.0257    61.93   0.84979   -34.12
        750   0.76918   -56.90    25.912   138.77  0.027011    60.37   0.83218   -36.05
        800   0.75799   -60.05    25.379   136.55  0.028232    58.90   0.81554   -37.94
        850   0.74492   -63.10    24.813   134.36  0.029467    57.36   0.79873   -39.77
        900   0.73574   -66.27    24.319   132.26   0.03064    56.18   0.78213   -41.54
        950   0.72442   -69.29    23.776   130.21  0.031709    54.67   0.76574   -43.28
       1000   0.71323   -72.19    23.293   128.26  0.032679    53.57    0.7497   -44.94
       1050   0.70334   -75.04    22.803   126.38  0.033663    52.47   0.73339   -46.56
       1100   0.69447   -77.76      22.3   124.55  0.034592    51.33   0.71737   -48.08
       1150   0.68408   -80.54    21.815   122.74  0.035469    50.29   0.70189   -49.54
       1200   0.67298   -83.06    21.345   121.03  0.036352    49.15   0.68636   -51.03
       1250   0.66355   -85.78    20.886   119.29  0.037101    48.17   0.67106   -52.45
       1300   0.65506   -88.24    20.423   117.72  0.037793    47.33   0.65661   -53.77
       1350   0.64769   -90.73    20.005   116.08  0.038571    46.41   0.64259   -55.11
       1400   0.63799   -93.17    19.573   114.50  0.039196    45.62   0.62854   -56.43
       1450   0.62993   -95.65    19.151   112.95  0.039869    44.78   0.61531   -57.65
       1500   0.62163   -97.83    18.731   111.54  0.040477    44.05   0.60188   -58.81
       1550   0.61688   -99.99     18.36   110.15  0.041033    43.28   0.58941   -59.94
       1600   0.60749  -102.31    17.964   108.71  0.041639    42.62   0.57667   -61.11
       1650   0.60002  -104.38    17.594   107.40  0.042105    41.99   0.56407   -62.22
       1700   0.59384  -106.53    17.239   106.00  0.042624    41.34   0.55239   -63.22
       1750   0.58818  -108.59    16.878   104.70  0.043084    40.79   0.54119   -64.25
       1800   0.58329  -110.67    16.551   103.45  0.043652    40.16   0.53017   -65.19
       1850   0.57632  -112.55    16.216   102.21  0.044099    39.69   0.51915   -66.24
       1900   0.57101  -114.44    15.905   101.04  0.044548    39.11   0.50931   -67.17
       1950   0.56585  -116.41    15.599    99.87  0.045051    38.61   0.49972   -68.13
       2000    0.5598  -118.33    15.279    98.67  0.045378    38.09   0.49005   -69.10
       2050    0.5572  -120.12    14.993    97.49   0.04577    37.63   0.48097   -69.98
       2100   0.55175  -121.66    14.712    96.44  0.046149    37.28    0.4718   -70.99
       2150   0.54754  -123.54    14.425    95.35  0.046516    36.86   0.46198   -71.90
       2200   0.54343  -125.28    14.176    94.33  0.046925    36.45   0.45276   -72.56
       2250   0.53777  -126.93    13.904    93.27  0.047347    36.11   0.44498   -73.49
       2300   0.53392  -128.65    13.647    92.25  0.047711    35.56   0.43704   -74.48
       2350   0.53073  -130.06    13.365    91.28  0.047967    35.34   0.42909   -75.53
       2400   0.53005  -131.53    13.123    90.41  0.048306    35.14   0.42002   -76.52
       2450   0.52801  -133.39     12.91    89.59  0.048738    34.89   0.41035   -77.26
       2500   0.52058  -135.00    12.716    88.59  0.049168    34.55   0.40228   -77.80
       2600   0.51673  -137.86    12.299    86.73  0.049757    33.84   0.38737   -79.26
       2700   0.51331  -140.92    11.901    84.95  0.050322    33.35   0.37295   -80.49
       2800   0.50722  -143.91    11.526    83.33  0.051087    32.96   0.36039   -81.92
       2900   0.50027  -146.42    11.202    81.66  0.051627    32.35   0.34822   -83.07
       3000   0.49739  -148.74    10.867    79.98  0.052346    31.94   0.33924   -84.43
       3100   0.49625  -151.36    10.562    78.39  0.052872    31.46   0.32877   -86.00
       3200   0.49357  -153.81    10.266    76.87  0.053454    31.08   0.31804   -87.48
       3300   0.49246  -156.40    9.9911    75.36  0.053993    30.77   0.30728   -89.06
       3400   0.49012  -158.68    9.7461    73.80  0.054696    30.50   0.29776   -90.59
       3500    0.4885  -161.10    9.4933    72.23  0.055386    30.14   0.28873   -91.85
       3600    0.4859  -163.27    9.2489    70.80  0.055905    29.85   0.27986   -93.20
       3700   0.48585  -165.35    9.0337    69.29  0.056547    29.59   0.27087   -94.48
       3800   0.48455  -167.72    8.8144    67.82  0.057282    29.21   0.26309   -96.29
       3900   0.48466  -169.72    8.6095    66.40  0.057978    29.09   0.25654   -97.86
       4000   0.48351  -171.99    8.4035    64.93  0.058604    28.52   0.24885   -99.45
       4100   0.48479  -173.85    8.2131    63.56  0.059178    28.39   0.24007  -100.81
       4200   0.48329  -176.09    8.0307    62.19  0.059751    28.11   0.23204  -102.53
       4300   0.48334  -177.79    7.8532    60.76  0.060513    27.95   0.22709  -104.23
       4400   0.48298  -179.92    7.6888    59.45  0.061253    27.50   0.22104  -105.79
       4500   0.48203   178.50    7.5292    58.11  0.061973    27.31   0.21416  -107.13
       4600   0.48417   176.56    7.3628    56.74   0.06263    26.97    0.2078  -108.98
       4700   0.48511   174.81    7.2159    55.40  0.063223    26.78   0.20286  -110.99
       4800   0.48533   172.99    7.0687    54.13   0.06388    26.44   0.19813  -112.77
       4900    0.4848   171.36    6.9315    52.76  0.064529    26.18   0.19255  -114.38
       5000   0.48672   169.55    6.7976    51.53  0.065394    25.85   0.18734  -116.51
       5200   0.48946   166.31    6.5394    49.02  0.066766    25.41   0.17847  -120.69
       5400   0.49155   163.03    6.3073    46.45  0.068334    24.70   0.16977  -124.72
       5600   0.49478   160.04    6.0777    44.02  0.069671    24.21   0.16176  -129.30
       5800     0.497   157.17    5.8728    41.51  0.071266    23.54   0.15553  -133.94
       6000   0.50107   154.17    5.6731    39.17  0.072682    22.97   0.14948  -138.95
       6200    0.5043   151.41    5.4925    36.79  0.074103    22.32   0.14459  -144.59
       6400   0.50971   148.55     5.309    34.42  0.075669    21.55   0.14081  -150.18
       6600   0.51405   145.82    5.1414    32.09  0.077099    20.95   0.13701  -156.38
       6800   0.51789   143.37    4.9953    29.83  0.078807    20.10   0.13508  -162.33
       7000   0.52328   140.88     4.848    27.62  0.080315    19.45   0.13417  -168.04
       7200   0.52949   138.70    4.7177    25.23  0.082198    18.83   0.13442  -174.60
       7400   0.53432   136.28    4.5895    23.11  0.083954    17.87    0.1339  -178.93
       7600   0.54047   133.81    4.4666    20.53  0.085673    17.11   0.13894   174.01
       7800   0.54437   131.27    4.3343    18.40  0.087215    16.18   0.14003   168.92
       8000   0.55289   128.91    4.2453    16.04  0.089059    15.42    0.1465   163.41
       8200    0.5609   126.67    4.1307    13.78  0.090903    14.47   0.15162   158.16
       8400    0.5674   124.61    4.0357    11.65   0.09266    13.60   0.15578   154.25
       8600   0.57427   122.49    3.9345     8.98  0.094474    12.47   0.16388   149.29
       8800      0.58   119.99    3.8161     6.67  0.096409    11.36   0.17296   145.43
       9000   0.58408   118.36    3.7135     5.02    0.0979    10.63   0.18003   140.62
       9200   0.59117   116.23     3.659     2.75    0.1003     9.40   0.18615   138.24
       9400    0.6009   114.04    3.5757     0.32    0.1017     8.18   0.19572   134.43
       9600   0.60738   111.86    3.4968    -2.13   0.10315     7.05   0.20728   130.95
       9800    0.6122   109.59    3.3892    -4.02   0.10452     6.23   0.21104   127.67
      10000   0.61884   108.01    3.3328    -6.45   0.10754     5.32   0.22778   125.60
      10200   0.62922   105.55    3.2409    -8.77   0.10916     3.63    0.2417   121.88
      10400   0.63295   103.82    3.1579   -10.86   0.11053     2.48   0.25161   117.66
      10600   0.63548   101.84    3.0807   -12.80   0.11243     1.21   0.26217   115.29
      10800   0.64067   100.25    3.0251   -14.55   0.11393     0.02   0.26956   111.91
      11000   0.64483    98.43    2.9811   -16.72   0.11535    -1.29   0.28107   110.27
      11200   0.65898    97.48    2.9557   -19.03    0.1173    -1.69   0.28714   108.50
      11400   0.67158    95.01    2.8661   -22.00   0.11989    -3.62   0.30708   106.83
      11600   0.67992    93.16    2.7893   -24.04   0.12118    -5.22   0.32017   104.03
      11800   0.68523    91.47    2.7187   -26.13   0.12249    -6.70   0.33415   101.41
      12000    0.6888    90.06    2.6632   -27.89   0.12312    -8.00   0.34896    98.90
      12200   0.70308    88.53    2.6282   -29.90   0.12408    -8.93   0.35772    96.06
      12400   0.71214    86.27    2.5798   -32.57   0.12698    -9.97   0.36956    94.37
      12600   0.72293    84.25    2.5053   -34.84   0.12879   -11.72   0.37866    92.11
      12800    0.7321    82.68    2.4468   -36.65   0.13025   -13.26   0.39479    90.62
      13000   0.73897    80.93     2.406   -38.86   0.13225   -14.90   0.40281    88.26
      13200   0.74408    79.82    2.3559   -40.60   0.13363   -16.68   0.41732    86.71
      13400   0.74923    77.96    2.3302   -42.91    0.1348   -18.30   0.42893    84.76
      13600    0.7553    75.91    2.2693   -45.24   0.13564   -20.02    0.4437    83.13
      13800   0.75992    73.86     2.212   -47.44   0.13657   -21.24   0.45669    81.02
      14000   0.77091    72.28    2.1655   -49.35   0.13719   -23.15   0.47217    79.16
      14200   0.77999    70.68    2.1333   -51.39   0.13618   -24.28    0.4863    76.64
      14400   0.78426    68.48    2.0878   -53.95   0.13741   -25.29   0.49482    75.09
      14600   0.78792    67.05    2.0411   -55.66   0.13864   -26.53    0.5097    73.21
      14800   0.79209    65.25    1.9942   -57.74   0.14044   -27.59   0.52001    71.55
      15000   0.80055    64.02    1.9458   -59.62   0.14218   -29.70   0.53507    69.98
      15200   0.80655    62.52    1.9195   -61.52   0.14292   -31.51   0.54518    68.37
      15400   0.81618    61.05    1.8842   -63.75    0.1426   -33.21   0.56244    66.63
      15600   0.81878    59.92    1.8555   -65.75   0.14375   -34.87   0.57086    64.88
      15800   0.82914    58.02    1.8183   -68.20   0.14298   -36.78   0.58799    62.98
      16000   0.83111    56.62    1.7737   -70.43   0.14264   -38.22   0.59547    61.15
      16200   0.84117    55.10    1.7395   -72.11   0.14185   -39.60   0.60864    58.99
      16400   0.85009    53.37       1.7   -74.58   0.14187   -40.66   0.61373    57.11
      16600   0.85225    51.99    1.6671   -76.51   0.14152   -42.18   0.62094    55.71
      16800   0.86116    50.72    1.6259   -78.87   0.14028   -43.01   0.62884    53.76
      17000   0.85997    49.18     1.591   -80.56   0.14083   -44.14   0.64029    52.99
      17200   0.86161    47.74     1.549   -82.85   0.14226   -44.68   0.64774    50.76
      17400   0.86672    45.93     1.524   -84.53   0.14257   -46.54   0.65806    49.61
      17600   0.87229    43.84    1.4901   -86.83   0.14253   -46.38   0.66823    47.46
      17800   0.86619    42.66    1.4535   -88.65   0.14719   -48.08   0.67069    45.45
      18000   0.88077    41.65    1.4069   -90.50   0.14722   -49.28    0.6676    44.00
      18200   0.88704    40.08    1.3973   -92.52   0.14785   -52.51   0.67827    42.86
      18400   0.89253    39.15    1.3455   -94.68   0.14492   -52.48   0.67855    41.50
      18600   0.88447    38.08      1.32   -96.02   0.14801   -53.92   0.68647    40.52
      18800   0.90091    36.63     1.276   -98.36   0.14638   -55.72   0.68945    38.92
      19000   0.91132    34.72    1.2465   -99.62   0.14572   -56.55    0.6908    38.69
      19200   0.91458    32.86    1.2092  -101.03   0.14725   -56.37    0.7035    37.29
      19400   0.91086    31.73    1.1879  -102.43   0.15285   -59.18   0.70303    36.75
      19600   0.92497    30.70    1.1747  -104.31   0.14936   -61.44   0.71852    35.35
      19800   0.93312    29.28    1.1522  -106.37   0.14602   -62.01   0.72402    34.12
      20000   0.92372    27.37    1.1119  -108.01   0.14807   -61.99   0.72545    32.70
      20200   0.92493    26.02    1.0979  -109.36   0.14979   -61.76    0.7259    32.06
      20400   0.92675    24.62    1.0734  -110.68   0.15894   -63.97   0.73452    31.78
      20600   0.93338    22.66    1.0557  -112.29   0.16135   -66.88   0.74207    31.39
      20800   0.91374    21.32      1.03  -114.13   0.16574   -69.13   0.76337    30.20
      21000   0.91484    20.87    1.0217  -115.92   0.16357   -72.76    0.7757    28.50
      21200   0.91897    19.64   0.99348  -117.68   0.16471   -75.47   0.78362    27.61
      21400   0.90748    18.38   0.98014  -119.18   0.16499   -76.49   0.78662    25.71
      21600   0.89882    17.15   0.94821  -121.38   0.16223   -81.26   0.79108    24.47
      21800   0.89437    17.14   0.93224  -122.30   0.15968   -82.50   0.78898    23.90
      22000   0.90768    16.03    0.9049  -124.41   0.15567   -86.73    0.8016    22.83
      22200   0.90771    14.73   0.89267  -125.59   0.15048   -86.09   0.80076    22.00
      22400   0.91173    13.73   0.85795  -127.46   0.14602   -86.67   0.80793    21.29
      22600   0.91024    13.12   0.86804  -127.66   0.14587   -88.61   0.82391    21.02
      22800   0.92451    12.45   0.84586  -130.66    0.1451   -87.39   0.83554    19.16
      23000   0.92886    11.46   0.84361  -131.07   0.15029   -88.72   0.84367    18.37
      23200    0.9402    10.13   0.81918  -135.60   0.14904   -91.48    0.8443    16.39
      23400   0.94046     8.44   0.80601  -135.85   0.14532   -94.04   0.85252    16.22
      23600   0.93914     7.35   0.78366  -139.01   0.14103   -94.96   0.85859    14.48
      23800   0.93485     5.94   0.74927  -138.89   0.13747   -94.75   0.86474    13.87
      24000   0.93728     4.55   0.74297  -142.34   0.13862   -96.38   0.88001    11.98
      24200   0.95975     3.74   0.71087  -142.83   0.13901   -97.57   0.87884    10.37
      24400   0.93926     3.43   0.69946  -146.04   0.13193  -102.10   0.88395     9.12
      24600   0.93017     1.68   0.66436  -145.78   0.13393  -100.49   0.88763     7.45
      24800   0.92091     0.76   0.66362  -147.96   0.12534  -100.12   0.87916     6.03
      25000   0.92458    -0.45   0.62901  -148.01   0.13374   -99.96   0.88135     4.79
      25200   0.93486    -0.98   0.62349  -149.44   0.13459  -104.03     0.872     4.51
      25400   0.93624    -1.66   0.59517  -150.30   0.12499  -108.69    0.8883     3.74
      25600   0.91274    -2.30   0.58285  -151.61   0.11765  -106.40   0.88341     2.83
      25800   0.93794    -3.03   0.57513  -151.90   0.11929  -106.59   0.90535     1.66
      26000   0.94722    -4.92   0.56945  -153.36   0.11538  -103.97   0.88627     0.25

!  
! Device Noise Parameters
! Freq-MHz   Fmin-dB  Gopt-mag  Gopt-arg   Rn-Ohm_normalized
500	0.7396	0.2033	-14.16	0.1230
550	0.7406	0.2018	-12.42	0.1228
600	0.7415	0.2004	-10.71	0.1227
650	0.7425	0.1990	-9.01	0.1225
700	0.7434	0.1978	-7.34	0.1223
750	0.7444	0.1967	-5.69	0.1221
800	0.7454	0.1956	-4.06	0.1219
850	0.7464	0.1945	-2.46	0.1217
900	0.7474	0.1936	-0.88	0.1214
950	0.7485	0.1926	0.68	0.1212
1000	0.7495	0.1917	2.21	0.1210
1050	0.7506	0.1909	3.72	0.1207
1100	0.7517	0.1901	5.20	0.1204
1150	0.7528	0.1893	6.67	0.1201
1200	0.7539	0.1885	8.11	0.1199
1250	0.7550	0.1877	9.53	0.1196
1300	0.7561	0.1869	10.92	0.1193
1350	0.7573	0.1862	12.30	0.1189
1400	0.7584	0.1854	13.66	0.1186
1450	0.7596	0.1847	14.99	0.1183
1500	0.7608	0.1839	16.31	0.1180
1550	0.7620	0.1831	17.61	0.1176
1600	0.7632	0.1823	18.90	0.1173
1650	0.7644	0.1815	20.17	0.1169
1700	0.7656	0.1807	21.42	0.1165
1750	0.7669	0.1798	22.66	0.1162
1800	0.7681	0.1790	23.88	0.1158
1850	0.7694	0.1781	25.10	0.1154
1900	0.7707	0.1772	26.30	0.1150
1950	0.7720	0.1762	27.49	0.1146
2000	0.7733	0.1753	28.67	0.1142
2050	0.7747	0.1743	29.84	0.1138
2100	0.7760	0.1732	31.00	0.1134
2150	0.7774	0.1722	32.16	0.1130
2200	0.7787	0.1711	33.31	0.1126
2250	0.7801	0.1700	34.46	0.1121
2300	0.7815	0.1688	35.60	0.1117
2350	0.7829	0.1677	36.74	0.1113
2400	0.7843	0.1664	37.87	0.1108
2450	0.7858	0.1652	39.01	0.1104
2500	0.7872	0.1639	40.14	0.1100
2600	0.7902	0.1613	42.41	0.1091
2700	0.7931	0.1585	44.69	0.1082
2800	0.7962	0.1557	46.99	0.1073
2900	0.7993	0.1527	49.31	0.1063
3000	0.8024	0.1497	51.67	0.1054
3100	0.8056	0.1465	54.07	0.1045
3200	0.8089	0.1433	56.52	0.1036
3300	0.8122	0.1401	59.04	0.1027
3400	0.8156	0.1368	61.62	0.1018
3500	0.8190	0.1335	64.29	0.1008
3600	0.8225	0.1301	67.05	0.0999
3700	0.8260	0.1268	69.91	0.0991
3800	0.8296	0.1235	72.88	0.0982
3900	0.8332	0.1203	75.97	0.0973
4000	0.8369	0.1172	79.19	0.0965
4100	0.8406	0.1141	82.56	0.0956
4200	0.8444	0.1112	86.07	0.0948
4300	0.8483	0.1085	89.74	0.0940
4400	0.8521	0.1060	93.56	0.0932
4500	0.8561	0.1037	97.54	0.0925
4600	0.8601	0.1017	101.68	0.0918
4700	0.8642	0.1000	105.95	0.0911
4800	0.8683	0.0986	110.36	0.0904
4900	0.8724	0.0976	114.87	0.0898
5000	0.8766	0.0969	119.46	0.0892
5200	0.8852	0.0968	128.78	0.0881
5400	0.8940	0.0983	138.04	0.0871
5600	0.9031	0.1014	147.00	0.0864
5800	0.9123	0.1059	155.44	0.0858
6000	0.9217	0.1117	163.27	0.0854
6200	0.9314	0.1187	170.43	0.0852
6400	0.9413	0.1264	176.94	0.0853
6600	0.9513	0.1349	-177.13	0.0856
6800	0.9616	0.1438	-171.73	0.0862
7000	0.9721	0.1532	-166.78	0.0870
7200	0.9829	0.1628	-162.21	0.0882
7400	0.9938	0.1726	-157.96	0.0896
7600	1.0049	0.1825	-153.99	0.0914
7800	1.0163	0.1924	-150.24	0.0934
8000	1.0279	0.2024	-146.67	0.0959
8200	1.0397	0.2123	-143.27	0.0987
8400	1.0517	0.2222	-139.99	0.1019
8600	1.0639	0.2320	-136.82	0.1055
8800	1.0763	0.2418	-133.74	0.1094
9000	1.0889	0.2515	-130.74	0.1139
9200	1.1018	0.2612	-127.80	0.1187
9400	1.1148	0.2708	-124.91	0.1240
9600	1.1281	0.2804	-122.07	0.1298
9800	1.1416	0.2899	-119.27	0.1360
10000	1.1553	0.2994	-116.50	0.1428
10200	1.1692	0.3090	-113.76	0.1500
10400	1.1834	0.3185	-111.06	0.1578
10600	1.1977	0.3282	-108.38	0.1662
10800	1.2123	0.3378	-105.73	0.1751
11000	1.2270	0.3476	-103.11	0.1845
11200	1.2420	0.3574	-100.52	0.1946
11400	1.2572	0.3673	-97.96	0.2052
11600	1.2726	0.3774	-95.43	0.2165
11800	1.2882	0.3875	-92.93	0.2284
12000	1.3040	0.3977	-90.48	0.2409
12200	1.3201	0.4081	-88.06	0.2541
12400	1.3363	0.4185	-85.68	0.2680
12600	1.3528	0.4290	-83.34	0.2826
12800	1.3695	0.4396	-81.05	0.2979
13000	1.3864	0.4501	-78.80	0.3139
13200	1.4035	0.4607	-76.61	0.3306
13400	1.4208	0.4712	-74.45	0.3481
13600	1.4384	0.4816	-72.35	0.3663
13800	1.4561	0.4919	-70.30	0.3853
14000	1.4741	0.5020	-68.30	0.4052
14200	1.4922	0.5118	-66.34	0.4258
14400	1.5106	0.5213	-64.44	0.4473
14600	1.5292	0.5304	-62.58	0.4696
14800	1.5480	0.5390	-60.77	0.4927
15200	1.5863	0.5544	-57.29	0.5416
15400	1.6058	0.5611	-55.62	0.5674
15600	1.6254	0.5670	-53.99	0.5941
15800	1.6453	0.5719	-52.39	0.6218
16000	1.6654	0.5758	-50.84	0.6504
