! Filename:  P:\Prog\Test\Noise\ATS_data\Testdata_Net\Split files Spar\BFU725F_N1_A2_CS1566_wafer5_Bias6_1.5V_2mA_25mA_D.s2p
! Date/Time: Fri 17/Sep/2010 16:49:10
! BFU725F_N1_A2_CS1566_wafer5_Bias6_1.5V_2mA_25mA_R.s2p
! MDIF S-parameter v. bias file
! BFU725F_N1_A2_CS1566_wafer5_1.5V_2mA_25mA
! Date/time Thu Sep 16 13:48:35 2010
! VAR V_out= 1.5001
! VAR I_out= 19.9900
! VAR V_in= 0.8506
! VAR I_in= 0.0686
! Device data file deembeded for feedlines and parallel
! Original file: \Split files Spar\BFU725F_N1_A2_CS1566_wafer5_Bias6_1.5V_2mA_25mA_R.s2p
! Feed-files: PR003V01_101208_Feed1.s2p, PR003V01_101208_Feed2.s2p
! Parallel-file: PR003V01_101208_Par.s2p
# MHz S MA R 50
!  Freq-MHz   S11-mag  S11-arg   S21-mag  S21-arg   S12-mag  S12-arg   S22-mag  S22-arg
         40    0.8488    -3.90    35.518   176.82 0.0018057    84.61   0.98823    -1.56
         50   0.84601    -4.97    35.602   175.95 0.0023484    84.75   0.98965    -2.43
         60   0.84847    -5.84    35.627   175.39 0.0026853    84.12   0.99116    -3.09
         70   0.84816    -6.83    35.578   174.74 0.0030944    85.61   0.99116    -3.83
         80   0.84682    -7.84    35.599   173.99 0.0035236    84.97   0.99062    -4.55
         90    0.8468    -8.91    35.645   173.29 0.0039646    84.06   0.98978    -5.25
        100   0.84593    -9.90    35.634   172.66 0.0043664    84.20   0.98916    -5.91
        120   0.84439   -11.87    35.515   171.25 0.0052656    83.29   0.98729    -7.26
        140   0.84346   -13.85    35.494   169.87 0.0061167    82.21   0.98473    -8.58
        160   0.84046   -15.76    35.317   168.53 0.0069406    81.13   0.98154    -9.85
        180   0.83908   -17.70    35.238   167.18 0.0078133    80.34   0.97808   -11.13
        200   0.83626   -19.61    35.092   165.78 0.0086075    79.48   0.97418   -12.38
        220   0.83412   -21.53    34.967   164.47 0.0094483    78.46   0.96971   -13.64
        240   0.83052   -23.43    34.828   163.14  0.010263    77.57    0.9651   -14.85
        260   0.82755   -25.29    34.643   161.85  0.011039    76.59   0.96021   -16.05
        280   0.82487   -27.14    34.518   160.54  0.011835    75.61   0.95516   -17.26
        300   0.82017   -29.04    34.277   159.21  0.012611    74.75   0.94977   -18.43
        320   0.81673   -30.78    34.059   157.98  0.013388    73.87   0.94419   -19.62
        340   0.81332   -32.61    33.859   156.74  0.014117    72.96   0.93836   -20.76
        360   0.80943   -34.41    33.607   155.51  0.014859    72.05   0.93255   -21.91
        380   0.80538   -36.23    33.365   154.23  0.015597    71.17    0.9257   -23.07
        400   0.80135   -38.04    33.175   153.01   0.01631    70.35   0.91864   -24.17
        420    0.7963   -39.74    32.952   151.75  0.016996    69.41   0.91194   -25.27
        440   0.79213   -41.47    32.705   150.57  0.017687    68.59   0.90477   -26.38
        460   0.78746   -43.20    32.498   149.39  0.018342    67.78   0.89751   -27.45
        480   0.78284   -44.86    32.246   148.22  0.018994    66.94   0.88999   -28.50
        500   0.77641   -46.61    31.955   147.00  0.019621    66.18   0.88252   -29.51
        550   0.76317   -50.65    31.138   144.15  0.021161    64.30   0.86382   -32.04
        600   0.75068   -54.69    30.415   141.46  0.022614    62.46   0.84338   -34.54
        650   0.73879   -58.41    29.749   138.94  0.023982    60.70   0.82259   -36.86
        700   0.72559   -62.12    29.101   136.40  0.025214    59.01   0.80187   -39.10
        750   0.71409   -65.63    28.343   134.03  0.026384    57.50   0.78166   -41.17
        800   0.70267   -68.98    27.592   131.80  0.027492    56.10   0.76147   -43.25
        850   0.69138   -72.33    26.899   129.64  0.028562    54.77   0.74116   -45.13
        900   0.68015   -75.64    26.259   127.54   0.02958    53.51   0.72268   -46.92
        950   0.66964   -78.80    25.604   125.54  0.030505    52.33   0.70516   -48.67
       1000   0.65899   -81.94    24.973   123.57  0.031399    51.18   0.68768   -50.43
       1050   0.64932   -84.85    24.359   121.66  0.032224    50.13   0.66921   -52.11
       1100   0.64039   -87.68    23.775   119.81  0.033006    49.17   0.65153   -53.64
       1150   0.63125   -90.54    23.184   118.05  0.033756    48.23   0.63522   -55.15
       1200   0.62298   -93.37    22.596   116.32   0.03447    47.33   0.61965   -56.64
       1250   0.61434   -96.10    22.021   114.65   0.03515    46.49   0.60387   -58.09
       1300   0.60579   -98.68    21.506   113.06  0.035794    45.72   0.58852   -59.45
       1350   0.59788  -101.21    20.996   111.52  0.036392    44.99   0.57407   -60.74
       1400   0.59024  -103.65    20.503   110.02  0.036988    44.29   0.55997   -61.99
       1450   0.58332  -105.98    20.024   108.58   0.03754    43.65   0.54613   -63.20
       1500   0.57673  -108.34    19.559   107.15  0.038059    43.02   0.53272   -64.43
       1550   0.57053  -110.62    19.107   105.77  0.038545    42.43   0.51931   -65.58
       1600   0.56428  -112.83    18.664   104.43  0.039071    41.91   0.50703   -66.66
       1650   0.55829  -114.97    18.241   103.14   0.03957    41.41   0.49524   -67.75
       1700   0.55308  -117.11    17.839   101.87  0.040042    40.90   0.48392   -68.79
       1750   0.54773  -119.14    17.456   100.64  0.040514    40.43   0.47307   -69.83
       1800   0.54324  -121.18    17.091    99.41  0.040932    39.99   0.46231   -70.86
       1850   0.53855  -123.16    16.717    98.21   0.04135    39.56   0.45158   -71.86
       1900   0.53378  -125.07    16.365    97.04  0.041749    39.16   0.44154   -72.83
       1950   0.52944  -126.90    16.025    95.91  0.042152    38.84   0.43166   -73.72
       2000   0.52512  -128.73    15.691    94.81  0.042553    38.47    0.4222   -74.63
       2050   0.52092  -130.39    15.365    93.74  0.042936    38.20   0.41236   -75.50
       2100   0.51755  -132.12    15.058    92.71  0.043347    37.88   0.40355   -76.37
       2150   0.51435  -133.78    14.763    91.71  0.043729    37.61   0.39524   -77.19
       2200   0.51109  -135.40    14.475    90.70  0.044134    37.31   0.38723   -78.06
       2250   0.50801  -137.05    14.201    89.71  0.044518    37.05   0.37931   -78.87
       2300   0.50514  -138.65    13.928    88.76  0.044895    36.77   0.37166   -79.67
       2350   0.50269  -140.20    13.674    87.82  0.045277    36.56   0.36444   -80.48
       2400    0.5003  -141.71    13.424    86.88  0.045652    36.30   0.35733   -81.25
       2450   0.49801  -143.21    13.178    85.97  0.046043    36.04   0.35073   -82.03
       2500   0.49592  -144.69    12.938    85.08   0.04641    35.79   0.34393   -82.89
       2600    0.4921  -147.48    12.488    83.36  0.047114    35.37   0.33078   -84.49
       2700   0.48883  -150.17     12.07    81.71   0.04781    34.89   0.31868   -86.17
       2800   0.48541  -152.74    11.673    80.08  0.048471    34.52   0.30683   -87.76
       2900   0.48304  -155.19    11.302    78.56  0.049104    34.18   0.29557   -89.26
       3000   0.48189  -157.58    10.972    77.04  0.049722    33.85   0.28429   -90.83
       3100   0.48121  -160.02    10.655    75.49  0.050329    33.72   0.27284   -92.28
       3200   0.47998  -162.39    10.346    74.01  0.051078    33.52   0.26392   -93.65
       3300   0.47972  -164.65    10.064    72.55  0.051841    33.30   0.25605   -95.09
       3400   0.47925  -166.91    9.8021    71.09  0.052565    33.02    0.2478   -96.69
       3500   0.47918  -169.10     9.545    69.62  0.053336    32.78   0.23933   -98.31
       3600   0.47812  -171.26     9.294    68.15  0.054031    32.49   0.23152  -100.17
       3700   0.47734  -173.24    9.0615    66.76  0.054798    32.33   0.22415  -101.81
       3800   0.47739  -175.30    8.8377    65.36  0.055544    32.06   0.21696  -103.47
       3900   0.47757  -177.25    8.6169    63.99  0.056327    31.88    0.2101  -105.07
       4000   0.47771  -179.14    8.4122    62.67   0.05714    31.61   0.20338  -106.81
       4100   0.47924   178.98    8.2207    61.30  0.057922    31.31   0.19721  -108.85
       4200   0.47955   177.10    8.0311    59.96   0.05867    31.04   0.19163  -110.90
       4300   0.48027   175.35    7.8562    58.68  0.059437    30.78   0.18622  -112.69
       4400   0.48067   173.61    7.6881    57.34  0.060292    30.54   0.18057  -114.49
       4500   0.48166   171.91    7.5228    56.04  0.061072    30.22   0.17487  -116.65
       4600   0.48288   170.22    7.3619    54.75  0.061855    29.98   0.17008  -118.93
       4700   0.48427   168.52    7.2087    53.48  0.062705    29.70   0.16601  -121.07
       4800   0.48537   166.88    7.0623    52.20  0.063507    29.37   0.16209  -123.10
       4900   0.48642   165.31    6.9198    50.96  0.064349    29.10   0.15741  -125.25
       5000   0.48794   163.76    6.7829    49.68  0.065175    28.74   0.15318  -127.89
       5200    0.4918   160.67    6.5215    47.26  0.066911    28.11   0.14763  -132.80
       5400   0.49493   157.69    6.2875    44.79  0.068574    27.46   0.14073  -137.77
       5600   0.49908   154.83    6.0589    42.42  0.070264    26.80   0.13616  -143.72
       5800   0.50336   151.99     5.854    39.97  0.071959    25.98   0.13247  -149.17
       6000   0.50793   149.20    5.6487    37.59  0.073621    25.20   0.12871  -155.70
       6200   0.51189   146.54    5.4627    35.33  0.075433    24.55   0.12788  -161.40
       6400   0.51716   144.03    5.2892    32.99  0.077187    23.75   0.12637  -167.85
       6600   0.52163   141.34    5.1234    30.64  0.078951    22.81   0.12826  -174.39
       6800   0.52603   139.03     4.969    28.41  0.080811    21.99   0.12876  -179.86
       7000   0.53282   136.60    4.8179    26.09  0.082565    21.13   0.13249   173.42
       7200   0.53767   134.25    4.6792    23.92    0.0844    20.22   0.13554   168.36
       7400   0.54257   132.12    4.5482    21.78  0.086271    19.29   0.13841   162.74
       7600   0.54973   129.85    4.4364    19.43  0.088109    18.31   0.14648   158.24
       7800   0.55642   127.66    4.3092    17.20  0.089968    17.36   0.15001   153.25
       8000   0.56319   125.47    4.2088    15.10   0.09184    16.31   0.15751   149.31
       8200   0.56909   123.33    4.1003    12.60  0.093736    15.21   0.16545   145.25
       8400   0.57642   121.18    3.9831    10.41  0.095455    14.20   0.17138   140.10
       8600   0.58274   119.14    3.8858     8.11  0.097437    12.92   0.18223   137.60
       8800   0.58777   117.12    3.7741     6.11  0.099117    11.97   0.18656   134.35
       9000   0.59578   115.07    3.6818     4.06   0.10093    10.86   0.19825   130.53
       9200   0.60241   113.25    3.6112     1.94   0.10294     9.66   0.20632   127.91
       9400   0.61081   111.28    3.5384    -0.32   0.10491     8.37   0.21809   125.05
       9600   0.61815   109.26    3.4526    -2.60   0.10617     7.13   0.22837   122.04
       9800   0.62583   107.29     3.385    -4.97   0.10792     6.07   0.23533   118.82
      10000   0.63164   105.10    3.2872    -6.96   0.10951     5.33   0.24092   117.55
      10200   0.63945   103.38    3.2242    -9.41   0.11234     3.71   0.25968   115.24
      10400   0.64565   101.24    3.1403   -11.60   0.11392     2.29   0.27371   112.05
      10600   0.65047    99.46    3.0673   -13.65   0.11567     0.95   0.28297   109.59
      10800   0.65744    97.63    2.9896   -15.73   0.11735    -0.34   0.29408   106.75
      11000   0.66284    95.87    2.9302   -17.61   0.11867    -1.92   0.30515   104.64
      11200   0.66717    94.26    2.8689   -19.46   0.11946    -3.24   0.31362   101.86
      11400   0.67699    93.39    2.8683   -21.38   0.12141    -3.67    0.3201   100.84
      11600   0.69331    91.08    2.7932   -24.74   0.12427    -5.43   0.33665    99.45
      11800    0.7001    89.01    2.7165   -26.78   0.12593    -7.16   0.35175    96.86
      12000   0.70526    87.15    2.6463   -29.16   0.12702    -8.85   0.36441    95.04
      12200   0.70963    85.24    2.5792   -30.99   0.12799   -10.19   0.37706    92.31
      12400   0.71265    84.22    2.5352   -32.73   0.12919   -11.47    0.3907    90.10
      12600   0.72678    82.82    2.4847   -35.04   0.13064   -12.64   0.39685    87.72
      12800   0.73675    80.60    2.4403   -37.48   0.13274   -14.00    0.4085    86.08
      13000    0.7408    78.84    2.3745   -39.66   0.13488   -15.61   0.41533    84.55
      13200   0.74726    77.42    2.3124   -41.57   0.13653   -17.51   0.42845    82.82
      13400   0.75427    75.81    2.2647   -43.28   0.13743   -19.27   0.44243    81.71
      13600   0.76226    74.13    2.2264   -45.34   0.13785   -21.04   0.45538    79.60
      13800   0.77037    72.40    2.1862   -47.32   0.13868   -22.63   0.47215    78.00
      14000   0.78085    70.97    2.1506   -49.45   0.13888   -24.35   0.48324    75.86
      14200   0.78877    69.08    2.1066   -51.71   0.13837   -25.65   0.49845    73.67
      14400    0.7928    67.01    2.0614   -53.98   0.13889   -26.73   0.50741    72.16
      14600   0.79596    65.30    2.0078   -56.07   0.14004   -27.71   0.51866    70.07
      14800   0.79561    63.88     1.966   -57.86   0.14181   -28.88   0.52969    68.57
      15000   0.79938    62.50    1.9172   -59.93   0.14439   -30.66   0.53799    66.94
      15200   0.80738    61.17    1.8845   -61.58   0.14508   -32.71   0.55407    65.50
      15400   0.81427    59.67     1.854   -63.68   0.14521   -34.53   0.56329    64.07
      15600   0.81799    58.47    1.8142   -65.41   0.14601   -36.07   0.57879    62.09
      15800    0.8283    56.96    1.7894   -67.51   0.14564   -38.28   0.59217    60.82
      16000   0.83509    55.31    1.7565   -69.75   0.14458   -39.81   0.60399    58.39
      16200   0.84332    54.04    1.7285   -71.93   0.14362   -41.21   0.61738    56.37
      16400   0.85073    52.42    1.6895   -74.31   0.14295   -42.18   0.61722    54.26
      16600   0.85587    50.68    1.6516   -76.13   0.14344   -43.27   0.62612    52.84
      16800   0.86399    49.24    1.6222   -78.31   0.14256   -44.74   0.63444    51.35
      17000   0.86988    47.59     1.582   -80.29   0.14202   -45.67   0.64342    49.70
      17200   0.87126    46.05    1.5481   -82.41   0.14253   -46.48   0.65739    48.25
      17400   0.87809    44.19    1.5147   -84.48   0.14304   -47.34   0.66131    46.14
      17600   0.88029    42.82     1.482   -86.40   0.14365   -48.44   0.67584    44.64
      17800   0.88144    41.67    1.4465   -88.47    0.1455   -49.50   0.67547    42.62
      18000   0.88833    40.14    1.4091   -90.50   0.14703   -50.72   0.67626    40.60
      18200   0.88971    38.48    1.3709   -92.45   0.14841   -52.89   0.67644    40.17
      18400   0.89214    37.36     1.333   -93.95   0.14756   -54.45   0.68015    38.84
      18600   0.89344    36.24    1.3101   -95.46   0.14589   -55.44   0.69462    38.08
      18800   0.90269    34.48    1.2824   -97.74   0.14624   -56.39   0.69656    36.24
      19000   0.90652    32.85    1.2513   -99.47   0.14684   -56.85   0.70455    34.97
      19200   0.90547    31.25    1.2136  -101.76    0.1489   -57.72   0.70173    33.84
      19400   0.89945    29.95    1.1715  -102.63   0.15336   -59.25   0.70364    32.75
      19600   0.90112    28.93    1.1559  -103.76   0.15351   -62.02   0.71645    32.90
      19800   0.91333    27.88    1.1427  -105.36   0.15076   -63.88   0.72486    31.16
      20000   0.91797    26.25    1.1164  -107.09   0.14933   -64.22   0.73703    30.01
      20200   0.92112    24.55    1.0979  -108.68   0.15029   -65.00   0.73561    29.41
      20400   0.92233    22.82    1.0834  -110.15    0.1545   -65.84   0.75669    28.19
      20600   0.92387    20.91    1.0698  -112.48   0.15643   -67.57   0.77262    26.64
      20800   0.91223    19.43    1.0446  -114.58   0.16005   -69.09   0.76994    24.24
      21000    0.9052    18.44    1.0135  -116.04    0.1612   -71.43    0.7806    23.42
      21200   0.90571    16.93   0.99082  -118.28    0.1622   -73.47   0.77397    22.61
      21400   0.89241    15.88   0.96544  -118.75   0.16451   -75.77   0.80017    21.17
      21600   0.88758    15.50   0.95138  -121.16   0.16236   -77.96   0.79962    19.49
      21800   0.88624    14.72   0.93521  -121.89   0.16627   -78.99   0.79569    17.83
      22000   0.88998    14.05   0.92109  -123.90    0.1684   -83.77   0.80803    17.30
      22200   0.89735    13.03   0.91062  -126.12   0.16073   -86.10   0.79582    15.75
      22400   0.89529    11.89   0.88194  -126.98   0.16229   -86.62   0.81095    14.89
      22600   0.90005    11.02   0.87338  -129.64   0.15875   -90.23     0.804    13.86
      22800   0.89961    10.16   0.84917  -131.21   0.15501   -91.68   0.80673    12.33
      23000   0.89997     9.31   0.83362  -132.32   0.15457   -93.05   0.80984    12.31
      23200   0.90551     8.32   0.81053  -134.79   0.15434   -95.34   0.80669    11.07
      23400   0.90887     7.14   0.80316  -136.27   0.14919   -97.52   0.83364    10.59
      23600   0.91137     7.33   0.77231  -138.22   0.14124   -97.13   0.82723     9.49
      23800   0.91412     5.24   0.75205  -138.36   0.14186   -96.72    0.8521     7.85
      24000   0.91191     3.29   0.74805  -142.05   0.14556  -100.03   0.85777     6.80
      24200    0.9212     2.68   0.72852  -143.31   0.13973  -102.92   0.85336     4.37
      24400   0.91718     3.04   0.68671  -144.85   0.13039  -103.34   0.87138     3.84
      24600   0.92226     0.35   0.68074  -146.84   0.13119  -101.99   0.85666     1.95
      24800   0.91333    -1.35   0.65067  -146.55   0.12909  -100.42   0.86896     0.37
      25000   0.91131    -1.99    0.6362  -148.44   0.13316  -100.56   0.85548    -0.04
      25200   0.90998    -3.18   0.62619  -149.07   0.13508  -102.98    0.8643    -1.57
      25400   0.90252    -3.61   0.60003  -149.25   0.13116  -104.50   0.87222    -2.01
      25600    0.8993    -4.42   0.57835  -151.35   0.12787  -104.64   0.85951    -3.55
      25800   0.91605    -5.01   0.59266  -150.33   0.13276  -106.00   0.88384    -4.45
      26000   0.91854    -6.38   0.55938  -153.14   0.12809  -106.05   0.85665    -5.42

