! Filename:  P:\Prog\Test\Noise\ATS_data\Testdata_Net\Split files Spar\BFU725F_N1_A2_CS1566_wafer5_Bias7_1.5V_2mA_25mA_D.s2p
! Date/Time: Fri 17/Sep/2010 16:49:17
! BFU725F_N1_A2_CS1566_wafer5_Bias7_1.5V_2mA_25mA_R.s2p
! MDIF S-parameter v. bias file
! BFU725F_N1_A2_CS1566_wafer5_1.5V_2mA_25mA
! Date/time Thu Sep 16 13:48:35 2010
! VAR V_out= 1.5001
! VAR I_out= 24.9900
! VAR V_in= 0.8573
! VAR I_in= 0.0898
! Device data file deembeded for feedlines and parallel
! Original file: \Split files Spar\BFU725F_N1_A2_CS1566_wafer5_Bias7_1.5V_2mA_25mA_R.s2p
! Feed-files: PR003V01_101208_Feed1.s2p, PR003V01_101208_Feed2.s2p
! Parallel-file: PR003V01_101208_Par.s2p
# MHz S MA R 50
!  Freq-MHz   S11-mag  S11-arg   S21-mag  S21-arg   S12-mag  S12-arg   S22-mag  S22-arg
         40   0.79365    -4.72    36.485   176.89 0.0018974    83.25    0.9775    -1.55
         50   0.79083    -5.95    36.631   176.01 0.0023869    84.49   0.97942    -2.55
         60   0.79367    -7.09    36.706   175.28 0.0026872    83.03   0.98112    -3.32
         70   0.79306    -8.34    36.661   174.48 0.0032361    82.84   0.98125    -4.17
         80   0.79128    -9.61    36.696   173.58  0.003625    82.56   0.98016    -4.98
         90   0.79228   -10.85    36.816   172.77 0.0040558    81.96   0.97939    -5.76
        100    0.7906   -12.08      36.8   172.03 0.0044883    81.83   0.97876    -6.51
        120   0.78864   -14.57    36.696   170.34 0.0053573    80.85   0.97613    -8.05
        140   0.78866   -17.01    36.718   168.68 0.0062079    80.16   0.97278    -9.50
        160   0.78404   -19.33    36.451   167.17 0.0070532    79.29   0.96883   -10.93
        180   0.78283   -21.69    36.426   165.58 0.0078862    78.43    0.9639   -12.36
        200   0.78005   -24.03    36.241   164.00 0.0087112    77.51    0.9589   -13.73
        220    0.7782   -26.35    36.145   162.45 0.0095419    76.33   0.95305   -15.11
        240   0.77392   -28.73    35.946   160.90  0.010327    75.33   0.94726   -16.42
        260   0.77089   -30.87    35.766   159.49  0.011104    74.36   0.94124   -17.74
        280   0.76878   -33.08    35.674   157.97  0.011891    73.47   0.93483   -19.01
        300   0.76275   -35.38    35.296   156.54  0.012647    72.49   0.92912   -20.27
        320   0.76061   -37.34    35.145   155.16  0.013406    71.58    0.9222   -21.61
        340    0.7571   -39.61     34.85   153.72  0.014106    70.60   0.91519   -22.81
        360   0.75244   -41.70    34.516   152.37  0.014838    69.80   0.90891   -24.10
        380   0.74845   -43.80    34.214   150.96  0.015558    68.86   0.90014   -25.40
        400   0.74442   -45.88    33.989   149.65  0.016221    67.89    0.8913   -26.56
        420   0.74058   -47.76    33.788   148.29  0.016888    67.01   0.88298   -27.75
        440    0.7369   -49.85    33.484   146.93   0.01755    66.09   0.87394   -28.91
        460   0.73266   -51.81    33.297   145.64  0.018166    65.21   0.86499   -30.01
        480   0.72848   -53.67    33.029   144.37  0.018747    64.39   0.85643   -31.08
        500     0.721   -55.76     32.58   143.07  0.019316    63.61   0.84845   -32.12
        550    0.7067   -60.39    31.515   140.10  0.020756    61.83   0.82762   -34.84
        600   0.69389   -64.89     30.65   137.31   0.02215    59.97   0.80297   -37.52
        650   0.68434   -68.74    30.042   134.72  0.023396    58.12   0.77805   -39.88
        700   0.67311   -72.62    29.376   132.07  0.024444    56.48    0.7556   -42.04
        750   0.66452   -76.38    28.531   129.55  0.025492    55.16   0.73503   -44.09
        800     0.655   -79.92    27.713   127.26  0.026516    53.81   0.71281   -46.27
        850   0.64475   -83.43    26.947   125.11  0.027491    52.45   0.68886   -48.13
        900   0.63522   -86.81    26.246   123.05  0.028311    51.19   0.66869   -49.72
        950   0.62556   -90.04    25.514   121.12  0.029101    50.21    0.6518   -51.35
       1000   0.61617   -93.24    24.821   119.22  0.029868    49.23   0.63479   -53.08
       1050   0.60883   -96.05    24.215   117.34  0.030607    48.27   0.61527   -54.74
       1100   0.60245   -98.72    23.653   115.54  0.031282    47.42   0.59676   -56.17
       1150   0.59533  -101.58    23.018   113.82  0.031924    46.60   0.58062   -57.54
       1200   0.58867  -104.65    22.321   112.07  0.032512    45.87   0.56614   -58.89
       1250   0.58158  -107.45    21.691   110.47  0.033134    45.20   0.55071   -60.37
       1300   0.57442  -109.81    21.197   109.01  0.033742    44.53   0.53468   -61.72
       1350   0.56795  -112.15    20.695   107.58  0.034264    43.90   0.52038   -62.89
       1400   0.56212  -114.49    20.195   106.14  0.034772    43.33   0.50682   -64.00
       1450   0.55684  -116.73    19.714   104.75  0.035246    42.79   0.49334   -65.10
       1500   0.55171  -119.03    19.226   103.38  0.035729    42.29   0.48039   -66.27
       1550   0.54733  -121.25    18.759   102.03  0.036169    41.82   0.46738   -67.32
       1600   0.54232  -123.35    18.306   100.79  0.036619    41.42   0.45567   -68.25
       1650   0.53777  -125.44    17.871    99.56  0.037061    41.03   0.44487   -69.23
       1700   0.53384  -127.47    17.457    98.38  0.037518    40.68   0.43442   -70.23
       1750   0.52978  -129.42     17.07    97.21  0.037955    40.30   0.42405   -71.18
       1800   0.52634  -131.30    16.705    96.04  0.038338    39.94   0.41379   -72.09
       1850   0.52303  -133.19    16.324    94.91  0.038731    39.65   0.40389   -73.02
       1900   0.51933  -135.01    15.966    93.81  0.039105    39.37    0.3947   -73.94
       1950    0.5159  -136.68    15.636    92.74  0.039504    39.14   0.38542   -74.73
       2000   0.51294  -138.41    15.301    91.70  0.039902    38.86   0.37662   -75.54
       2050    0.5096  -139.98    14.977    90.69   0.04025    38.69   0.36752   -76.34
       2100    0.5071  -141.57    14.673    89.72  0.040678    38.45   0.35945   -77.12
       2150   0.50464  -143.12    14.381    88.75  0.041067    38.26   0.35176   -77.85
       2200   0.50249  -144.61    14.096    87.81  0.041437    38.06   0.34437   -78.63
       2250   0.50066  -146.15    13.825    86.87   0.04183    37.87   0.33732   -79.36
       2300    0.4984  -147.61    13.557    85.96  0.042203    37.68   0.33036   -80.10
       2350   0.49685  -149.08     13.31    85.05  0.042583    37.50   0.32368   -80.84
       2400   0.49529  -150.49    13.061    84.16  0.042975    37.35    0.3172   -81.51
       2450   0.49387  -151.89    12.809    83.29  0.043344    37.17   0.31147   -82.20
       2500   0.49264  -153.27    12.569    82.43  0.043718    36.98   0.30542   -83.00
       2600   0.48996  -155.84    12.129    80.79   0.04446    36.67   0.29337   -84.50
       2700   0.48822  -158.33    11.713    79.20  0.045174    36.34   0.28262   -86.07
       2800   0.48566  -160.70    11.324    77.65  0.045877    36.06   0.27192   -87.60
       2900   0.48462  -162.94    10.963    76.20  0.046543    35.82    0.2617   -88.99
       3000   0.48438  -165.15    10.639    74.74  0.047185    35.59   0.25139   -90.49
       3100   0.48477  -167.40    10.327    73.24  0.047843    35.53   0.24096   -91.81
       3200   0.48447  -169.58    10.024    71.81  0.048639    35.44   0.23311   -93.10
       3300   0.48498  -171.66    9.7476    70.40  0.049451    35.29    0.2261   -94.47
       3400    0.4852  -173.76    9.4893    68.99  0.050233    35.09   0.21879   -96.00
       3500   0.48583  -175.78    9.2356    67.55  0.051062    34.89   0.21107   -97.58
       3600    0.4856  -177.82    8.9908    66.14  0.051805    34.67   0.20413   -99.41
       3700   0.48547  -179.62    8.7654    64.79  0.052641    34.53   0.19746  -101.03
       3800   0.48625   178.46    8.5465    63.41  0.053436    34.34   0.19104  -102.64
       3900   0.48699   176.70    8.3329    62.09  0.054267    34.17    0.1848  -104.21
       4000   0.48757   174.94    8.1306    60.80  0.055128    33.93   0.17878  -105.91
       4100   0.48957   173.18    7.9443    59.46  0.055979    33.66   0.17331  -108.01
       4200   0.49033   171.45    7.7596    58.16  0.056786    33.41   0.16828  -110.08
       4300   0.49149   169.83    7.5915    56.91  0.057633    33.17   0.16353  -111.89
       4400   0.49216   168.22    7.4259    55.61  0.058528    32.94   0.15839  -113.69
       4500   0.49371   166.63     7.265    54.33  0.059378    32.64   0.15326  -115.92
       4600    0.4951   165.06    7.1077    53.05  0.060241    32.41   0.14894  -118.28
       4700   0.49671   163.50    6.9608    51.82   0.06113    32.12    0.1454  -120.51
       4800   0.49825   161.96    6.8196    50.56  0.062002    31.80   0.14196  -122.60
       4900   0.49954   160.48    6.6802    49.33  0.062894    31.54   0.13771  -124.84
       5000    0.5015   159.04    6.5471    48.09   0.06378    31.16   0.13399  -127.61
       5200    0.5057   156.16     6.295    45.70  0.065656    30.51   0.12927  -132.79
       5400   0.50923   153.39    6.0679    43.26   0.06741    29.87   0.12323  -138.04
       5600   0.51356   150.69    5.8463    40.93   0.06925    29.18   0.11954  -144.40
       5800   0.51833   148.00    5.6469    38.51  0.071035    28.32    0.1167  -150.17
       6000   0.52329   145.40    5.4487    36.16  0.072828    27.52   0.11384  -157.13
       6200   0.52723   142.88    5.2688    33.91   0.07475    26.83   0.11386  -163.17
       6400   0.53281   140.52    5.1011    31.60  0.076623    25.98   0.11322  -169.97
       6600   0.53762   137.97    4.9402    29.27  0.078497    25.02   0.11603  -176.76
       6800    0.5423   135.76    4.7921    27.05  0.080457    24.14   0.11736   177.61
       7000   0.54922   133.47    4.6451    24.76   0.08232    23.22   0.12198   170.71
       7200   0.55398   131.21    4.5105    22.60  0.084264    22.28   0.12579   165.67
       7400   0.55919   129.17    4.3842    20.47  0.086223    21.28   0.12949   160.00
       7600   0.56615   127.00    4.2764    18.13   0.08814    20.26    0.1381   155.64
       7800     0.573   124.91     4.153    15.91  0.090113    19.27   0.14231   150.69
       8000   0.57989   122.79    4.0552    13.81  0.092067    18.15   0.15034   146.89
       8200   0.58569   120.74    3.9504    11.33  0.094041    17.00   0.15872   142.99
       8400   0.59316   118.67    3.8381     9.15  0.095871    15.96   0.16528   137.95
       8600   0.59911   116.69    3.7431     6.87  0.097917    14.62   0.17642   135.62
       8800   0.60435   114.75    3.6362     4.87  0.099671    13.61   0.18123   132.48
       9000   0.61231   112.78    3.5461     2.82   0.10158    12.46   0.19329   128.81
       9200   0.61921   110.97    3.4782     0.69   0.10365    11.21   0.20167   126.30
       9400   0.62745   109.06    3.4067    -1.56   0.10568     9.87   0.21366   123.56
       9600   0.63439   107.11    3.3236    -3.85     0.107     8.59   0.22417   120.67
       9800   0.64218   105.19    3.2573    -6.20   0.10883     7.48   0.23147   117.54
      10000   0.64815   103.06    3.1635    -8.19   0.11054     6.67   0.23746   116.36
      10200   0.65581   101.35    3.1026   -10.64   0.11333     5.01   0.25615   114.14
      10400   0.66174    99.30     3.021   -12.80   0.11497     3.56   0.27039   111.04
      10600   0.66672    97.58    2.9509   -14.84   0.11679     2.16   0.27979   108.66
      10800   0.67273    95.75    2.8747   -16.92    0.1185     0.82   0.29122   105.88
      11000    0.6785    94.00    2.8177   -18.84   0.11986    -0.76   0.30254   103.85
      11200   0.68314    92.49    2.7584   -20.68   0.12073    -2.13    0.3112   101.11
      11400   0.69298    91.55    2.7565   -22.61   0.12278    -2.63   0.31812   100.10
      11600   0.70882    89.30    2.6828   -25.92    0.1256    -4.46   0.33445    98.75
      11800   0.71452    87.29    2.6093   -27.95   0.12732    -6.15   0.34973    96.21
      12000   0.71979    85.41     2.541   -30.32   0.12835    -7.89   0.36251    94.45
      12200   0.72433    83.55     2.476   -32.18    0.1294    -9.27   0.37512    91.76
      12400   0.72719    82.55    2.4324   -33.93   0.13058   -10.57   0.38894    89.59
      12600   0.74051    81.17    2.3848   -36.21   0.13203   -11.76   0.39531    87.25
      12800   0.75063    79.00    2.3424   -38.64   0.13427   -13.18   0.40726    85.62
      13000   0.75416    77.28     2.278   -40.80   0.13641   -14.81   0.41428    84.13
      13200   0.76064    75.89    2.2183   -42.70   0.13802   -16.80   0.42748    82.38
      13400   0.76722    74.32    2.1735   -44.41   0.13897   -18.55    0.4416    81.29
      13600    0.7752    72.63    2.1362   -46.47   0.13933   -20.35   0.45454    79.17
      13800    0.7826    70.93    2.0969   -48.48   0.14009   -21.97    0.4713    77.59
      14000   0.79304    69.54    2.0621   -50.59   0.14034   -23.68   0.48242    75.48
      14200   0.80053    67.62    2.0192   -52.86    0.1399   -24.99   0.49755    73.29
      14400   0.80517    65.64    1.9758   -55.09    0.1404   -26.08   0.50663    71.81
      14600   0.80746    63.94    1.9237   -57.16   0.14148   -27.11   0.51777    69.75
      14800   0.80694    62.53    1.8832   -58.95   0.14331   -28.29   0.52907    68.26
      15000   0.80975    61.18    1.8363   -61.03   0.14582   -30.13   0.53757    66.65
      15200   0.81885    59.81     1.805   -62.65   0.14653   -32.20   0.55373    65.19
      15400    0.8252    58.34     1.776   -64.78   0.14656   -34.04   0.56283    63.77
      15600   0.82815    57.19    1.7376   -66.50   0.14744   -35.56   0.57847    61.80
      15800   0.83864    55.62    1.7144   -68.59   0.14705   -37.76    0.5918    60.53
      16000   0.84466    54.08    1.6811   -70.82   0.14598   -39.33   0.60343    58.09
      16200   0.85319    52.73     1.654   -73.01     0.145   -40.76   0.61682    56.09
      16400   0.86034    51.20    1.6146   -75.35    0.1442   -41.72   0.61662    54.00
      16600   0.86508    49.46    1.5797   -77.18   0.14492   -42.83   0.62564    52.57
      16800   0.87327    48.04    1.5514   -79.36    0.1439   -44.30   0.63382    51.10
      17000   0.87784    46.43    1.5125   -81.33   0.14338   -45.27   0.64278    49.46
      17200   0.87962    44.82    1.4788   -83.40   0.14388   -46.05   0.65685    48.03
      17400   0.88646    43.09    1.4468   -85.45   0.14449   -46.96   0.66085    45.93
      17600   0.88781    41.66    1.4157   -87.37   0.14498   -48.05   0.67525    44.45
      17800   0.88852    40.50    1.3807   -89.41   0.14698   -49.11    0.6752    42.44
      18000   0.89601    39.03    1.3455   -91.39   0.14837   -50.39   0.67611    40.41
      18200   0.89677    37.40    1.3096   -93.30   0.14985   -52.59   0.67649    39.97
      18400   0.89826    36.29    1.2728   -94.84   0.14889   -54.16    0.6801    38.64
      18600   0.89984    35.20    1.2515   -96.33   0.14708   -55.14   0.69441    37.89
      18800   0.90842    33.42    1.2239   -98.65   0.14746   -56.06   0.69602    36.07
      19000    0.9128    31.88    1.1934  -100.26    0.1481   -56.58   0.70432    34.82
      19200   0.91104    30.21    1.1578  -102.56    0.1503   -57.46   0.70145    33.70
      19400   0.90459    28.97    1.1176  -103.38   0.15476   -59.06    0.7037    32.59
      19600   0.90582    27.95    1.1032  -104.52   0.15467   -61.83   0.71645    32.74
      19800   0.91821    26.86    1.0911  -106.18   0.15199   -63.67   0.72453    30.99
      20000   0.92319    25.35    1.0657  -107.82   0.15047   -64.03   0.73694    29.86
      20200   0.92653    23.63    1.0485  -109.46   0.15141   -64.79   0.73544    29.24
      20400   0.92719    21.83    1.0333  -110.87   0.15565   -65.65   0.75649    28.02
      20600    0.9278    20.05    1.0199  -113.21   0.15752   -67.39   0.77228    26.47
      20800    0.9185    18.58   0.99635  -115.26   0.16112   -68.92   0.76973    24.08
      21000   0.91018    17.52   0.96697  -116.69   0.16244   -71.30   0.78043    23.26
      21200   0.90991    16.03   0.94473  -118.95   0.16337   -73.32   0.77389    22.45
      21400   0.89693    15.04   0.92057  -119.36   0.16552   -75.68   0.79974    21.03
      21600   0.89241    14.64    0.9079  -121.68   0.16337   -77.81   0.79934    19.33
      21800   0.89069    13.85   0.89246  -122.36   0.16717   -78.90   0.79564    17.67
      22000   0.89426    13.16   0.87912  -124.47   0.16925   -83.67   0.80769    17.15
      22200   0.90084    12.21   0.86867  -126.64   0.16155   -85.94   0.79524    15.60
      22400   0.89854    11.07   0.84293  -127.46    0.1631   -86.49   0.81054    14.74
      22600   0.90275    10.16   0.83261  -130.24   0.15947   -90.07    0.8031    13.72
      22800   0.90239     9.29   0.81105  -131.73   0.15579   -91.50   0.80604    12.18
      23000   0.90173     8.55   0.79564  -132.83   0.15522   -92.89   0.80888    12.18
      23200    0.9074     7.55   0.77382  -135.31   0.15495   -95.17   0.80588    10.93
      23400   0.91117     6.38   0.76663  -136.76   0.14978   -97.33    0.8327    10.46
      23600   0.91319     6.58   0.73734  -138.64   0.14181   -96.87   0.82637     9.37
      23800   0.91498     4.57   0.71865  -138.79   0.14258   -96.55   0.85104     7.73
      24000   0.91235     2.58    0.7135  -142.50   0.14612   -99.89   0.85679     6.68
      24200   0.92238     1.99   0.69603  -143.72   0.14032  -102.73   0.85229     4.27
      24400   0.91909     2.37     0.655  -145.29   0.13081  -103.09   0.87004     3.74
      24600   0.92336    -0.26   0.64828  -147.10   0.13192  -101.76   0.85576     1.86
      24800    0.9123    -1.96   0.62128  -146.93   0.12982  -100.18   0.86778     0.29
      25000    0.9125    -2.72   0.60781  -148.88   0.13398  -100.44   0.85471    -0.11
      25200   0.90923    -3.84   0.59785  -149.48   0.13577  -102.80   0.86351    -1.65
      25400    0.9018    -4.32   0.57433  -149.44   0.13192  -104.21    0.8711    -2.08
      25600   0.90024    -5.09   0.55182  -151.59   0.12861  -104.37    0.8587    -3.61
      25800   0.91656    -5.61   0.56584  -150.64   0.13346  -105.80   0.88301    -4.49
      26000   0.91976    -6.93   0.53339  -153.37   0.12873  -105.80    0.8557    -5.47

