! Filename:  P:\Prog\Test\Noise\ATS_data\Testdata_Net\Split files Spar\BFU725F_N1_A2_CS1566_wafer5_Bias4_1.5V_2mA_25mA_D.s2p
! Date/Time: Fri 17/Sep/2010 16:48:52
! BFU725F_N1_A2_CS1566_wafer5_Bias4_1.5V_2mA_25mA_R.s2p
! MDIF S-parameter v. bias file
! BFU725F_N1_A2_CS1566_wafer5_1.5V_2mA_25mA
! Date/time Thu Sep 16 13:48:35 2010
! VAR V_out= 1.5001
! VAR I_out= 9.9900
! VAR V_in= 0.8264
! VAR I_in= 0.0309
! Device data file deembeded for feedlines and parallel
! Original file: \Split files Spar\BFU725F_N1_A2_CS1566_wafer5_Bias4_1.5V_2mA_25mA_R.s2p
! Feed-files: PR003V01_101208_Feed1.s2p, PR003V01_101208_Feed2.s2p
! Parallel-file: PR003V01_101208_Par.s2p
# MHz S MA R 50
!  Freq-MHz   S11-mag  S11-arg   S21-mag  S21-arg   S12-mag  S12-arg   S22-mag  S22-arg
         40   0.91723    -2.67    23.834   177.07 0.0018036    86.44   0.99518    -1.49
         50   0.91509    -3.42    23.882   176.35 0.0022887    86.95   0.99594    -2.05
         60   0.91649    -4.00    23.875   176.01 0.0026829    88.56    0.9966    -2.49
         70   0.91639    -4.65    23.839   175.60 0.0031026    86.65   0.99662    -2.99
         80   0.91492    -5.39    23.852   175.11  0.003552    86.80   0.99632    -3.49
         90   0.91528    -6.06    23.875   174.61 0.0040634    86.28   0.99594    -3.99
        100   0.91453    -6.77    23.872   174.21 0.0044543    86.19   0.99557    -4.45
        120   0.91347    -8.15    23.801   173.21 0.0053737    85.30   0.99465    -5.40
        140   0.91315    -9.54    23.805   172.26 0.0062548    84.30   0.99338    -6.35
        160   0.91142   -10.86     23.73   171.28 0.0071272    83.47   0.99162    -7.27
        180   0.91075   -12.24    23.702   170.34 0.0080192    82.86   0.99001    -8.20
        200   0.90905   -13.59    23.657   169.27 0.0088922    82.12   0.98795    -9.11
        220   0.90786   -14.97    23.607   168.32 0.0097828    81.38   0.98579   -10.03
        240   0.90533   -16.34    23.575   167.33  0.010636    80.51   0.98339   -10.94
        260   0.90388   -17.67    23.499   166.37  0.011491    79.76   0.98093   -11.83
        280   0.90218   -19.03     23.48   165.40  0.012356    79.10   0.97844   -12.73
        300   0.89963   -20.40    23.398   164.32    0.0132    78.32   0.97557   -13.62
        320   0.89718   -21.66    23.281   163.38  0.014025    77.52   0.97268   -14.51
        340   0.89528   -23.00    23.214   162.44  0.014883    76.78   0.96965   -15.39
        360   0.89333   -24.29    23.111   161.52  0.015692    76.04   0.96672   -16.26
        380    0.8907   -25.61    23.022   160.51  0.016519    75.32   0.96303   -17.17
        400   0.88835   -26.98    22.988   159.56   0.01732    74.51   0.95893   -18.02
        420   0.88458   -28.27    22.906   158.48  0.018123    73.78   0.95536   -18.88
        440   0.88189   -29.54    22.796   157.56  0.018902    73.05   0.95133   -19.75
        460   0.87883   -30.89    22.727   156.62  0.019694    72.37   0.94733   -20.59
        480   0.87562   -32.18    22.627   155.63  0.020465    71.63   0.94307   -21.44
        500   0.87127   -33.47    22.535   154.63  0.021219    70.96   0.93882   -22.25
        550   0.86261   -36.50    22.164   152.24  0.023097    69.23   0.92831   -24.32
        600   0.85426   -39.59    21.864   150.02   0.02489    67.48   0.91572   -26.40
        650   0.84549   -42.61     21.55   147.85  0.026608    65.82   0.90254   -28.39
        700   0.83567   -45.72      21.3   145.67  0.028253    64.18   0.88925   -30.33
        750   0.82663   -48.63    20.958   143.62  0.029848    62.59   0.87574   -32.19
        800   0.81785   -51.33    20.547   141.67  0.031335    61.04   0.86165   -34.09
        850   0.80881   -54.13    20.223   139.74  0.032766    59.65   0.84646   -35.82
        900   0.79913   -57.06    19.978   137.76  0.034197    58.32   0.83332   -37.47
        950   0.78954   -59.81    19.669   135.83  0.035575    56.96   0.82062   -39.15
       1000   0.78036   -62.54     19.37   133.95  0.036878    55.62   0.80747   -40.83
       1050   0.77116   -65.16    19.043   132.10  0.038073    54.35   0.79273   -42.48
       1100   0.76194   -67.77    18.735   130.27  0.039223    53.16    0.7781   -44.00
       1150   0.75274   -70.40    18.433   128.50  0.040376    51.99   0.76478   -45.51
       1200    0.7441   -72.92     18.11   126.78  0.041475    50.78   0.75186   -47.03
       1250    0.7354   -75.36    17.784   125.10  0.042482    49.66   0.73796   -48.53
       1300   0.72637   -77.88    17.504   123.44   0.04341    48.61   0.72399   -49.92
       1350   0.71669   -80.33    17.213   121.80  0.044339    47.58   0.71096   -51.27
       1400   0.70771   -82.69     16.91   120.19  0.045245    46.59   0.69801   -52.61
       1450   0.69951   -84.95    16.615   118.66  0.046064    45.61   0.68502   -53.91
       1500   0.69148   -87.19    16.323   117.16   0.04684    44.68   0.67218   -55.20
       1550   0.68387   -89.42    16.037   115.72  0.047571    43.79   0.65889   -56.45
       1600   0.67594   -91.63    15.759   114.24  0.048314    42.93   0.64702   -57.65
       1650   0.66809   -93.80    15.485   112.82  0.049031    42.10   0.63527   -58.84
       1700   0.66092   -95.92    15.218   111.43  0.049697    41.25   0.62372   -60.00
       1750    0.6534   -97.99    14.959   110.07  0.050332    40.49   0.61245   -61.13
       1800   0.64684  -100.07    14.715   108.70  0.050932    39.72   0.60122   -62.25
       1850   0.64012  -102.09    14.459   107.37  0.051516    38.98   0.58997   -63.35
       1900   0.63341  -104.05    14.209   106.07  0.052049    38.27   0.57929   -64.42
       1950   0.62679  -106.00    13.968   104.79  0.052572    37.61   0.56866   -65.44
       2000    0.6204  -107.92    13.729   103.55  0.053084    36.95   0.55828   -66.46
       2050   0.61426  -109.66    13.486   102.36  0.053554    36.34   0.54749   -67.45
       2100   0.60895  -111.51    13.261   101.19  0.054046    35.74   0.53757   -68.42
       2150   0.60359  -113.32    13.048   100.04  0.054506    35.19   0.52819   -69.35
       2200    0.5982  -115.10    12.832    98.89  0.054947    34.63   0.51895   -70.31
       2250   0.59312  -116.84    12.625    97.79  0.055367    34.06   0.50981   -71.23
       2300   0.58783  -118.58    12.414    96.70  0.055778    33.53   0.50085   -72.12
       2350   0.58353  -120.28    12.217    95.62  0.056155    33.04   0.49235   -73.03
       2400   0.57925  -121.93    12.024    94.57  0.056574    32.56   0.48398   -73.89
       2450   0.57478  -123.54    11.829    93.55  0.056968    32.05   0.47609   -74.77
       2500   0.57093  -125.15    11.643    92.54   0.05735    31.55   0.46801   -75.68
       2600   0.56333  -128.30    11.285    90.57  0.058023    30.65   0.45217   -77.39
       2700   0.55652  -131.31    10.946    88.68  0.058662    29.77   0.43732   -79.15
       2800   0.54951  -134.19    10.623    86.82  0.059218    28.93   0.42284   -80.81
       2900   0.54365  -137.00    10.319    85.07  0.059776    28.17   0.40901   -82.37
       3000   0.53935  -139.76    10.042    83.33  0.060238    27.46   0.39538   -83.94
       3100   0.53551  -142.54    9.7762    81.59  0.060669    26.92   0.38174   -85.45
       3200   0.53116  -145.24    9.5142    79.92  0.061216    26.37   0.37041   -86.90
       3300    0.5283  -147.84    9.2736    78.28  0.061787    25.86   0.36027   -88.37
       3400   0.52512  -150.39    9.0496    76.65  0.062302    25.30   0.34975   -89.93
       3500   0.52252  -152.91    8.8292    75.02  0.062864    24.80   0.33907   -91.49
       3600   0.51925  -155.40    8.6142    73.39  0.063323    24.24   0.32901   -93.20
       3700   0.51647  -157.73     8.413    71.84  0.063835    23.86   0.31959   -94.75
       3800   0.51425  -160.08    8.2185    70.28  0.064327    23.39    0.3103   -96.29
       3900   0.51239  -162.36    8.0232    68.75  0.064816    23.02   0.30147   -97.78
       4000   0.51062  -164.57    7.8423    67.30  0.065361    22.59    0.2927   -99.35
       4100   0.51026  -166.80    7.6766    65.79  0.065859    22.13   0.28451  -101.11
       4200    0.5087  -169.00    7.5075    64.30  0.066357    21.72   0.27696  -102.89
       4300   0.50784  -171.05    7.3525    62.90  0.066807    21.34   0.26977  -104.46
       4400   0.50683  -173.07    7.2014    61.44  0.067351    21.02   0.26232  -106.02
       4500    0.5064  -175.07    7.0533    60.01  0.067819    20.61   0.25478  -107.80
       4600   0.50594  -177.08    6.9092    58.58   0.06828    20.28   0.24813  -109.67
       4700   0.50591  -179.06    6.7712    57.20   0.06881    19.95   0.24227  -111.46
       4800   0.50573   179.02      6.64    55.80  0.069322    19.58   0.23668  -113.14
       4900   0.50555   177.16    6.5095    54.45   0.06982    19.29   0.23026  -114.89
       5000   0.50628   175.36    6.3877    53.07  0.070347    18.91   0.22411  -116.94
       5200   0.50783   171.72    6.1477    50.42   0.07145    18.31     0.215  -120.93
       5400   0.50895   168.25    5.9351    47.78  0.072467    17.71   0.20461  -124.81
       5600   0.51117   164.88    5.7242    45.22  0.073524    17.13     0.196  -129.39
       5800   0.51371   161.59    5.5351    42.58  0.074608    16.41   0.18864  -133.74
       6000   0.51682   158.36    5.3452    40.04  0.075688    15.76   0.18063  -138.78
       6200   0.51914   155.30    5.1721    37.61  0.076882    15.31   0.17581  -143.50
       6400   0.52335   152.36    5.0123    35.12  0.078079    14.69   0.16996  -148.71
       6600   0.52652   149.32    4.8592    32.62  0.079293    13.98   0.16708  -154.44
       6800   0.53007   146.65    4.7162    30.24  0.080605    13.40   0.16373  -159.27
       7000   0.53585   143.87    4.5738    27.78  0.081807    12.75   0.16256  -165.55
       7200   0.53958   141.21    4.4445    25.48  0.083126    12.12   0.16192  -170.59
       7400   0.54384   138.76    4.3221    23.20  0.084498    11.48   0.16071  -176.07
       7600   0.55016   136.22    4.2183    20.72  0.085929    10.77   0.16546   178.64
       7800   0.55614   133.73    4.0972    18.36  0.087339    10.10   0.16552   173.44
       8000   0.56194   131.32    4.0022    16.14   0.08883     9.35    0.1702   168.71
       8200   0.56769   128.93    3.9021    13.54  0.090372     8.51   0.17559   163.82
       8400    0.5743   126.53     3.791    11.24  0.091701     7.75   0.17819   158.16
       8600   0.58005   124.27       3.7     8.82  0.093423     6.77   0.18765   154.43
       8800   0.58456   122.03    3.5944     6.70  0.094744     6.11    0.1903   150.60
       9000   0.59178   119.81     3.506     4.55  0.096281     5.26   0.19955   145.82
       9200   0.59839   117.80    3.4391     2.32   0.09805     4.34   0.20658   142.54
       9400    0.6062   115.67      3.37    -0.02  0.099854     3.31   0.21713   138.81
       9600   0.61311   113.48    3.2881    -2.42    0.1009     2.27   0.22615   135.09
       9800    0.6208   111.37    3.2239    -4.88   0.10243     1.44   0.23221   131.41
      10000   0.62601   109.01    3.1312    -6.95   0.10375     0.99   0.23849   129.61
      10200   0.63391   107.16     3.071    -9.51   0.10657    -0.39   0.25628   126.35
      10400   0.63967   104.91     2.992   -11.78   0.10804    -1.64    0.2691   122.49
      10600   0.64393   103.03    2.9214   -13.94   0.10966    -2.77   0.27786   119.61
      10800   0.65033   101.03    2.8472   -16.10   0.11116    -3.87   0.28817   116.28
      11000   0.65655    99.19    2.7923   -18.08   0.11241    -5.23   0.29909   113.76
      11200   0.66049    97.47    2.7314   -20.02   0.11312    -6.38   0.30675   110.65
      11400    0.6711    96.49    2.7315   -22.02   0.11515    -6.49   0.31453   109.49
      11600   0.68665    94.05    2.6583   -25.49    0.1181    -8.17     0.332   107.54
      11800   0.69213    91.87    2.5865   -27.60   0.11975    -9.73   0.34667   104.51
      12000   0.69844    89.93    2.5177   -30.08   0.12083   -11.29    0.3596   102.34
      12200   0.70239    87.95    2.4528   -31.98    0.1218   -12.52   0.37157    99.29
      12400   0.70608    86.86    2.4108   -33.82   0.12307   -13.63   0.38486    96.83
      12600   0.71957    85.33    2.3613   -36.20   0.12468   -14.69   0.39125    94.33
      12800   0.72944    83.06    2.3187   -38.72   0.12675   -15.95     0.404    92.41
      13000   0.73364    81.24    2.2546   -40.93   0.12882   -17.42   0.41156    90.71
      13200   0.73982    79.70    2.1965   -42.94   0.13069   -19.22   0.42501    88.65
      13400   0.74643    78.08    2.1499   -44.72   0.13176   -20.87    0.4397    87.31
      13600   0.75483    76.30    2.1127   -46.88   0.13228   -22.59   0.45262    84.94
      13800   0.76231    74.50    2.0741   -48.94   0.13318   -24.12   0.46974    83.12
      14000   0.77269    73.02     2.039   -51.14   0.13363   -25.80   0.48107    80.83
      14200   0.78117    71.10    1.9953   -53.47   0.13318   -27.04   0.49647    78.43
      14400   0.78519    69.02    1.9521   -55.80   0.13369   -28.06   0.50618    76.77
      14600   0.78775    67.27    1.8991   -57.92   0.13484   -28.96   0.51749    74.54
      14800   0.78836    65.76    1.8589   -59.81   0.13659   -30.02    0.5293    72.88
      15000   0.79166    64.36    1.8107   -61.92   0.13922   -31.75   0.53819    71.12
      15200   0.80119    62.92    1.7795   -63.64   0.14026   -33.71   0.55465    69.48
      15400    0.8071    61.38    1.7486   -65.82   0.14055   -35.53   0.56458    67.94
      15600   0.81084    60.15    1.7116   -67.59   0.14138   -37.02   0.58004    65.80
      15800   0.82141    58.58    1.6857   -69.74    0.1413   -39.22   0.59408    64.40
      16000   0.82733    56.85    1.6535   -72.08   0.14041   -40.78   0.60585    61.86
      16200   0.83657    55.55    1.6249   -74.29   0.13959   -42.18   0.61954    59.74
      16400   0.84323    53.96     1.587   -76.69   0.13887   -43.12   0.61994    57.58
      16600   0.84882    52.19    1.5499   -78.55   0.13953   -44.16    0.6291    56.00
      16800   0.85679    50.67    1.5215   -80.81   0.13869   -45.65   0.63796    54.46
      17000   0.86126    49.00    1.4821   -82.82    0.1382   -46.57   0.64744    52.69
      17200   0.86321    47.44    1.4478   -84.96   0.13865   -47.36   0.66187    51.12
      17400   0.87053    45.55    1.4162   -87.09    0.1393   -48.19   0.66598    48.95
      17600   0.87287    44.14    1.3839   -88.99   0.13991   -49.23   0.68082    47.36
      17800   0.87377    42.93    1.3495   -91.13   0.14172   -50.25   0.68106    45.28
      18000   0.88074    41.44    1.3139   -93.14   0.14319   -51.42   0.68223    43.18
      18200   0.88235    39.75     1.278   -95.09   0.14481   -53.55   0.68337    42.63
      18400   0.88474    38.60    1.2411   -96.71   0.14401   -55.12   0.68708    41.21
      18600   0.88584    37.44    1.2185   -98.20   0.14247   -56.10    0.7018    40.33
      18800   0.89501    35.63    1.1905  -100.57   0.14281   -57.07   0.70375    38.47
      19000   0.89891    34.08    1.1604  -102.29   0.14326   -57.53   0.71201    37.13
      19200   0.89897    32.40    1.1235  -104.54   0.14529   -58.31   0.70987    35.93
      19400   0.89277    31.14    1.0844  -105.43   0.14982   -59.77    0.7118    34.75
      19600   0.89409    30.09    1.0699  -106.56   0.15021   -62.52    0.7251    34.78
      19800   0.90575    28.90    1.0556  -108.22   0.14775   -64.43   0.73328    33.00
      20000   0.91066    27.35    1.0309  -109.93   0.14622   -64.77   0.74574    31.78
      20200   0.91441    25.65    1.0123  -111.51    0.1472   -65.50   0.74447    31.10
      20400   0.91582    23.87   0.99792  -112.98   0.15139   -66.32   0.76544    29.84
      20600   0.91798    21.97   0.98411  -115.35   0.15335   -68.03   0.78155    28.22
      20800   0.90643    20.52   0.95982  -117.42   0.15701   -69.51   0.77915    25.79
      21000   0.89909    19.40   0.93116  -118.85   0.15826   -71.92   0.79021    24.90
      21200   0.89972    17.88   0.90917  -121.12   0.15931   -73.86   0.78396    24.01
      21400   0.88755    16.83   0.88596  -121.52   0.16167   -76.15   0.80957    22.53
      21600   0.88217    16.36   0.87255  -123.95   0.15977   -78.37   0.80934    20.79
      21800   0.88152    15.67    0.8561  -124.60   0.16358   -79.38   0.80559    19.12
      22000   0.88468    14.87   0.84328  -126.65   0.16615   -84.18   0.81807    18.48
      22200   0.89119    13.91   0.83318  -128.82   0.15859   -86.57    0.8055    16.91
      22400   0.89063    12.78   0.80693  -129.71   0.16015   -87.14   0.82048    16.00
      22600   0.89439    11.78   0.79804  -132.45   0.15678   -90.76   0.81314    14.92
      22800   0.89366    10.97   0.77591  -133.95   0.15316   -92.18    0.8159    13.34
      23000   0.89384    10.13   0.76056  -135.10   0.15266   -93.58   0.81865    13.30
      23200   0.89995     9.23   0.74022  -137.49   0.15243   -95.94   0.81561    11.99
      23400   0.90218     7.99   0.73193  -138.97   0.14744   -98.14   0.84223    11.47
      23600   0.90575     8.16   0.70296  -140.91   0.13941   -97.82   0.83569    10.37
      23800   0.90782     6.05   0.68445  -141.06   0.13989   -97.41   0.86027     8.72
      24000   0.90496     4.05   0.68002  -144.74   0.14379  -100.72   0.86626     7.60
      24200   0.91546     3.46    0.6616  -145.97   0.13811  -103.67   0.86114     5.20
      24400   0.91167     3.79   0.62236  -147.50   0.12894  -104.14   0.87899     4.60
      24600   0.91545     1.25   0.61595  -149.42   0.12935  -102.77   0.86435     2.73
      24800   0.90623    -0.52   0.58761  -149.27   0.12707  -101.13   0.87617     1.13
      25000   0.90576    -1.23   0.57472  -151.03   0.13127  -101.27    0.8633     0.68
      25200   0.90388    -2.43   0.56529  -151.61   0.13323  -103.63   0.87165    -0.85
      25400   0.89642    -2.85   0.54172  -151.77   0.12933  -105.18    0.8794    -1.29
      25600   0.89384    -3.69   0.52188  -153.80   0.12601  -105.29   0.86665    -2.86
      25800   0.91029    -4.26    0.5352  -152.73   0.13084  -106.71   0.89121    -3.76
      26000   0.91274    -5.62   0.50403  -155.64   0.12602  -106.76   0.86359    -4.75

