(module Alim_CMS_Trav (layer F.Cu) (tedit 56BC5B4E)
  (fp_text reference REF** (at 0 0.5) (layer F.SilkS)
    (effects (font (size 1 1) (thickness 0.15)))
  )
  (fp_text value Alim_CMS_Trav (at 0 -0.5) (layer F.Fab)
    (effects (font (size 1 1) (thickness 0.15)))
  )
  (pad 1 smd rect (at -3 0) (size 4 4) (layers F.Cu F.Paste F.Mask))
  (pad 2 thru_hole circle (at 2 0) (size 2 2) (drill 0.9) (layers *.Cu *.Mask F.SilkS))
)
