(module Banana_female (layer F.Cu) (tedit 613F1C14)
  (fp_text reference REF** (at 0 0.5) (layer F.SilkS)
    (effects (font (size 1 1) (thickness 0.15)))
  )
  (fp_text value Banana_female (at 0 -0.5) (layer F.Fab)
    (effects (font (size 1 1) (thickness 0.15)))
  )
  (fp_line (start 5.334 -2.032) (end -5.334 -2.032) (layer F.SilkS) (width 0.12))
  (fp_line (start -5.334 -2.032) (end -5.334 2.032) (layer F.SilkS) (width 0.12))
  (fp_line (start -5.334 2.032) (end 5.334 2.032) (layer F.SilkS) (width 0.12))
  (fp_line (start 5.334 2.032) (end 5.334 -2.032) (layer F.SilkS) (width 0.12))
  (pad 1 thru_hole circle (at -5.08 0) (size 2.5 2.5) (drill 1.32) (layers *.Cu *.Mask))
  (pad 2 thru_hole circle (at 5.08 0) (size 2.5 2.5) (drill 1.32) (layers *.Cu *.Mask))
)
