(module FOX924 (layer F.Cu) (tedit 5A0170FB)
  (fp_text reference REF** (at 0 0.5) (layer F.SilkS)
    (effects (font (size 1 1) (thickness 0.15)))
  )
  (fp_text value FOX924 (at 0 -0.5) (layer F.Fab)
    (effects (font (size 1 1) (thickness 0.15)))
  )
  (fp_line (start 2.5 1.6) (end -2.5 1.6) (layer F.SilkS) (width 0.15))
  (fp_line (start -2.5 1.6) (end -2.5 -1.6) (layer F.SilkS) (width 0.15))
  (fp_line (start -2.5 -1.6) (end 2.5 -1.6) (layer F.SilkS) (width 0.15))
  (fp_line (start 2.5 -1.6) (end 2.5 1.6) (layer F.SilkS) (width 0.15))
  (pad 1 smd rect (at -3.2 -1.9) (size 1.6 1.3) (layers F.Cu F.Paste F.Mask))
  (pad 2 smd rect (at 3.2 -1.9) (size 1.6 1.3) (layers F.Cu F.Paste F.Mask))
  (pad 3 smd rect (at 3.2 1.9) (size 1.6 1.3) (layers F.Cu F.Paste F.Mask))
  (pad 4 smd rect (at -3.2 1.9) (size 1.6 1.3) (layers F.Cu F.Paste F.Mask))
)
