(module ADP150 (layer F.Cu) (tedit 5A016CCA)
  (fp_text reference REF** (at 0 0.5) (layer F.SilkS)
    (effects (font (size 1 1) (thickness 0.15)))
  )
  (fp_text value ADP150 (at 0 -0.5) (layer F.Fab)
    (effects (font (size 1 1) (thickness 0.15)))
  )
  (fp_line (start -0.8 1.4) (end 0.8 1.4) (layer F.SilkS) (width 0.15))
  (fp_line (start 0.8 1.4) (end 0.8 -1.5) (layer F.SilkS) (width 0.15))
  (fp_line (start 0.8 -1.5) (end -0.8 -1.5) (layer F.SilkS) (width 0.15))
  (fp_line (start -0.8 -1.5) (end -0.8 1.4) (layer F.SilkS) (width 0.15))
  (pad 1 smd rect (at -1.31 -0.95) (size 1.2 0.6) (layers F.Cu F.Paste F.Mask))
  (pad 2 smd rect (at -1.32 0) (size 1.2 0.6) (layers F.Cu F.Paste F.Mask))
  (pad 3 smd rect (at -1.31 0.95) (size 1.2 0.6) (layers F.Cu F.Paste F.Mask))
  (pad 4 smd rect (at 1.31 0.95) (size 1.2 0.6) (layers F.Cu F.Paste F.Mask))
  (pad 5 smd rect (at 1.31 -0.95) (size 1.2 0.6) (layers F.Cu F.Paste F.Mask))
)
