(module WW107 (layer F.Cu) (tedit 5BA017E2)
  (fp_text reference REF** (at -3 -2) (layer F.SilkS)
    (effects (font (size 1 1) (thickness 0.15)))
  )
  (fp_text value WW107 (at -4 3) (layer F.Fab)
    (effects (font (size 1 1) (thickness 0.15)))
  )
  (fp_circle (center 0 0.8) (end 0 1) (layer F.SilkS) (width 0.15))
  (fp_circle (center 0 0) (end 1.08 0) (layer F.SilkS) (width 0.15))
  (pad 4 smd rect (at -4.25 0) (size 3 3) (layers F.Cu F.Paste F.Mask))
  (pad 2 smd rect (at 4.25 0) (size 3 3) (layers F.Cu F.Paste F.Mask))
  (pad 4 thru_hole circle (at -3.5 0.75) (size 1.3 1.3) (drill 0.8) (layers *.Cu *.Mask))
  (pad 4 thru_hole circle (at -5 -0.75) (size 1.3 1.3) (drill 0.8) (layers *.Cu *.Mask))
  (pad 4 thru_hole circle (at -5 0.75) (size 1.3 1.3) (drill 0.8) (layers *.Cu *.Mask))
  (pad 2 thru_hole circle (at 3.5 0.75) (size 1.3 1.3) (drill 0.8) (layers *.Cu *.Mask))
  (pad 2 thru_hole circle (at 5 -0.75) (size 1.3 1.3) (drill 0.8) (layers *.Cu *.Mask))
  (pad 2 thru_hole circle (at 5 0.75) (size 1.3 1.3) (drill 0.8) (layers *.Cu *.Mask))
  (pad 1 smd rect (at 0 2) (size 1.02 1.85) (layers F.Cu F.Paste F.Mask))
  (pad 3 smd rect (at 0 -2) (size 1.02 1.85) (layers F.Cu F.Paste F.Mask))
  (pad 4 thru_hole circle (at -3.5 -0.75) (size 1.3 1.3) (drill 0.8) (layers *.Cu *.Mask))
  (pad 2 thru_hole circle (at 3.5 -0.75) (size 1.3 1.3) (drill 0.8) (layers *.Cu *.Mask))
  (pad "" np_thru_hole circle (at 0 0) (size 1 1) (drill 0.8) (layers *.Cu *.Mask))
  (pad 2 smd rect (at 2 0) (size 1.85 1.02) (layers F.Cu F.Paste F.Mask))
  (pad 4 smd rect (at -2 0) (size 1.85 1.02) (layers F.Cu F.Paste F.Mask))
)
