! Filename: 225bfg425.001
! BFG425W Field C1
! V1=8.667E-001V,V2=2.000E+000V, I1=3.585E-004A, I2=2.496E-002A
# GHz   S   MA   R 50
!                S11              S21              S12              S22
!Freq(GHz)  Mag     Ang      Mag     Ang      Mag     Ang      Mag     Ang 
   0.040    0.325  -8.696   38.472 173.381    0.002  71.865    0.923  -3.072
   0.100    0.331 -23.004   37.457 164.549    0.005  83.280    0.915  -9.551
   0.200    0.315 -44.455   34.771 150.487    0.008  75.947    0.863 -18.965
   0.300    0.296 -63.008   31.364 138.811    0.012  71.608    0.794 -26.449
   0.400    0.278 -79.654   27.951 128.829    0.015  68.186    0.725 -32.076
   0.500    0.265 -94.339   24.856 120.248    0.017  65.974    0.664 -36.332
   0.600    0.254 -106.508   22.159 113.362    0.020  64.514    0.613 -39.533
   0.700    0.246 -116.820   19.885 107.530    0.022  63.362    0.569 -42.071
   0.800    0.240 -126.472   17.964 102.255    0.024  62.701    0.533 -44.121
   0.900    0.235 -134.500   16.345  97.645    0.027  61.910    0.504 -45.968
   1.000    0.232 -141.743   14.958  93.487    0.029  61.280    0.479 -47.614
   1.100    0.230 -148.265   13.770  89.661    0.031  60.570    0.457 -49.172
   1.200    0.230 -154.216   12.748  86.091    0.033  59.878    0.438 -50.696
   1.300    0.230 -159.761   11.850  82.773    0.036  59.238    0.421 -52.103
   1.400    0.231 -164.776   11.070  79.671    0.038  58.509    0.406 -53.483
   1.500    0.233 -169.782   10.383  76.687    0.040  57.719    0.392 -54.842
   1.600    0.234 -174.382    9.766  73.821    0.043  56.846    0.380 -56.285
   1.700    0.236 -178.496    9.213  71.086    0.045  56.001    0.369 -57.740
   1.800    0.238 177.334    8.725  68.404    0.047  54.999    0.358 -59.199
   1.900    0.241 173.487    8.277  65.836    0.050  53.983    0.348 -60.790
   2.000    0.244 169.856    7.874  63.295    0.052  52.923    0.338 -62.399
   2.200    0.251 162.836    7.172  58.413    0.057  50.729    0.319 -65.657
   2.400    0.259 156.208    6.578  53.682    0.062  48.414    0.301 -68.988
   2.600    0.268 150.081    6.068  49.042    0.067  45.958    0.283 -72.558
   2.800    0.277 144.221    5.628  44.575    0.072  43.380    0.266 -76.167
   3.000    0.288 138.650    5.244  40.174    0.077  40.713    0.248 -80.054
   3.500    0.319 125.843    4.470  29.452    0.090  33.634    0.204 -90.648
   4.000    0.352 113.999    3.873  18.944    0.102  26.177    0.158 -103.541
   4.500    0.389 103.406    3.406   8.713    0.113  18.415    0.113 -121.590
   5.000    0.431  92.903    3.011  -1.792    0.123   9.782    0.071 -156.899
   5.500    0.463  82.559    2.658 -11.364    0.131   2.534    0.054 148.652
   6.000    0.506  73.164    2.374 -21.684    0.138  -6.413    0.095 100.575
   6.500    0.516  66.705    2.179 -28.681    0.152 -10.089    0.112  92.309
   7.000    0.551  59.664    2.011 -37.894    0.164 -17.920    0.164  82.321
   7.500    0.610  50.773    1.808 -49.313    0.166 -29.630    0.246  65.957
   8.000    0.644  43.502    1.653 -58.585    0.172 -37.580    0.300  56.971
   8.500    0.683  35.816    1.496 -68.478    0.175 -46.984    0.361  47.167
   9.000    0.709  27.972    1.338 -77.310    0.173 -55.176    0.412  37.289
   9.500    0.736  20.858    1.212 -85.841    0.172 -63.448    0.449  29.117
  10.000    0.764  14.187    1.105 -95.600    0.173 -72.751    0.505  22.602
  10.500    0.785   7.330    0.997 -104.961    0.171 -81.774    0.554  14.956
  11.000    0.802   0.219    0.884 -113.744    0.164 -91.275    0.593   6.422
  11.500    0.815  -6.751    0.791 -122.965    0.158 -100.952    0.631  -0.521
  12.000    0.822 -13.843    0.690 -131.882    0.149 -111.108    0.667  -8.548

!BFG425W_noise.xls                                                                 !Philips part #:BFG425W
! Bias condition: Vce=2V,Ic=25mA                                            # MHz dB Ratio deg ohm
! Freq. Fmin Gmag Gangle Rn
900 2.1 0.25 -166.3 0.19                                                     2000 2.5 0.22 -152.2 0.21
