! Filename:       BFR106B.S2P                                Version:   2.0
! Philips part #: BFR106                                     Date: Jun 1990
! Bias condition: Vce=5V, Ic=30mA
! 
#  MHz  S  MA  R  50
! Freq       S11            S21            S12            S22     !GUM [dB]
   40    .460  -86.7  39.780  136.7    .017   63.4    .717  -42.1 !    36.2
  100    .487 -136.5  21.728  110.9    .027   56.5    .403  -66.4 !    28.7
  200    .519 -159.7  11.675   97.7    .042   63.0    .230  -80.3 !    22.9
  300    .506 -169.8   8.005   90.7    .055   66.6    .171  -87.5 !    19.5
  400    .516 -175.0   6.068   86.8    .070   69.2    .146  -92.3 !    17.1
  500    .507 -177.4   4.899   82.2    .085   70.6    .132  -95.7 !    15.2
  600    .511  179.1   4.153   78.6    .102   70.9    .128  -97.9 !    13.8
  700    .510  175.4   3.568   76.1    .116   71.1    .127  -98.9 !    12.4
  800    .513  171.6   3.146   72.9    .132   71.2    .123 -100.1 !    11.3
  900    .510  169.3   2.834   70.0    .148   71.2    .125  -99.7 !    10.4
 1000    .518  168.1   2.561   67.0    .163   70.2    .123 -101.6 !     9.6
 1200    .534  162.9   2.180   62.5    .193   69.3    .123 -106.2 !     8.3
 1400    .534  158.3   1.902   57.5    .223   67.6    .130 -110.6 !     7.1
 1600    .538  155.0   1.716   52.5    .251   66.5    .132 -113.0 !     6.3
 1800    .524  151.1   1.565   49.3    .282   64.7    .140 -117.5 !     5.4
 2000    .542  144.0   1.456   45.0    .308   63.2    .137 -123.5 !     4.9
