! Filename:       BFR106D.S2P                                Version:   2.0
! Philips part #: BFR106                                     Date: Jun 1990
! Bias condition: Vce=5V, Ic=70mA
! 
#  MHz  S  MA  R  50
! Freq       S11            S21            S12            S22     !GUM [dB]
   40    .427 -115.1  46.126  126.4    .015   63.2    .567  -54.4 !    35.8
  100    .493 -153.2  22.301  104.3    .023   62.6    .288  -78.3 !    28.6
  200    .515 -168.0  11.587   94.1    .040   70.2    .166  -94.7 !    22.7
  300    .508 -174.8   7.868   88.4    .054   72.6    .130 -104.9 !    19.3
  400    .502 -179.5   5.988   84.9    .071   74.0    .116 -110.3 !    16.9
  500    .512  177.7   4.820   80.7    .087   74.2    .109 -114.6 !    15.0
  600    .509  176.7   4.064   77.5    .104   74.2    .110 -116.2 !    13.5
  700    .507  173.6   3.498   74.9    .120   73.6    .110 -117.3 !    12.2
  800    .513  169.6   3.094   72.1    .136   72.8    .109 -117.6 !    11.2
  900    .517  168.4   2.786   69.1    .153   72.5    .111 -117.6 !    10.3
 1000    .520  165.9   2.516   66.3    .169   71.2    .111 -119.4 !     9.4
 1200    .538  162.3   2.146   61.9    .198   69.8    .113 -123.7 !     8.2
 1400    .535  158.1   1.874   56.7    .228   68.0    .120 -127.2 !     7.0
 1600    .540  154.1   1.692   52.1    .257   66.7    .123 -129.6 !     6.1
 1800    .532  149.3   1.552   47.9    .287   64.5    .128 -133.4 !     5.3
 2000    .553  143.1   1.424   45.1    .316   63.1    .129 -139.1 !     4.7
