! Filename:       BFS17AA.S2P                                Version:   2.0
! Philips part #: BFS17A                                     Date: May 1990
! Bias condition: Vce=5V, Ic=2mA
! 
#  MHz  S  MA  R  50
! Freq       S11            S21            S12            S22     !GUM [dB]
   40    .873  -11.3   6.365  170.8    .012   83.4    .993   -3.6 !    40.8
  100    .836  -27.0   5.970  157.3    .028   72.9    .965   -8.2 !    32.3
  200    .752  -51.7   5.289  140.5    .050   64.7    .900  -14.4 !    25.3
  300    .647  -71.2   4.488  126.7    .065   57.9    .838  -18.1 !    20.7
  400    .585  -87.4   3.824  116.6    .075   53.3    .790  -20.9 !    17.7
  500    .534 -101.1   3.406  107.5    .081   52.0    .758  -22.0 !    15.8
  600    .493 -111.8   2.943  101.0    .087   51.5    .735  -23.4 !    14.0
  700    .458 -119.3   2.614   95.9    .092   52.4    .720  -24.7 !    12.5
  800    .429 -130.1   2.334   90.2    .097   53.1    .709  -25.8 !    11.3
  900    .406 -137.1   2.131   85.9    .101   55.0    .702  -27.0 !    10.3
 1000    .388 -145.0   1.929   80.9    .105   56.1    .691  -28.2 !     9.2
 1200    .370 -157.1   1.671   73.8    .117   59.5    .682  -30.9 !     7.8
 1400    .373 -168.2   1.506   67.1    .129   62.7    .675  -34.0 !     6.8
 1600    .361 -177.1   1.352   62.7    .142   66.7    .674  -36.8 !     5.9
 1800    .352  171.9   1.215   57.1    .158   69.3    .671  -39.8 !     4.9
 2000    .363  164.6   1.142   52.9    .175   71.0    .665  -43.3 !     4.3
