! Filename:       BFS17AE.S2P                                Version:   2.0
! Philips part #: BFS17A                                     Date: May 1990
! Bias condition: Vce=5V, Ic=20mA
! 
#  MHz  S  MA  R  50
! Freq       S11            S21            S12            S22     !GUM [dB]
   40    .429  -45.4  28.889  149.3    .008   68.0    .906  -12.0 !    37.6
  100    .355  -91.8  19.198  123.2    .017   62.0    .742  -17.3 !    29.7
  200    .321 -131.3  11.342  105.9    .026   67.9    .632  -16.6 !    23.8
  300    .312 -145.1   7.873   96.9    .035   71.2    .596  -15.6 !    20.3
  400    .322 -154.3   6.023   91.4    .044   73.4    .583  -15.8 !    17.9
  500    .331 -162.4   4.965   86.3    .053   74.5    .577  -16.2 !    16.2
  600    .316 -168.2   4.149   82.9    .062   74.9    .576  -17.4 !    14.6
  700    .308 -171.4   3.568   79.6    .071   77.3    .576  -18.5 !    13.2
  800    .329 -177.2   3.147   76.4    .081   77.6    .579  -19.9 !    12.2
  900    .314 -178.4   2.840   73.2    .089   78.1    .581  -21.2 !    11.3
 1000    .330  175.6   2.544   69.8    .099   78.9    .579  -22.5 !    10.4
 1200    .332  170.0   2.166   64.8    .117   79.2    .579  -25.3 !     9.0
 1400    .357  163.8   1.896   59.9    .136   79.2    .581  -28.9 !     7.9
 1600    .345  159.3   1.682   56.3    .156   80.1    .585  -31.7 !     6.9
 1800    .343  153.1   1.490   51.4    .175   80.1    .585  -35.0 !     5.8
 2000    .384  146.7   1.408   47.8    .195   79.6    .583  -38.3 !     5.5
