! Filename:       BFS17ACC.S2P                              Version:   2.0
! Philips part #: BFS17A                                     Date: Jul 1990
! Bias condition: Vce=5V, Ic=10mA
! COMMON BASE
#  MHz  S  MA  R  50
! Freq       S11            S21            S12            S22   
   40    .871  178.9   1.847   -1.7    .001   70.4   1.004    -.9
  100    .871  177.3   1.846   -3.8    .002   94.3   1.007   -1.7
  200    .873  174.7   1.842   -7.8    .005  114.9   1.006   -3.9
  300    .877  172.1   1.842  -11.6    .009  122.8   1.007   -5.8
  400    .884  169.6   1.848  -15.6    .014  129.8   1.016   -7.8
  500    .893  166.9   1.855  -19.7    .020  134.1   1.025   -9.8
  600    .905  164.3   1.868  -23.7    .026  136.6   1.035  -11.8
  700    .921  161.6   1.877  -27.9    .035  138.9   1.047  -14.0
  800    .937  158.8   1.886  -32.5    .045  139.8   1.062  -16.3
  900    .956  156.0   1.894  -37.0    .057  140.4   1.079  -18.9
 1000    .977  153.1   1.912  -41.8    .070  140.3   1.095  -21.4
 1200   1.025  146.9   1.934  -51.7    .103  138.9   1.134  -27.1
 1400   1.073  140.1   1.970  -62.9    .142  135.4   1.175  -33.6
 1600   1.126  132.3   1.966  -75.9    .190  131.2   1.208  -41.1
 1800   1.180  123.8   1.954  -89.1    .245  125.0   1.226  -49.7
 2000   1.223  115.0   1.915 -104.0    .305  117.9   1.224  -59.8
