! Filename:       BFS17AI.S2P                                Version:   2.0
! Philips part #: BFS17A                                     Date: May 1990
! Bias condition: Vce=10V, Ic=15mA
!
#  MHz  S  MA  R  50
! Freq       S11            S21            S12            S22     !GUM [dB]
   40    .573  -32.7  25.747  154.5    .009   76.8    .938   -9.6 !    39.2
  100    .453  -69.6  18.801  130.1    .017   67.3    .802  -15.9 !    31.0
  200    .345 -105.9  11.759  110.6    .027   65.9    .682  -16.5 !    24.7
  300    .306 -126.5   8.332  100.7    .036   68.0    .637  -15.8 !    21.1
  400    .291 -139.6   6.408   94.3    .044   70.4    .618  -15.6 !    18.6
  500    .282 -148.4   5.206   89.5    .053   72.3    .609  -16.0 !    16.7
  600    .278 -155.3   4.386   85.5    .061   73.7    .605  -16.7 !    15.2
  700    .273 -160.8   3.792   82.1    .070   75.2    .604  -17.6 !    13.9
  800    .272 -166.2   3.347   78.8    .079   75.4    .606  -18.6 !    12.8
  900    .268 -171.4   2.992   75.7    .088   76.1    .606  -19.7 !    11.8
 1000    .270 -176.0   2.707   72.9    .096   76.6    .606  -20.8 !    11.0
 1200    .282  175.9   2.295   67.7    .113   77.3    .606  -23.3 !     9.6
 1400    .295  170.2   2.016   63.1    .131   78.0    .606  -26.1 !     8.5
 1600    .294  164.6   1.797   58.6    .148   78.3    .609  -28.7 !     7.5
 1800    .296  158.3   1.619   54.7    .166   78.6    .609  -31.4 !     6.6
 2000    .312  149.9   1.484   50.8    .185   78.4    .602  -34.1 !     5.8
