! Filename:       BFS17E.S2P                                 Version:   2.0
! Philips part #: BFS17                                      Date: Jun 1990
! Bias condition: Vce=5V, Ic=20mA
! 
#  MHz  S  MA  R  50
! Freq       S11            S21            S12            S22     !GUM [dB]
   40    .492  -59.2  26.431  143.8    .011   67.1    .870  -13.7 !    35.8
  100    .440 -109.3  16.480  117.6    .020   58.2    .694  -17.8 !    28.1
  200    .424 -138.4   9.104   99.6    .030   62.6    .599  -15.5 !    22.0
  300    .432 -151.9   6.309   90.3    .040   65.0    .576  -14.7 !    18.6
  400    .440 -160.1   4.727   83.8    .050   67.4    .570  -14.9 !    16.1
  500    .447 -165.7   3.782   79.7    .058   68.7    .568  -16.3 !    14.2
  600    .459 -167.5   3.164   75.5    .067   68.6    .574  -17.4 !    12.8
  700    .473 -172.6   2.713   71.0    .073   69.8    .581  -19.4 !    11.6
  800    .488 -177.3   2.394   67.3    .082   71.6    .586  -21.1 !    10.6
  900    .485  180.0   2.130   64.6    .089   72.8    .592  -22.9 !     9.6
 1000    .499  175.5   1.896   60.4    .097   74.2    .598  -24.9 !     8.7
 1200    .530  168.5   1.604   54.5    .111   77.5    .605  -29.3 !     7.5
 1400    .542  164.3   1.378   49.7    .130   80.0    .609  -34.1 !     6.3
 1600    .538  156.0   1.216   44.9    .151   83.3    .623  -38.9 !     5.3
 1800    .571  149.8   1.085   40.7    .174   84.6    .625  -43.9 !     4.6
 2000    .573  142.9    .996   36.9    .203   85.0    .622  -48.7 !     3.8
