! Filename:       BFS17CBD.S2P                               Version:   2.0
! Philips part #: BFS17                                      Date: Jul 1990
! Bias condition: Vce=5V, Ic=15mA
! COMMON BASE
#  MHz  S  MA  R  50
! Freq       S11            S21            S12            S22   
   40    .893  178.5   1.865   -2.3    .001   69.9   1.001   -1.0
  100    .891  177.1   1.865   -5.2    .002   97.6   1.005   -2.3
  200    .892  174.2   1.868  -10.4    .005  114.7   1.005   -4.8
  300    .891  171.3   1.876  -15.9    .009  123.9   1.011   -7.3
  400    .895  168.5   1.889  -21.6    .015  129.5   1.022  -10.0
  500    .901  165.8   1.909  -27.4    .022  134.4   1.035  -12.6
  600    .907  163.0   1.929  -33.5    .031  136.4   1.051  -15.4
  700    .917  160.3   1.944  -39.9    .041  137.8   1.069  -18.4
  800    .931  157.3   1.951  -46.9    .053  137.8   1.087  -21.7
  900    .947  154.3   1.962  -54.3    .067  137.7   1.107  -25.4
 1000    .962  151.1   1.969  -61.9    .081  137.0   1.128  -29.2
 1200    .993  144.4   1.935  -78.4    .119  133.6   1.158  -38.0
 1400   1.014  136.3   1.876  -96.2    .163  128.1   1.171  -47.7
 1600   1.021  127.9   1.734 -115.2    .211  122.0   1.151  -57.9
 1800   1.008  119.5   1.581 -133.6    .260  114.6   1.097  -68.4
 2000    .985  111.9   1.416 -151.9    .307  107.5   1.024  -78.9
